Place,Name,CyrillicName,BirthDate,Division,BodyweightKg,WeightClassKg,Squat1Kg,Squat2Kg,Squat3Kg,Best3SquatKg,Bench1Kg,Bench2Kg,Bench3Kg,Best3BenchKg,Deadlift1Kg,Deadlift2Kg,Deadlift3Kg,Best3DeadliftKg,TotalKg,Event,Equipment,Sex,Tested
1,Valentina Shadurskaya,Валентина Шадурская,1987-11-20,Amateur Open,52,52,-70,70,75,75,40,45,50,50,90,-95,95,95,220,SBD,Raw,F,Yes
1,Tatyana Shabanova,Татьяна Шабанова,1987-01-04,Amateur Open,55.2,56,-95,95,-102.5,95,47.5,-52.5,52.5,52.5,95,105,-110,105,252.5,SBD,Raw,F,Yes
2,Renata Bakieva,Рената Бакиева,1988-07-03,Amateur Open,55,56,-70,70,-80,70,40,45,47.5,47.5,80,90,-95,90,207.5,SBD,Raw,F,Yes
1,Anastasiya Sinegulova,Анастасия Синегулова,1992-06-26,Amateur Juniors 20-23,67,67.5,75,82.5,85,85,-65,65,70,70,90,100,105,105,260,SBD,Raw,F,Yes
1,Artem Zelenin,Артем Зеленин,1996-09-08,Amateur Teen 16-17,65.5,67.5,115,122.5,-127.5,122.5,115,120,125,125,145,152.5,,152.5,400,SBD,Raw,M,Yes
2,Aleksandr Chertushkin,Александр Чертушкин,1997-09-21,Amateur Teen 16-17,65.8,67.5,77.5,85,-95,85,65,70,72.5,72.5,100,110,-115,110,267.5,SBD,Raw,M,Yes
1,Dmitriy Baleev,Дмитрий Балеев,1992-07-06,Amateur Juniors 20-23,65.7,67.5,120,130,-135,130,90,95,100,100,120,135,145,145,375,SBD,Raw,M,Yes
1,Konstantin Sidenkov,Константин Сиденков,1967-10-30,Amateur Masters 45-49,69.9,75,120,130,-140,130,110,-115,,110,150,-160,160,160,400,SBD,Raw,M,Yes
1,Vyacheslav Gorbunov,Вячеслав Горбунов,1986-11-18,Amateur Open,81.4,82.5,130,140,145,145,120,-125,-125,120,-160,170,180,180,445,SBD,Raw,M,Yes
1,Mikhail Evdokimov,Михаил Евдокимов,1987-10-31,Amateur Open,88.4,90,-200,210,-220,210,140,150,-155,150,215,-230,-240,215,575,SBD,Raw,M,Yes
2,Ivan Khorev,Иван Хорев,1983-12-18,Amateur Open,87.1,90,160,165,170,170,115,120,125,125,200,222.5,-230,222.5,517.5,SBD,Raw,M,Yes
3,Mikhail Uvarov,Михаил Уваров,1985-06-01,Amateur Open,87.6,90,125,-135,140,140,100,-110,120,120,-162.5,175,187.5,187.5,447.5,SBD,Raw,M,Yes
DQ,Dmitriy Shestakov,Дмитрий Шестаков,1989-05-04,Amateur Open,83.6,90,155,-165,-165,155,-130,-130,-130,,-180,,,,,SBD,Raw,M,Yes
1,Vyacheslav Myasnikov,Вячеслав Мясников,1970-12-07,Amateur Masters 40-44,89.2,90,200,212.5,215,215,125,130,132.5,132.5,200,210,222.5,222.5,570,SBD,Raw,M,Yes
1,Dmitriy Chertushkin,Дмитрий Чертушкин,1965-08-15,Amateur Masters 45-49,90,90,150,165,-180,165,135,140,145,145,175,185,200,200,510,SBD,Raw,M,Yes
1,Aleksey Shutov,Алексей Шутов,1968-05-24,Amateur Masters 45-49,98.5,100,130,145,150,150,112.5,120,-122.5,120,155,170,-175,170,440,SBD,Raw,M,Yes
1,Amaliya Naam,Амалия Наам,1995-12-06,Amateur Teen 18-19,66,67.5,-127.5,127.5,135,135,80,85,90,90,-125,125,132.5,132.5,357.5,SBD,Single-ply,F,Yes
1,Ekaterina Fedorova,Екатерина Федорова,1994-07-02,Amateur Juniors 20-23,66.7,67.5,125,132.5,137.5,137.5,55,60,-65,60,105,-110,110,110,307.5,SBD,Single-ply,F,Yes
1,Dmitriy Chertushkin,Дмитрий Чертушкин,1965-08-15,Amateur Masters 45-49,90,90,-210,210,220,220,170,180,,180,200,-210,,200,600,SBD,Single-ply,M,Yes
1,Kirill Shatnyy,Кирилл Шатный,1994-08-20,Amateur Teen 18-19,104.7,110,-230,240,250,250,-190,200,-210,200,230,245,255,255,705,SBD,Single-ply,M,Yes
1,Aleksandr Tyamkin,Александр Тямкин,1987-04-17,Amateur Open,120.8,125,240,-250,250,250,140,150,160,160,240,252.5,-260,252.5,662.5,SBD,Single-ply,M,Yes
1,Olga Polygalova,Ольга Полыгалова,1988-02-08,Amateur Open,43.3,44,,,,,55,57.5,-60,57.5,,,,,57.5,B,Raw,F,Yes
2,Kristina Koshutina,Кристина Кошутина,1989-06-23,Amateur Open,41.8,44,,,,,35,37.5,-40,37.5,,,,,37.5,B,Raw,F,Yes
1,Anastasiya Savina,Анастасия Савина,1994-06-18,Amateur Juniors 20-23,55.5,56,,,,,55,-60,-62.5,55,,,,,55,B,Raw,F,Yes
1,Anastasiya Khramtsova,Анастасия Храмцова,1996-06-16,Amateur Teen 18-19,58,60,,,,,52.5,57.5,62.5,62.5,,,,,62.5,B,Raw,F,Yes
DQ,Ekaterina Ignateva,Екатерина Игнатьева,1995-01-02,Amateur Teen 18-19,58.6,60,,,,,-65,-67.5,-67.5,,,,,,,B,Raw,F,Yes
1,Anna Zavyalova,Анна Завьялова,1975-08-26,Amateur Open,57.8,60,,,,,-62.5,67.5,-72.5,67.5,,,,,67.5,B,Raw,F,Yes
1,Natalya Sokolova,Наталья Соколова,1972-11-16,Amateur Masters 40-44,58.8,60,,,,,50,57.5,-65,57.5,,,,,57.5,B,Raw,F,Yes
1,Olga Myasnikova,Ольга Мясникова,1970-08-20,Amateur Masters 40-44,74.4,75,,,,,50,57.5,-62.5,57.5,,,,,57.5,B,Raw,F,Yes
1,Artem Zelenin,Артем Зеленин,1996-09-08,Amateur Teen 16-17,65.5,67.5,,,,,120,125,,125,,,,,125,B,Raw,M,Yes
1,Vladimir Styogantsev,Владимир Стёганцев,1985-07-21,Amateur Open,67,67.5,,,,,150,-155,-155,150,,,,,150,B,Raw,M,Yes
1,Dmitriy Shutov,Дмитрий Шутов,1994-09-20,Amateur Teen 18-19,68.3,75,,,,,85,-92.5,-92.5,85,,,,,85,B,Raw,M,Yes
1,Yaroslav Yasas,Ярослав Ясас,1992-06-19,Amateur Juniors 20-23,74.9,75,,,,,135,137.5,140,140,,,,,140,B,Raw,M,Yes
2,Stanislav Ponomarev,Станислав Пономарев,1992-07-01,Amateur Juniors 20-23,73.1,75,,,,,115,120,-125,120,,,,,120,B,Raw,M,Yes
3,Ilya Podshivalov,Илья Подшивалов,1994-03-31,Amateur Juniors 20-23,74.4,75,,,,,110,-117.5,117.5,117.5,,,,,117.5,B,Raw,M,Yes
1,Renat Khabibullin,Ренат Хабибуллин,1984-06-07,Amateur Open,72.4,75,,,,,157.5,160,-162.5,160,,,,,160,B,Raw,M,Yes
2,Ruslan Mirzoev,Руслан Мирзоев,1984-01-20,Amateur Open,73.8,75,,,,,140,145,-150,145,,,,,145,B,Raw,M,Yes
3,Anton Karavaev,Антон Караваев,1981-09-16,Amateur Open,73.7,75,,,,,105,117.5,-120,117.5,,,,,117.5,B,Raw,M,Yes
4,Danil Privalov,Данил Привалов,1987-09-16,Amateur Open,73,75,,,,,110,-117.5,-117.5,110,,,,,110,B,Raw,M,Yes
DQ,Andrey Nikitin,Андрей Никитин,1989-12-06,Amateur Open,71.2,75,,,,,-117.5,-117.5,-117.5,,,,,,,B,Raw,M,Yes
1,Aleksandr Rudakov,Александр Рудаков,1990-09-09,Amateur Juniors 20-23,80.9,82.5,,,,,140,-150,-150,140,,,,,140,B,Raw,M,Yes
1,Ilya Makarov,Илья Макаров,1987-05-21,Amateur Open,80.8,82.5,,,,,160,167.5,-175,167.5,,,,,167.5,B,Raw,M,Yes
2,Evgeniy Durnev,Евгений Дурнев,1990-02-15,Amateur Open,80,82.5,,,,,120,127.5,132.5,132.5,,,,,132.5,B,Raw,M,Yes
3,Aleksandr Bludarev,Александр Блударев,1987-05-28,Amateur Open,80.4,82.5,,,,,120,-127.5,-127.5,120,,,,,120,B,Raw,M,Yes
1,Aleksey Babkin,Алексей Бабкин,1981-12-05,Amateur Open,87.5,90,,,,,152.5,157.5,165,165,,,,,165,B,Raw,M,Yes
2,Nikolay Dobrolyubov,Николай Добролюбов,1987-07-16,Amateur Open,85.6,90,,,,,132.5,137.5,-142.5,137.5,,,,,137.5,B,Raw,M,Yes
3,Andrey Shabrov,Андрей Шабров,1987-05-26,Amateur Open,85.8,90,,,,,132.5,137.5,-140,137.5,,,,,137.5,B,Raw,M,Yes
1,Maksim Sadykov,Максим Садыков,1992-04-15,Amateur Juniors 20-23,95.7,100,,,,,155,160,-162.5,160,,,,,160,B,Raw,M,Yes
DQ,Dmitriy Kuklin,Дмитрий Куклин,1990-11-08,Amateur Juniors 20-23,98.5,100,,,,,-150,-150,-150,,,,,,,B,Raw,M,Yes
1,Stanislav Usturoy,Станислав Устурой,1986-09-30,Amateur Open,98.1,100,,,,,152.5,-162.5,-162.5,152.5,,,,,152.5,B,Raw,M,Yes
1,Aleksandr Sapozhnikov,Александр Сапожников,1974-12-11,Amateur Open,108,110,,,,,185,190,-192.5,190,,,,,190,B,Raw,M,Yes
2,Ivan Dobrynin,Иван Добрынин,1982-05-22,Amateur Open,108.4,110,,,,,170,-175,-175,170,,,,,170,B,Raw,M,Yes
3,Aleksey Shishkin,Алексей Шишкин,1981-02-12,Amateur Open,106.2,110,,,,,160,-167.5,-167.5,160,,,,,160,B,Raw,M,Yes
1,Dmitriy Pyzhyanov,Дмитрий Пыжьянов,1994-05-04,Amateur Juniors 20-23,121.4,125,,,,,145,152.5,160,160,,,,,160,B,Raw,M,Yes
1,Aleksey Chermyaninov,Алексей Чермянинов,1976-12-29,Amateur Open,120.9,125,,,,,175,180,185,185,,,,,185,B,Raw,M,Yes
1,Sergey Lazarev,Сергей Лазарев,1960-04-04,Amateur Open,145,140+,,,,,130,135,-140,135,,,,,135,B,Raw,M,Yes
1,Sergey Lazarev,Сергей Лазарев,1960-04-04,Amateur Masters 50-54,145,140+,,,,,130,135,-140,135,,,,,135,B,Raw,M,Yes
1,Sergey Lysyakov,Сергей Лысяков,1980-04-17,Amateur Open,67.1,67.5,,,,,152.5,157.5,-162.5,157.5,,,,,157.5,B,Single-ply,M,Yes
1,Vyacheslav Khorev,Вячеслав Хорев,1976-12-27,Amateur Open,80.4,82.5,,,,,155,-162.5,-162.5,155,,,,,155,B,Single-ply,M,Yes
1,Artem Reshetnikov,Артем Решетников,1989-06-08,Amateur Open,99.4,100,,,,,195,207.5,215,215,,,,,215,B,Single-ply,M,Yes
DQ,Ilya Pakhomov,Илья Пахомов,1988-08-21,Amateur Open,100,100,,,,,-247.5,-247.5,-247.5,,,,,,,B,Single-ply,M,Yes
1,Evgeniy Chernozipunnikov,Евгений Чернозипунников,1956-01-21,Amateur Masters 55-59,96,100,,,,,-165,165,-172.5,165,,,,,165,B,Single-ply,M,Yes
1,Aleksandr Baranov,Александр Баранов,1985-11-19,Amateur Open,102.9,110,,,,,200,215,227.5,227.5,,,,,227.5,B,Single-ply,M,Yes
1,Sergey Kolesnichenko,Сергей Колесниченко,1979-11-19,Amateur Open,136.5,140,,,,,292.5,300,-305,300,,,,,300,B,Single-ply,M,Yes
DQ,Dinara Khanafieva,Динара Ханафиева,1981-06-02,Amateur Open,58.1,60,,,,,,,,,-110,-110,-110,,,D,Raw,F,Yes
1,Elvira Salikhova,Эльвира Салихова,1986-02-18,Amateur Open,66.5,67.5,,,,,,,,,-90,100,117.5,117.5,117.5,D,Raw,F,Yes
1,Darya Danilova,Дарья Данилова,1987-06-12,Amateur Open,76.9,82.5,,,,,,,,,-75,80,-90,80,80,D,Raw,F,Yes
1,Amridin Nurov,Амридин Нуров,1982-09-10,Amateur Open,85.7,90,,,,,,,,,200,210,220,220,220,D,Raw,M,Yes
2,Andrey Moseevskiy,Андрей Мосеевский,1989-04-17,Amateur Open,84.4,90,,,,,,,,,180,195,-207.5,195,195,D,Raw,M,Yes
3,Andrey Shishlov,Андрей Шишлов,1990-05-29,Amateur Open,87.2,90,,,,,,,,,-155,155,-170,155,155,D,Raw,M,Yes
1,Pavel Servut,Павел Сервут,1994-09-17,Amateur Teen 18-19,97.5,100,,,,,,,,,220,-232.5,,220,220,D,Raw,M,Yes
1,Maksim Sadykov,Максим Садыков,1992-04-15,Amateur Juniors 20-23,95.7,100,,,,,,,,,190,202.5,-210,202.5,202.5,D,Raw,M,Yes
1,Yuriy Suslov,Юрий Суслов,1986-05-15,Amateur Open,98.7,100,,,,,,,,,250,270,285,285,285,D,Raw,M,Yes
2,Arseniy Klevakin,Арсений Клевакин,1979-10-15,Amateur Open,95.2,100,,,,,,,,,210,220,230,230,230,D,Raw,M,Yes
1,Andrey Levchenko,Андрей Левченко,1979-04-06,Amateur Open,102.4,110,,,,,,,,,182.5,207.5,,207.5,207.5,D,Raw,M,Yes
1,Andrey Kardapolov,Андрей Кардаполов,1990-10-04,Pro Juniors 20-23,85.1,90,155,165,,165,120,-125,,120,180,190,-200,190,475,SBD,Raw,M,No
DQ,Dmitriy Shestakov,Дмитрий Шестаков,1989-05-04,Pro Open,83.6,90,-155,-155,155,155,-130,-130,-130,,,,,,,SBD,Raw,M,No
1,Ivan Anisimkov,Иван Анисимков,1994-11-09,Pro Teen 18-19,93,100,155,-170,180,180,-120,120,,120,170,-185,,170,470,SBD,Raw,M,No
1,Ruslan Ramazanov,Руслан Рамазанов,1993-04-19,Pro Juniors 20-23,97,100,260,275,290,290,180,187.5,195,195,255,265,275,275,760,SBD,Single-ply,M,No
1,Aleksandr Melnikov,Александр Мельников,1999-03-19,Pro Teen 13-15,57.3,60,,,,,60,-65,-65,60,,,,,60,B,Raw,M,No
1,Marat Zanakhov,Марат Занахов,1989-12-14,Pro Open,56.8,60,,,,,110,115,-120,115,,,,,115,B,Raw,M,No
1,Garifulla Gineatulin,Гарифулла Гинеатулин,1932-12-15,Pro Masters 80+,64.5,67.5,,,,,57.5,62.5,65,65,,,,,65,B,Raw,M,No
1,Evgeniy Krinitsyn,Евгений Криницын,1990-09-21,Pro Juniors 20-23,73.9,75,,,,,120,-140,-140,120,,,,,120,B,Raw,M,No
1,Evgeniy Kiselev,Евгений Киселев,1982-05-16,Pro Open,74.6,75,,,,,170,-182.5,-182.5,170,,,,,170,B,Raw,M,No
1,Gennadiy Pereladov,Геннадий Переладов,1936-06-06,Pro Masters 75-79,72.8,75,,,,,80,,,80,,,,,80,B,Raw,M,No
1,Maksim Kokoulin,Максим Кокоулин,1998-11-12,Pro Teen 13-15,82.2,82.5,,,,,65,75,80,80,,,,,80,B,Raw,M,No
1,Evgeniy Nazarov,Евгений Назаров,1996-02-24,Pro Teen 18-19,88.1,90,,,,,-145,150,-157.5,150,,,,,150,B,Raw,M,No
2,Vladislav Zinakaev,Владислав Зинакаев,1996-04-01,Pro Teen 18-19,88.2,90,,,,,90,100,-110,100,,,,,100,B,Raw,M,No
1,Dmitriy Churkin,Дмитрий Чуркин,1988-09-18,Pro Open,86.2,90,,,,,145,150,152.5,152.5,,,,,152.5,B,Raw,M,No
1,Andrey Shelepov,Андрей Шелепов,1970-05-04,Pro Masters 40-44,83.9,90,,,,,155,165,-170,165,,,,,165,B,Raw,M,No
1,Fedor Chesnokov,Федор Чесноков,1947-02-16,Pro Masters 65-69,89.2,90,,,,,132.5,142.5,147.5,147.5,,,,,147.5,B,Raw,M,No
1,Aleksandr Morev,Александр Морев,1991-08-28,Pro Juniors 20-23,96.7,100,,,,,142.5,152.5,-162.5,152.5,,,,,152.5,B,Raw,M,No
1,Anton Podoksenov,Антон Подоксенов,1990-04-24,Pro Open,97,100,,,,,175,-182.5,-182.5,175,,,,,175,B,Raw,M,No
1,Vyacheslav Beltyukov,Вячеслав Бельтюков,1987-09-09,Pro Open,107.8,110,,,,,180,-187.5,195,195,,,,,195,B,Raw,M,No
1,Vyacheslav Filatov,Вячеслав Филатов,1962-12-15,Pro Masters 50-54,105.4,110,,,,,140,-147.5,155,155,,,,,155,B,Raw,M,No
1,Rustam Abdulov,Рустам Абдулов,1982-09-16,Pro Open,124.8,125,,,,,215,230,-235,230,,,,,230,B,Raw,M,No
1,Dmitriy Minyaev,Дмитрий Миняев,1972-02-28,Pro Masters 40-44,111.5,125,,,,,175,-185,-185,175,,,,,175,B,Raw,M,No
1,Viktor Eremenko,Виктор Еременко,1970-05-14,Pro Masters 40-44,98.2,100,,,,,200,210,220,220,,,,,220,B,Single-ply,M,No
1,Evgeniy Blinkov,Евгений Блинков,1987-09-03,Pro Open,98.1,100,,,,,,,,,290,317.5,-332.5,317.5,317.5,D,Raw,M,No
2,Vyacheslav Fedotov,Вячеслав Федотов,1988-04-27,Pro Open,98.9,100,,,,,,,,,-195,205,217.5,217.5,217.5,D,Raw,M,No
1,Andrey Mitrofanov,Андрей Митрофанов,1978-08-08,Pro Open,82.2,82.5,,,,,,,,,230,250,265,265,265,D,Single-ply,M,No
