Division,WeightClassKg,Place,Name,Team,BodyweightKg,Best3SquatKg,Best3BenchKg,Best3DeadliftKg,TotalKg,Equipment,Event,Sex
Boys,51.71,1,Billy Jackson,Odessa,50.44,115.67,77.11,108.86,301.64,Single-ply,SBD,M
Boys,51.71,2,Bryson Ovalle,Big Spring,51.71,108.86,61.23,117.93,288.03,Single-ply,SBD,M
Boys,55.79,1,Cody Coombs,San Angelo Lake View,55.43,147.42,92.99,147.42,387.82,Single-ply,SBD,M
Boys,55.79,2,Tucker Craig,Midland,54.79,138.35,79.38,127.01,344.73,Single-ply,SBD,M
Boys,55.79,3,Kris Hernandez,Lamesa,55.61,102.06,65.77,140.61,308.44,Single-ply,SBD,M
Boys,55.79,4,Aaron Blackshear,Big Spring,55.61,111.13,56.7,131.54,299.37,Single-ply,SBD,M
Boys,55.79,5,Aaron Caroll,Big Spring,54.79,104.33,52.16,117.93,274.42,Single-ply,SBD,M
Boys,59.87,1,Callum Hurst,Coahoma,58.06,181.44,102.06,185.97,469.47,Single-ply,SBD,M
Boys,59.87,2,Zach Fuentes,Coahoma,59.6,158.76,102.06,172.37,433.18,Single-ply,SBD,M
Boys,59.87,3,Nicholas Acosta,Seminole,59.87,136.08,88.45,156.49,381.02,Single-ply,SBD,M
Boys,59.87,4,Nathaniel Duarte,Odessa,57.7,113.4,77.11,127.01,317.51,Single-ply,SBD,M
Boys,59.87,5,Joe Manning,Coahoma,56.88,115.67,58.97,129.27,303.91,Single-ply,SBD,M
Boys,59.87,6,Justin Guffey,Seminole,56.79,102.06,65.77,106.59,274.42,Single-ply,SBD,M
Boys,59.87,DQ,Devan Glover,Midland Lee,58.97,129.27,86.18,,,Single-ply,SBD,M
Boys,67.13,1,Andrew Martinez,Coahoma,65.14,192.78,115.67,204.12,512.56,Single-ply,SBD,M
Boys,67.13,2,Braidon Clemence,Midland Lee,66.32,147.42,90.72,183.7,421.84,Single-ply,SBD,M
Boys,67.13,3,Israel Delgado,Midland Lee,66.95,154.22,102.06,163.29,419.57,Single-ply,SBD,M
Boys,67.13,4,James Christensen,San Angelo Lake View,67.04,147.42,99.79,147.42,394.63,Single-ply,SBD,M
Boys,67.13,5,Josh Grimsely,Coahoma,65.68,142.88,83.91,147.42,374.21,Single-ply,SBD,M
Boys,67.13,6,Garrett Ransom,Midland Lee,63.78,133.81,72.57,145.15,351.53,Single-ply,SBD,M
Boys,67.13,7,Adam Brito,Coahoma,63.14,129.27,83.91,136.08,349.27,Single-ply,SBD,M
Boys,67.13,8,Luke Cowan,Midland Greenwood,66.22,127.01,74.84,129.27,331.12,Single-ply,SBD,M
Boys,67.13,9,William Barry,Midland Classical Academy,63.23,86.18,52.16,120.2,258.55,Single-ply,SBD,M
Boys,74.84,1,Chase Rheilander,Midland,69.58,192.78,127.01,192.78,512.56,Single-ply,SBD,M
Boys,74.84,2,Ruben Luna,Midland Lee,68.67,188.24,117.93,183.7,489.88,Single-ply,SBD,M
Boys,74.84,3,John Paul Estrada,Midland,72.21,167.83,108.86,181.44,458.13,Single-ply,SBD,M
Boys,74.84,4,Adrian Alvidrez,Seminole,74.84,181.44,104.33,172.37,458.13,Single-ply,SBD,M
Boys,74.84,5,Albert Arroyo,Odessa,74.66,156.49,97.52,172.37,426.38,Single-ply,SBD,M
Boys,82.1,1,Tyler Gonzales,Midland,75.02,204.12,127.01,201.85,532.97,Single-ply,SBD,M
Boys,82.1,2,Carlos Hinojosa,Lamesa,80.92,201.85,106.59,217.72,526.17,Single-ply,SBD,M
Boys,82.1,3,Noah Nandin,San Angelo Lake View,81.83,176.9,111.13,217.72,505.76,Single-ply,SBD,M
Boys,82.1,4,Francisco Muniz,San Angelo Lake View,78.74,163.29,106.59,210.92,480.81,Single-ply,SBD,M
Boys,82.1,5,Caleb Ramirez,San Angelo Lake View,75.93,165.56,102.06,199.58,467.2,Single-ply,SBD,M
Boys,82.1,6,Jimetre Post,Big Spring,80.01,163.29,97.52,206.38,467.2,Single-ply,SBD,M
Boys,82.1,7,Braden Rader,Midland Greenwood,77.93,181.44,97.52,165.56,444.52,Single-ply,SBD,M
Boys,82.1,8,Tristan Sage,Midland Greenwood,79.2,149.69,88.45,158.76,396.89,Single-ply,SBD,M
Boys,82.1,9,Larry Steger,Odessa,80.38,133.81,102.06,158.76,394.63,Single-ply,SBD,M
Boys,82.1,DQ,Ross Marker,Midland,77.47,,,,,Single-ply,SBD,M
Boys,89.81,1,Josh Chandler,Midland,86.73,215.46,138.35,204.12,557.92,Single-ply,SBD,M
Boys,89.81,2,Anthony Gloria,San Angelo Lake View,88.27,208.65,122.47,206.38,537.51,Single-ply,SBD,M
Boys,89.81,3,Java Smith,San Angelo Lake View,85.82,226.8,111.13,195.04,532.97,Single-ply,SBD,M
Boys,89.81,4,Dalton Richardson,Midland Greenwood,84.64,204.12,111.13,213.19,528.44,Single-ply,SBD,M
Boys,89.81,5,Collin McCullough,Midland,83.91,167.83,129.27,206.38,503.49,Single-ply,SBD,M
Boys,89.81,6,Angel Nabarette,Midland,84.73,185.97,111.13,204.12,501.22,Single-ply,SBD,M
Boys,89.81,7,Braden Latham,Midland Greenwood,82.64,181.44,120.2,179.17,480.81,Single-ply,SBD,M
Boys,89.81,8,Ivan Delgado,Big Spring,88.99,188.24,106.59,185.97,480.81,Single-ply,SBD,M
Boys,89.81,9,Damian Loya,Odessa,88.99,181.44,108.86,185.97,476.27,Single-ply,SBD,M
Boys,89.81,10,Alvaro Leyva,Odessa,85.46,158.76,115.67,188.24,462.66,Single-ply,SBD,M
Boys,89.81,11,Ariel Delgado,Seminole,85.37,131.54,81.65,138.35,351.53,Single-ply,SBD,M
Boys,89.81,DQ,Seth Van,Midland,87.27,163.29,,,,Single-ply,SBD,M
Boys,99.79,1,Turner Phillips,Midland,92.35,238.14,147.42,240.4,625.96,Single-ply,SBD,M
Boys,99.79,2,Jessie Villarreal,Lamesa,98.61,190.51,131.54,199.58,521.63,Single-ply,SBD,M
Boys,99.79,3,O'Ryan Farley,Odessa Permian,96.25,188.24,117.93,204.12,510.29,Single-ply,SBD,M
Boys,99.79,4,Kougar Rodriguez,Midland Lee,93.8,192.78,111.13,181.44,485.34,Single-ply,SBD,M
Boys,99.79,5,Channing Miller,Big Spring,95.53,190.51,102.06,179.17,471.74,Single-ply,SBD,M
Boys,99.79,6,Jonathan Denmond,Odessa,97.61,172.37,113.4,183.7,469.47,Single-ply,SBD,M
Boys,99.79,7,Jacob Wilkerson,Odessa Permian,94.26,181.44,127.01,158.76,467.2,Single-ply,SBD,M
Boys,99.79,8,Khaled Abu-Alghanam,Odessa Permian,91.53,181.44,104.33,176.9,462.66,Single-ply,SBD,M
Boys,99.79,9,Christian Alvarez #2,Odessa,99.79,170.1,120.2,170.1,460.4,Single-ply,SBD,M
Boys,99.79,10,Brison Smith,Odessa,93.08,158.76,129.27,158.76,446.79,Single-ply,SBD,M
Boys,99.79,11,Nathan Sanchez-Juarez,Odessa,94.62,140.61,86.18,181.44,408.23,Single-ply,SBD,M
Boys,109.77,1,Keoni Garcia,Midland,105.23,272.16,170.1,244.94,687.19,Single-ply,SBD,M
Boys,109.77,2,Jesse Cuellar,Coahoma,108.14,272.16,176.9,208.65,657.71,Single-ply,SBD,M
Boys,109.77,3,Jesus Benitez,Lamesa,101.06,260.82,138.35,226.8,625.96,Single-ply,SBD,M
Boys,109.77,4,Adan Chavez,Midland Lee,109.13,215.46,122.47,226.8,564.72,Single-ply,SBD,M
Boys,109.77,5,Sam Sentena,San Angelo Lake View,102.51,192.78,120.2,233.6,546.58,Single-ply,SBD,M
Boys,109.77,6,Mark Prieto,Odessa Permian,103.87,147.42,108.86,156.49,412.77,Single-ply,SBD,M
Boys,109.77,7,Matt Barnett,Midland Classical Academy,104.33,133.81,90.72,145.15,369.68,Single-ply,SBD,M
Boys,109.77,8,Carson Shaffer,Odessa Permian,100.15,120.2,90.72,142.88,353.8,Single-ply,SBD,M
Boys,109.77,DQ,Felipe Diaz,Midland Lee,103.51,199.58,113.4,,,Single-ply,SBD,M
Boys,109.77,DQ,Marquis Rogers,Midland Lee,106.78,,,,,Single-ply,SBD,M
Boys,109.77,DQ,Marcus Sanchez,Midland,104.33,,,,,Single-ply,SBD,M
Boys,109.77,DQ,Omar Villanueva,Midland,107.68,188.24,113.4,,,Single-ply,SBD,M
Boys,124.74,1,Devon Miller,Midland,118.02,317.51,204.12,294.84,816.47,Single-ply,SBD,M
Boys,124.74,2,Paxton Heiting,Midland,122.56,226.8,183.7,247.21,657.71,Single-ply,SBD,M
Boys,124.74,3,Josh Rubalcalba,Odessa Permian,114.31,242.67,138.35,206.38,587.4,Single-ply,SBD,M
Boys,124.74,4,Boomer Warren,Midland Lee,113.94,231.33,131.54,213.19,576.06,Single-ply,SBD,M
Boys,124.74,5,Bailey Perez,Odessa,116.21,197.31,120.2,208.65,526.17,Single-ply,SBD,M
Boys,124.74,6,Jarod Rose,Midland Greenwood,113.67,199.58,117.93,190.51,508.02,Single-ply,SBD,M
Boys,124.74,7,Jonathen Villavicencio,Midland Lee,111.95,174.63,113.4,190.51,478.54,Single-ply,SBD,M
Boys,124.74,8,Dawson Reynolds,Odessa Permian,123.92,181.44,111.13,181.44,474,Single-ply,SBD,M
Boys,124.74,9,Bryson White,Odessa Permian,111.22,181.44,106.59,183.7,471.74,Single-ply,SBD,M
Boys,124.74,10,Paul Freeman,Odessa Permian,110.68,158.76,106.59,158.76,424.11,Single-ply,SBD,M
Boys,124.74,11,Josh Dira,Midland Classical Academy,115.85,142.88,70.31,170.1,383.29,Single-ply,SBD,M
Boys,124.74,DQ,Jonas Turnbough,Coahoma,110.04,226.8,111.13,,,Single-ply,SBD,M
Boys,124.74+,1,Braxton Gardner,Midland,137.35,283.5,142.88,267.62,694,Single-ply,SBD,M
Boys,124.74+,2,Cesar Juarez,Midland,137.08,290.3,183.7,199.58,673.58,Single-ply,SBD,M
Boys,124.74+,3,Juan Vasquez,Midland,140.07,226.8,151.95,192.78,571.53,Single-ply,SBD,M
Boys,124.74+,4,Tito Salcido,Midland,126.37,204.12,142.88,201.85,548.85,Single-ply,SBD,M
Boys,124.74+,5,Pablo Olivares,Odessa Permian,129.91,233.6,108.86,204.12,546.58,Single-ply,SBD,M
Boys,124.74+,6,Johnny Fehr,Seminole,126.37,206.38,122.47,195.04,523.9,Single-ply,SBD,M
Boys,124.74+,7,Patrick Leyva,Midland Lee,149.32,215.46,102.06,204.12,521.63,Single-ply,SBD,M
Boys,,NS,Zane Spraglin,Midland Lee,,,,,,Single-ply,SBD,M
Boys,,NS,Mason Hubbard,Midland Lee,,,,,,Single-ply,SBD,M
Boys,,NS,Tyler Rodriuez,Midland Lee,,,,,,Single-ply,SBD,M
Boys,,NS,Kris Arnold,Odessa,,,,,,Single-ply,SBD,M
Boys,,NS,Michael Vandiver,Midland Greenwood,,,,,,Single-ply,SBD,M
Boys,,NS,Michael Barela,Midland Greenwood,,,,,,Single-ply,SBD,M
Boys,,NS,Ashton Akbar,Midland Lee,,,,,,Single-ply,SBD,M
Boys,,NS,Spencer Adams,Midland Lee,,,,,,Single-ply,SBD,M
Boys,,NS,Steven Quiroz,Midland Lee,,,,,,Single-ply,SBD,M
Boys,,NS,Dylan Goode,Midland Lee,,,,,,Single-ply,SBD,M
Boys,,NS,Tyler McFall,Coahoma,,,,,,Single-ply,SBD,M
Boys,,NS,Justin Cuellar,Coahoma,,,,,,Single-ply,SBD,M
Boys,,NS,Logan Brinlee,Coahoma,,,,,,Single-ply,SBD,M
Boys,,NS,Zach Holmes,Coahoma,,,,,,Single-ply,SBD,M
Boys,,NS,Jonathan Padilla,Lamesa,,,,,,Single-ply,SBD,M
Boys,,NS,Hayden Gary,Seminole,,,,,,Single-ply,SBD,M
Boys,,NS,Austin Kelly,Seminole,,,,,,Single-ply,SBD,M
Boys,,NS,Isaiah Maqueze,Seminole,,,,,,Single-ply,SBD,M
Boys,,NS,Daniel Rodriguez #6,Seminole,,,,,,Single-ply,SBD,M
Boys,,NS,Elias Zuniga,Odessa Permian,,,,,,Single-ply,SBD,M
Boys,,NS,Miguel Arroyo,San Angelo Lake View,,,,,,Single-ply,SBD,M
Boys,,NS,Emmanuel Dominguez,Seminole,,,,,,Single-ply,SBD,M
Boys,,NS,Devin Rodriguez,Seminole,,,,,,Single-ply,SBD,M
Boys,,NS,Antonio Arreola,Seminole,,,,,,Single-ply,SBD,M
Boys,,NS,Christopher Arzate,Seminole,,,,,,Single-ply,SBD,M
Boys,,NS,Zack White,San Angelo Lake View,,,,,,Single-ply,SBD,M
Boys,,NS,Elijah Davis,San Angelo Lake View,,,,,,Single-ply,SBD,M
Boys,,NS,Michael Jordan,San Angelo Lake View,,,,,,Single-ply,SBD,M
Boys,,NS,David Luera,San Angelo Lake View,,,,,,Single-ply,SBD,M
Boys,,NS,Jeremy Mireles,San Angelo Lake View,,,,,,Single-ply,SBD,M
