Name,CyrillicName,Country,Team,BirthDate,WeightClassKg,BodyweightKg,Squat1Kg,Squat2Kg,Squat3Kg,Squat4Kg,Best3SquatKg,Bench1Kg,Bench2Kg,Bench3Kg,Bench4Kg,Best3BenchKg,Deadlift1Kg,Deadlift2Kg,Deadlift3Kg,Best3DeadliftKg,TotalKg,Event,Equipment,Sex,Division,Place
Oleksandr Denisov,Олександр Денісов,Ukraine,ДЕНАМИТ,1992-07-11,,97.4,-330,340,360,,360,,,,,,,,,,360,S,Wraps,M,Open,1
Ivan Ryabenkov,Иван Рябенков,Russia,MAD CLUB,1996-01-14,,145.5,385,-405,-405,,385,,,,,,,,,,385,S,Wraps,M,Open,2
Vasiliy Tsvetkov,Василий Цветков,Russia,Сборная России,1981-07-05,,80.3,260,280,290,-302.5,290,,,,,,,,,,290,S,Wraps,M,Open,3
Oleksandr Hushtyk,Олександр Гуштик,Ukraine,Одесситы,1998-12-30,,75,-292.5,292.5,302.5,-325,302.5,,,,,,,,,,302.5,S,Wraps,M,Open,4
Artem Bykhovets,Артем Быховец,Russia,Великая Сибирь,1983-07-19,,92.3,290,302.5,312.5,322.5,312.5,,,,,,,,,,312.5,S,Wraps,M,Open,5
Anton Khodko,Антон Ходько,Belarus,Троя,1992-09-13,,86,-300,300,310,,310,,,,,,,,,,310,S,Wraps,M,Open,6
Artyom Seleznyov,Артём Селезнёв,Belarus,Кавалi,1991-08-19,,108.5,305,330,-345,,330,,,,,,,,,,330,S,Wraps,M,Open,7
Sergey Tarasov,Сергей Тарасов,Belarus,Т-50,1994-06-24,,116.9,-330,-345,-352.5,,,,,,,,,,,,,S,Wraps,M,Open,DQ
Giorgi Gogolidze,Георгий Гоголидзе,Georgia,Сборная Грузии,1988-03-04,,135.9,-360,-360,-380,,,,,,,,,,,,,S,Wraps,M,Open,DQ
Stanislav Milostnoy,Станислав Милостной,Russia,ДЕНАМИТ,1987-12-19,,83,,,,,,230,235,-240,,235,,,,,235,B,Raw,M,Open,1
Roman Eremashvili,Роман Еремашвили,Belarus,MAD CLUB,1981-05-27,,72.7,,,,,,-230,230,-241,,230,,,,,230,B,Raw,M,Open,2
Andrey Sapozhonkov,Андрей Сапожонков,Russia,Сборная России,1987-06-26,,92.7,,,,,,265,-272.5,-272.5,,265,,,,,265,B,Raw,M,Open,3
Peteris Isājevs,Петерис Исаеве,Latvia,Одесситы,1994-02-20,,134.2,,,,,,262.5,272.5,-280,,272.5,,,,,272.5,B,Raw,M,Open,4
Maksim Medvedev,Максим Медведев,Russia,Великая Сибирь,1981-05-16,,111.8,,,,,,225,230,-235,,230,,,,,230,B,Raw,M,Open,5
Evgeniy Bulkin,Евгений Булкин,Belarus,Троя,1989-09-21,,72.2,,,,,,200,-205,-205,,200,,,,,200,B,Raw,M,Open,6
Sergey Kuznetsov,Сергей Кузнецов,Belarus,Кавалi,1981-05-11,,118.7,,,,,,235,245,250,-255,250,,,,,250,B,Raw,M,Open,7
Pavel Kreynis,Павел Крейнис,Belarus,Т-50,1988-08-10,,101.4,,,,,,205,215,225,235,225,,,,,225,B,Raw,M,Open,8
Georgi Beroshvili,Георгий Берошвили,Georgia,Сборная Грузии,1984-04-27,,110.8,,,,,,255,-272.5,-280,,255,,,,,255,B,Raw,M,Open,9
Aliaksei Stasevich,Алексей Стасевич,Belarus,,,110,,,,,,,360,370,372.5,,372.5,,,,,372.5,B,Single-ply,M,Open,G
Dmitriy Shashkov,Дмитрий Шашков,Belarus,,,110,,,,,,,362.5,-370,371,,371,,,,,371,B,Single-ply,M,Open,G
Dmitry Nasonov,Дмитрий Насонов,Russia,ДЕНАМИТ,1992-02-13,,82.3,,,,,,,,,,,385,-405,-405,385,385,D,Raw,M,Open,1
Konstantin Morozov #1,Константин Морозов,Russia,MAD CLUB,1984-10-23,,127.2,,,,,,,,,,,400,-415,,400,400,D,Raw,M,Open,2
Ilya Fedorov,Илья Фёдоров,Russia,Сборная России,1992-01-29,,89.1,,,,,,,,,,,-360,360,,360,360,D,Raw,M,Open,3
Vladimir Babin,Владимир Бабин,Russia,Одесситы,1992-08-09,,88.5,,,,,,,,,,,-350,350,-401,350,350,D,Raw,M,Open,4
Alexandr Kodis,Александр Кодис,Russia,Великая Сибирь,1987-08-16,,109.4,,,,,,,,,,,370,375,-377.5,375,375,D,Raw,M,Open,5
Aleksandr Buyan,Александр Буян,Belarus,Троя,1990-03-02,,91.9,,,,,,,,,,,322.5,-330,,322.5,322.5,D,Raw,M,Open,6
Sergey Ivaneychik,Сергей Иванейчик,Belarus,Кавалi,1983-05-24,,106.7,,,,,,,,,,,335,-345,,335,335,D,Raw,M,Open,7
Nikolay Morozov,Николай Морозов,Belarus,Т-50,1976-09-07,,90.3,,,,,,,,,,,320,-340,-340,320,320,D,Raw,M,Open,8
David Rogachyov,Давид Рогачёв,Georgia,Сборная Грузии,1977-09-21,,148.6,,,,,,,,,,,310,350,-360,350,350,D,Raw,M,Open,9
