Division,WeightClassKg,Place,Name,Team,BodyweightKg,Best3SquatKg,Best3BenchKg,Best3DeadliftKg,TotalKg,Equipment,Event,Sex
Boys,51.71,1,Angel Garcia #6,Edinburg Idea College Prep,50.71,185.97,102.06,170.1,458.13,Single-ply,SBD,M
Boys,51.71,2,Natanael Salinas,Bloomington,51.53,158.76,81.65,170.1,410.5,Single-ply,SBD,M
Boys,51.71,3,Arnold Pena,Benavides,51.44,154.22,83.91,163.29,401.43,Single-ply,SBD,M
Boys,51.71,4,Cole Terry,Skidmore-Tynan,51.17,145.15,83.91,158.76,387.82,Single-ply,SBD,M
Boys,51.71,5,Mason Williams,Yorktown,51.26,156.49,79.38,149.69,385.55,Single-ply,SBD,M
Boys,51.71,6,Johnny Gomez,Rocksprings,51.35,147.42,88.45,149.69,385.55,Single-ply,SBD,M
Boys,51.71,7,AJ Perez,Ben Bolt-Palito Blanco,51.71,142.88,90.72,142.88,376.48,Single-ply,SBD,M
Boys,51.71,8,Tyrese Perkins,Cotulla,51.26,120.2,86.18,156.49,362.87,Single-ply,SBD,M
Boys,51.71,9,Javier Cantu,San Diego,51.53,113.4,63.5,147.42,324.32,Single-ply,SBD,M
Boys,51.71,10,Joe Castillo #3,Altair Rice,50.8,127.01,56.7,133.81,317.51,Single-ply,SBD,M
Boys,51.71,11,Caleb Edwards,Goliad,48.99,102.06,61.23,113.4,276.69,Single-ply,SBD,M
Boys,51.71,12,Adrian Narvaiz,Cotulla,47.36,83.91,47.63,102.06,233.6,Single-ply,SBD,M
Boys,55.79,1,Manuel Padilla,Natalia,55.07,181.44,92.99,188.24,462.66,Single-ply,SBD,M
Boys,55.79,2,Kyle Bailey,Karnes City,55.52,172.37,99.79,161.03,433.18,Single-ply,SBD,M
Boys,55.79,3,Matthew Morales,Edinburg Quest College Prep,55.07,142.88,95.25,179.17,417.3,Single-ply,SBD,M
Boys,55.79,4,Joey Garcia,Marion,55.16,142.88,81.65,190.51,415.04,Single-ply,SBD,M
Boys,55.79,5,Brandon Canales,Benavides,55.52,165.56,79.38,170.1,415.04,Single-ply,SBD,M
Boys,55.79,6,Lucas Lara,Mathis,55.7,147.42,92.99,174.63,415.04,Single-ply,SBD,M
Boys,55.79,7,Vynce Ochoa,Dilley,55.43,161.03,90.72,158.76,410.5,Single-ply,SBD,M
Boys,55.79,8,Tyler Harris,Skidmore-Tynan,55.7,151.95,74.84,174.63,401.43,Single-ply,SBD,M
Boys,55.79,9,Niko Munoz,Falfurrias,55.79,145.15,88.45,167.83,401.43,Single-ply,SBD,M
Boys,55.79,10,Miguel Ramirez,Agua Dulce,55.79,170.1,70.31,158.76,399.16,Single-ply,SBD,M
Boys,55.79,11,Rj Garcia,Agua Dulce,55.79,167.83,81.65,147.42,396.89,Single-ply,SBD,M
Boys,59.87,1,Anthony Perez,San Diego,59.24,226.8,124.74,226.8,578.33,Single-ply,SBD,M
Boys,59.87,2,Richard Saenz,Hebbronville,59.87,233.6,124.74,188.24,546.58,Single-ply,SBD,M
Boys,59.87,3,Marcos Chavez,Lyford,59.78,174.63,99.79,215.46,489.88,Single-ply,SBD,M
Boys,59.87,4,Tyrese Martinez,Stockdale,58.97,181.44,104.33,201.85,487.61,Single-ply,SBD,M
Boys,59.87,5,Samuel Moczygemba,Poth,59.78,179.17,97.52,174.63,451.32,Single-ply,SBD,M
Boys,59.87,6,Ryan Saenz,Hebbronville,59.69,174.63,95.25,179.17,449.06,Single-ply,SBD,M
Boys,59.87,7,Alejandro Ramirez,Falfurrias,59.87,151.95,92.99,192.78,437.72,Single-ply,SBD,M
Boys,59.87,8,Zach Baker,Hallettsville,59.87,176.9,77.11,176.9,430.91,Single-ply,SBD,M
Boys,59.87,9,Danny Morales,Karnes City,58.51,170.1,83.91,163.29,417.3,Single-ply,SBD,M
Boys,59.87,10,Andrew Nevarez,Edinburg Idea College Prep,59.78,163.29,86.18,158.76,408.23,Single-ply,SBD,M
Boys,59.87,11,Ryan Juarez,Natalia,58.51,147.42,72.57,154.22,374.21,Single-ply,SBD,M
Boys,59.87,DQ,Matthew Gauthier,Marion,58.33,,,,,Single-ply,SBD,M
Boys,67.13,1,Jacob Fanno,Jourdanton,67.13,229.06,120.2,226.8,576.06,Single-ply,SBD,M
Boys,67.13,2,Diego Perez #1,Rocksprings,66.68,224.53,129.27,190.51,544.31,Single-ply,SBD,M
Boys,67.13,3,Arturo Reyna,Bishop,67.13,222.26,127.01,195.04,544.31,Single-ply,SBD,M
Boys,67.13,4,Ramiro Gonzalez,Falfurrias,67.13,210.92,122.47,210.92,544.31,Single-ply,SBD,M
Boys,67.13,5,Enrique Garza,Dilley,67.13,195.04,113.4,199.58,508.02,Single-ply,SBD,M
Boys,67.13,6,Nathaniel McRae,Hebbronville,67.13,183.7,106.59,215.46,505.76,Single-ply,SBD,M
Boys,67.13,7,Denver Evans,Yoakum,66.41,190.51,104.33,201.85,496.68,Single-ply,SBD,M
Boys,67.13,8,Anthony de Leon,Edinburg Quest College Prep,66.59,161.03,106.59,188.24,455.86,Single-ply,SBD,M
Boys,67.13,9,Juid Colchado,Cotulla,65.41,179.17,108.86,165.56,453.59,Single-ply,SBD,M
Boys,67.13,10,Dominick Espinoza,Center Point,65.59,165.56,97.52,185.97,449.06,Single-ply,SBD,M
Boys,67.13,DQ,Andrew Powell,Hallettsville,66.77,174.63,,,,Single-ply,SBD,M
Boys,74.84,1,Javier Rodriguez,San Diego,73.94,274.42,163.29,226.8,664.51,Single-ply,SBD,M
Boys,74.84,2,Mike Adameit,Lyford,74.84,247.21,136.08,229.06,612.35,Single-ply,SBD,M
Boys,74.84,3,Gilibaldo Garcia,San Antonio Brooks Academy,74.66,240.4,124.74,244.94,610.08,Single-ply,SBD,M
Boys,74.84,4,Nick Rodriguez,Dilley,72.3,210.92,115.67,213.19,539.77,Single-ply,SBD,M
Boys,74.84,5,Arin Saenz,Freer,73.03,210.92,120.2,208.65,539.77,Single-ply,SBD,M
Boys,74.84,6,Marcus Almeida,Stockdale,73.39,199.58,138.35,199.58,537.51,Single-ply,SBD,M
Boys,74.84,7,Kaden Crouch,Stockdale,74.84,201.85,131.54,199.58,532.97,Single-ply,SBD,M
Boys,74.84,8,Juan Flores,Rocksprings,71.03,201.85,102.06,215.46,519.36,Single-ply,SBD,M
Boys,74.84,9,Edher Nava,Marion,74.3,188.24,115.67,208.65,512.56,Single-ply,SBD,M
Boys,74.84,10,Adrian Rojas,Bloomington,73.48,174.63,129.27,195.04,498.95,Single-ply,SBD,M
Boys,74.84,DQ,Jacob Sanchez,Lyford,74.84,210.92,115.67,,,Single-ply,SBD,M
Boys,82.1,1,Isaiah Herring,Hallettsville,78.93,235.87,145.15,238.14,619.15,Single-ply,SBD,M
Boys,82.1,2,Raziel Galindo,Rocksprings,80.83,229.06,124.74,258.55,612.35,Single-ply,SBD,M
Boys,82.1,3,Elijah Holifield,Skidmore-Tynan,81.65,208.65,145.15,258.55,612.35,Single-ply,SBD,M
Boys,82.1,4,Alan Medrano,Bishop,81.92,233.6,140.61,238.14,612.35,Single-ply,SBD,M
Boys,82.1,5,Frank Moreno,Lyford,79.83,226.8,122.47,251.74,601.01,Single-ply,SBD,M
Boys,82.1,6,John Hodge,Pettus,80.56,231.33,120.2,249.48,601.01,Single-ply,SBD,M
Boys,82.1,7,Connor Bowers,Bishop,79.02,226.8,142.88,215.46,585.13,Single-ply,SBD,M
Boys,82.1,8,Ithel Carrillo,Hebbronville,82.1,229.06,136.08,210.92,576.06,Single-ply,SBD,M
Boys,82.1,9,Angel Martinez #5,Cotulla,82.1,217.72,133.81,204.12,555.65,Single-ply,SBD,M
Boys,82.1,10,Brit Bowers,Bishop,82.01,188.24,138.35,226.8,553.38,Single-ply,SBD,M
Boys,82.1,11,Brent Gisler,Karnes City,78.2,201.85,136.08,199.58,537.51,Single-ply,SBD,M
Boys,89.81,1,Mitchell Rees,Karnes City,85.37,306.17,151.95,254.01,712.14,Single-ply,SBD,M
Boys,89.81,2,Ray Saenz,Bishop,89.72,269.89,140.61,267.62,678.12,Single-ply,SBD,M
Boys,89.81,3,Alejandro Sanchez,Natalia,88.09,238.14,124.74,229.06,591.94,Single-ply,SBD,M
Boys,89.81,4,Alex Garza,Cotulla,88.9,226.8,138.35,226.8,591.94,Single-ply,SBD,M
Boys,89.81,5,Gilbert Mendez,Bishop,86,231.33,131.54,226.8,589.67,Single-ply,SBD,M
Boys,89.81,6,Beau Medrano,Dilley,89.18,217.72,136.08,213.19,566.99,Single-ply,SBD,M
Boys,89.81,7,Orlando Gonzalez,Odem,87.91,208.65,145.15,201.85,555.65,Single-ply,SBD,M
Boys,89.81,8,Jose Rangel,La Villa,89.81,219.99,108.86,219.99,548.85,Single-ply,SBD,M
Boys,89.81,9,Caden Fregia,Natalia,88.63,238.14,131.54,174.63,544.31,Single-ply,SBD,M
Boys,89.81,10,Ethan Chapa,Center Point,88.18,204.12,117.93,210.92,532.97,Single-ply,SBD,M
Boys,89.81,11,Patrick Rhodes,San Antonio Cole,89.09,190.51,133.81,204.12,528.44,Single-ply,SBD,M
Boys,99.79,1,Julian Martinez,Natalia,98.79,272.16,158.76,276.69,707.6,Single-ply,SBD,M
Boys,99.79,2,Karl Gibson II,Mathis,96.62,278.96,161.03,265.35,705.34,Single-ply,SBD,M
Boys,99.79,3,John Cordova,Rocksprings,92.9,274.42,165.56,240.4,680.39,Single-ply,SBD,M
Boys,99.79,4,Bailey Trevino,George West,95.07,276.69,156.49,233.6,666.78,Single-ply,SBD,M
Boys,99.79,5,Trace McAfee,Hallettsville,94.53,249.48,163.29,229.06,641.83,Single-ply,SBD,M
Boys,99.79,6,Andrew Tavera,Altair Rice,98.07,265.35,136.08,226.8,628.23,Single-ply,SBD,M
Boys,99.79,7,Angel Hernandez #8,Goliad,99.7,242.67,136.08,244.94,623.69,Single-ply,SBD,M
Boys,99.79,8,Elias Cantu,Hebbronville,95.35,240.4,149.69,229.06,619.15,Single-ply,SBD,M
Boys,99.79,9,Quinton Kristek,Yoakum,99.79,235.87,149.69,226.8,612.35,Single-ply,SBD,M
Boys,99.79,10,Thomas Puentes,Skidmore-Tynan,96.71,272.16,142.88,188.24,603.28,Single-ply,SBD,M
Boys,99.79,11,Cole Doerr,Marion,91.72,224.53,136.08,215.46,576.06,Single-ply,SBD,M
Boys,99.79,12,Joseph Benavidez,Pettus,98.34,215.46,147.42,208.65,571.53,Single-ply,SBD,M
Boys,109.77,1,Michael Salaiz,San Diego,107.32,285.76,154.22,240.4,680.39,Single-ply,SBD,M
Boys,109.77,2,Jose Marquez,Hebbronville,108.86,276.69,154.22,247.21,678.12,Single-ply,SBD,M
Boys,109.77,3,Patrick Zaiontz,San Antonio Brooks Academy,103.42,240.4,188.24,242.67,671.32,Single-ply,SBD,M
Boys,109.77,4,Daniel Vela,Falfurrias,109.04,258.55,140.61,258.55,657.71,Single-ply,SBD,M
Boys,109.77,5,Austin Kennemer,Agua Dulce,102.97,244.94,142.88,215.46,603.28,Single-ply,SBD,M
Boys,109.77,6,Ronnie Ellis,Altair Rice,108.41,233.6,117.93,249.48,601.01,Single-ply,SBD,M
Boys,109.77,7,Brennan Schimcek,Hallettsville,107.95,226.8,167.83,204.12,598.74,Single-ply,SBD,M
Boys,109.77,8,Joey Garza,Falfurrias,106.78,244.94,102.06,226.8,573.79,Single-ply,SBD,M
Boys,109.77,9,Jacob Hernandez,Stockdale,106.41,222.26,136.08,213.19,571.53,Single-ply,SBD,M
Boys,109.77,10,David Arvizo,La Pryor,102.97,235.87,124.74,201.85,562.45,Single-ply,SBD,M
Boys,109.77,11,Baldomero Ortega,Cotulla,109.77,204.12,117.93,235.87,557.92,Single-ply,SBD,M
Boys,109.77,DQ,Francisco Duran,Marion,101.33,206.38,136.08,,,Single-ply,SBD,M
Boys,109.77,DQ,Shawn Allen,Schulenburg,109.77,,,,,Single-ply,SBD,M
Boys,124.74,1,Trace Mascorro,Refugio,119.48,272.16,190.51,276.69,739.36,Single-ply,SBD,M
Boys,124.74,2,Jaime Rosas,Falfurrias,118.12,294.84,158.76,238.14,691.73,Single-ply,SBD,M
Boys,124.74,3,Jalen Cano,Stockdale,114.03,258.55,142.88,235.87,637.3,Single-ply,SBD,M
Boys,124.74,4,Oscar Ramirez,Natalia,117.12,249.48,156.49,226.8,632.76,Single-ply,SBD,M
Boys,124.74,5,Luis Garcia #5,Odem,119.66,249.48,156.49,226.8,632.76,Single-ply,SBD,M
Boys,124.74,6,David Mendez,Taft,122.56,249.48,147.42,226.8,623.69,Single-ply,SBD,M
Boys,124.74,7,Gerardo Garza,Cotulla,124.28,240.4,129.27,254.01,623.69,Single-ply,SBD,M
Boys,124.74,8,Jason Carrillo,Rocksprings,112.94,229.06,151.95,210.92,591.94,Single-ply,SBD,M
Boys,124.74,9,Abel Tunchez,San Diego,119.84,249.48,131.54,210.92,591.94,Single-ply,SBD,M
Boys,124.74,10,Sebastian Goldsworthy,Universal City Randolph,122.65,217.72,127.01,226.8,571.53,Single-ply,SBD,M
Boys,124.74,DQ,Nick Gomez,Yoakum,121.83,,,,,Single-ply,SBD,M
Boys,124.74+,1,Santiago Leija,Natalia,126.19,294.84,183.7,265.35,743.89,Single-ply,SBD,M
Boys,124.74+,2,Wyatt Diaz,Stockdale,136.17,292.57,185.97,260.82,739.36,Single-ply,SBD,M
Boys,124.74+,3,Joshua Leal,Karnes City,132.27,272.16,185.97,272.16,730.28,Single-ply,SBD,M
Boys,124.74+,4,Justin Garcia,Lyford,135.71,274.42,170.1,231.33,675.85,Single-ply,SBD,M
Boys,124.74+,5,Marcos Romero,Odem,142.88,254.01,165.56,235.87,655.44,Single-ply,SBD,M
Boys,124.74+,6,George Hughes,San Diego,132.36,238.14,158.76,226.8,623.69,Single-ply,SBD,M
Boys,124.74+,7,Joey Dominguez,Yoakum,132.36,238.14,138.35,235.87,612.35,Single-ply,SBD,M
Boys,124.74+,8,Nathan Pearson,Brackettville Brackett,137.71,226.8,158.76,226.8,612.35,Single-ply,SBD,M
Boys,124.74+,9,Goliath Garcia,Agua Dulce,152.95,244.94,156.49,192.78,594.21,Single-ply,SBD,M
Boys,124.74+,DQ,Christian Tovar,Schulenburg,134.08,,,,,Single-ply,SBD,M
Boys,124.74+,DQ,Kris Campos,Refugio,165.29,244.94,142.88,,,Single-ply,SBD,M
Boys,124.74+,DQ,Victor Cruz,Natalia,129.36,260.82,,,,Single-ply,SBD,M
