Equipment,Division,Event,Sex,WeightClassKg,Name,Best3BenchKg,Bench4Kg,Best3DeadliftKg,Deadlift4Kg,TotalKg,State,Country,Place
Single-ply,Elite Open,B,M,67.5,Kerwin Unten,242.5,,,,242.5,HI,USA,1
Single-ply,Elite Open,B,M,90,Matt LaMarque,260,272.5,,,260,CA,USA,1
Single-ply,Elite Open,B,M,110,Jimmy Kolb,,,,,,OH,USA,DQ
Single-ply,Elite Open,B,M,140,Sam Aumavae,377.5,,,,377.5,OR,USA,1
Single-ply,Elite Open,B,M,140,Mike Womack #1,340,,,,340,TX,USA,2
Single-ply,Elite Open,B,M,140+,Robert Vick,,,,,,IL,USA,DQ
Multi-ply,Open,B,M,67.5,Charles Venturella,150,,,,150,PA,USA,1
Multi-ply,Open,B,M,82.5,Brian McLaughlin,195,,,,195,OR,USA,1
Multi-ply,Open,B,M,100,Kenneth Millrany,295,,,,295,TN,USA,1
Multi-ply,Open,B,M,100,Scott Edmondson,260,,,,260,OR,USA,2
Multi-ply,Open,B,M,110,Tony Blas,307.5,,,,307.5,OR,USA,1
Multi-ply,Open,B,M,110,Keithyon Gunter,292.5,,,,292.5,TX,USA,2
Multi-ply,Open,B,M,110,Forest Hofer,207.5,,,,207.5,WA,USA,3
Multi-ply,Open,B,M,110,William B Caughey,110,,,,110,UT,USA,4
Multi-ply,Open,B,M,117.5,Bill Gillespie,287.5,,,,287.5,VA,USA,1
Multi-ply,Open,B,M,117.5,Jani Toivo Kristian Ihalainen,257.5,,,,257.5,,Finland,2
Multi-ply,Open,B,M,117.5,James Guffey,230,,,,230,IL,USA,3
Multi-ply,Open,B,M,125,Tim Moon,328,,,,328,GA,USA,1
Multi-ply,Open,B,M,125,Bill Welch,282.5,,,,282.5,TN,USA,2
Multi-ply,Open,B,M,125,Harjit Kumar,272.5,,,,272.5,,India,3
Multi-ply,Open,B,M,140+,Tiny Meeker,412.5,,,,412.5,TX,USA,1
Single-ply,Open,B,M,60,Trevett Edwards,127.5,,,,127.5,WI,USA,1
Single-ply,Open,B,M,60,Gary Hunter #1,110,,,,110,TX,USA,2
Single-ply,Open,B,M,67.5,Donald Ramil,206,,,,206,HI,USA,1
Single-ply,Open,B,M,67.5,David R Smith,195,,,,195,TX,USA,2
Single-ply,Open,B,M,67.5,Jason Arnold,160,,,,160,CA,USA,3
Single-ply,Open,B,M,67.5,Ronald A. C. Nipp,,,,,,HI,USA,DQ
Single-ply,Open,B,M,67.5,Tanner Surratt,,,,,,TX,USA,DQ
Single-ply,Open,B,M,75,John Petersen,162.5,,,,162.5,WI,USA,1
Single-ply,Open,B,M,75,Craig Kornwolf,140,,,,140,MN,USA,2
Single-ply,Open,B,M,82.5,Deron Agaran,225,,,,225,HI,USA,1
Single-ply,Open,B,M,82.5,Chris Golden,210,,,,210,TX,USA,2
Single-ply,Open,B,M,82.5,Paulo Alceu Duque Reis,122.5,,,,122.5,,Brazil,3
Single-ply,Open,B,M,90,Kim Päivöke,255,,,,255,,Finland,1
Single-ply,Open,B,M,90,Coby Washburn,255,,,,255,TX,USA,2
Single-ply,Open,B,M,90,Louie Mansanas,242.5,,,,242.5,HI,USA,3
Single-ply,Open,B,M,90,Tony Coduto,232.5,,,,232.5,IL,USA,4
Single-ply,Open,B,M,90,Seppo Junttila,220,,,,220,,Finland,5
Single-ply,Open,B,M,90,Jerry Saldana,217.5,,,,217.5,TX,USA,6
Single-ply,Open,B,M,90,C. J. Hollingshead,215,222.5,,,215,KS,USA,7
Single-ply,Open,B,M,90,Heikki Tyrväinen,215,,,,215,,Finland,8
Single-ply,Open,B,M,90,Doug Morong,165,,,,165,TN,USA,9
Single-ply,Open,B,M,90,Luis Baerga,160,,,,160,TX,USA,10
Single-ply,Open,B,M,90,Pasi Koukkula,160,,,,160,,Finland,11
Single-ply,Open,B,M,90,Neal Gerace,115,,,,115,NJ,USA,12
Single-ply,Open,B,M,100,James Noblit,250.5,,,,250.5,OR,USA,1
Single-ply,Open,B,M,100,Shayne Unea,227.5,,,,227.5,OR,USA,2
Single-ply,Open,B,M,100,Juha Pukkila,207.5,,,,207.5,,Finland,3
Single-ply,Open,B,M,100,Kirk Remer,172.5,,,,172.5,WI,USA,4
Single-ply,Open,B,M,100,Adam Hays,132.5,,,,132.5,AZ,USA,5
Single-ply,Open,B,M,100,Jason Flores,125,,,,125,TX,USA,6
Single-ply,Open,B,M,100,Petri Hietamäki,,,,,,,Finland,DQ
Single-ply,Open,B,M,110,Rob Golgano,305,,,,305,ME,USA,1
Single-ply,Open,B,M,110,Brant Bishop,272.5,,,,272.5,AL,USA,2
Single-ply,Open,B,M,110,Seth Reed,250,,,,250,ME,USA,3
Single-ply,Open,B,M,110,James Houston,,,,,,CA,USA,DQ
Single-ply,Open,B,M,117.5,Christopher Carson,305,,,,305,OH,USA,1
Single-ply,Open,B,M,117.5,Joey Murphy,301,,,,301,GA,USA,2
Single-ply,Open,B,M,117.5,Troy Chun,282.5,,,,282.5,OR,USA,3
Single-ply,Open,B,M,125,David Lewis #4,350,,,,350,IL,USA,1
Single-ply,Open,B,M,125,Harley Timbs,300,,,,300,TN,USA,2
Single-ply,Open,B,M,125,Patrick Holloway,290,,,,290,AZ,USA,3
Single-ply,Open,B,M,140,Jeff Peshek,349,,,,349,OH,USA,1
Single-ply,Open,B,M,140,Henry Thomason,342.5,,,,342.5,TX,USA,2
Single-ply,Open,B,M,140,Johannes Impiö,270,,,,270,,Finland,3
Single-ply,Open,B,M,140+,Jeffrey Place,303.5,,,,303.5,OR,USA,1
Single-ply,Open,B,M,140+,Chane Cline,265,,,,265,OH,USA,2
Single-ply,Open,B,M,140+,Joe Mickelson,252.5,,,,252.5,WA,USA,3
Single-ply,Open,B,M,140+,Scott Wesley Jordan,237.5,,,,237.5,AZ,USA,4
Single-ply,Open,B,M,140+,Dave Forstner,,,,,,MI,USA,DQ
Single-ply,Open,B,M,140+,John Hudson,,,,,,TX,USA,DQ
Single-ply,Open,B,M,140+,Rich Lopez,,,,,,CA,USA,DQ
Single-ply,Open,B,M,140+,James Mersberg,,,,,,HI,USA,DQ
Multi-ply,Class 1,B,M,75,James Lin #2,135,,,,135,WA,USA,1
Multi-ply,Class 1,B,M,82.5,Brian McLaughlin,195,,,,195,OR,USA,1
Multi-ply,Class 1,B,M,82.5,Julian Kaipo Pereza,155,,,,155,HI,USA,2
Multi-ply,Class 1,B,M,82.5,Dave Ewen,120,,,,120,IN,USA,3
Multi-ply,Class 1,B,M,100,Kincy Lloyd,240,,,,240,TX,USA,1
Multi-ply,Class 1,B,M,100,Steven Kaufman,,,,,,TX,USA,DQ
Multi-ply,Class 1,B,M,140+,Amado Nacapuy,195,,,,195,HI,USA,1
Multi-ply,Class 1,B,M,140+,Keith Sayles,145,,,,145,TX,USA,2
Single-ply,Class 1,B,M,67.5,Jonathan Rosete,142.5,,,,142.5,OR,USA,1
Single-ply,Class 1,B,M,67.5,Jose Cabrera,142.5,,,,142.5,CA,USA,2
Single-ply,Class 1,B,M,67.5,Dave Constantineau,132.5,,,,132.5,WI,USA,3
Single-ply,Class 1,B,M,75,Nick Buck,162.5,,,,162.5,WI,USA,1
Single-ply,Class 1,B,M,82.5,Aramiq Amirchian,187.5,,,,187.5,AZ,USA,1
Single-ply,Class 1,B,M,82.5,Matthew Jones #8,185.5,,,,185.5,MI,USA,2
Single-ply,Class 1,B,M,82.5,Jason Pelc,175,,,,175,MI,USA,3
Single-ply,Class 1,B,M,82.5,A. J. Pipp,142.5,,,,142.5,WI,USA,4
Single-ply,Class 1,B,M,82.5,Dylan Kuehl,140,,,,140,WA,USA,5
Single-ply,Class 1,B,M,82.5,Craig Bitton,125,,,,125,UT,USA,6
Single-ply,Class 1,B,M,90,Dalton Christian,212.5,,,,212.5,WV,USA,1
Single-ply,Class 1,B,M,90,Kyle Herzik,175,,,,175,NV,USA,2
Single-ply,Class 1,B,M,90,Bryan Walter,147.5,,,,147.5,TX,USA,3
Single-ply,Class 1,B,M,90,Jason Burgoon,127.5,,,,127.5,MN,USA,4
Single-ply,Class 1,B,M,100,Bob Watts,210,,,,210,CA,USA,1
Single-ply,Class 1,B,M,100,Shayne Unea,210,,,,210,OR,USA,2
Single-ply,Class 1,B,M,100,Jason Kassen,177.5,,,,177.5,AZ,USA,3
Single-ply,Class 1,B,M,100,Edward Pipp,170,,,,170,WI,USA,4
Single-ply,Class 1,B,M,100,Randy Waldorf,117.5,,,,117.5,MN,USA,5
Single-ply,Class 1,B,M,110,Arthur Haug,220,,,,220,IA,USA,1
Single-ply,Class 1,B,M,110,Kenny Rodriguez,175,,,,175,CA,USA,2
Single-ply,Class 1,B,M,110,David Palmer,160,,,,160,ME,USA,3
Single-ply,Class 1,B,M,117.5,Isaac Conde,182.5,,,,182.5,TX,USA,1
Single-ply,Class 1,B,M,117.5,Jay Anderson,160,,,,160,UT,USA,2
Single-ply,Class 1,B,M,125,Chris Melillo,240,,,,240,TX,USA,1
Single-ply,Class 1,B,M,125,Arthur Nakamura,235,,,,235,OR,USA,2
Single-ply,Class 1,B,M,125,John Solleder,147.5,,,,147.5,TX,USA,3
Single-ply,Class 1,B,M,140,Justin Purcell,220.5,,,,220.5,NV,USA,1
Single-ply,Class 1,B,M,140+,Leo Contreras,160,,,,160,CA,USA,1
Single-ply,Disabled,B,M,82.5,Vilmar Oliveira,150,,,,150,,Brazil,1
Single-ply,Disabled,B,M,82.5,Scott Rickford,147.5,,,,147.5,MN,USA,2
Single-ply,Disabled,B,M,110,Cody Colchado,182.5,,,,182.5,TX,USA,1
Single-ply,Disabled,B,M,117.5,Serafim Rocha Lima Filho,160,,,,160,,Brazil,1
Single-ply,Disabled,B,M,140,Eugene Carlson,,,,,,WI,USA,DQ
Single-ply,Special Olympian,B,M,52,David Hammond,82.5,,,,82.5,WA,USA,1
Single-ply,Special Olympian,B,M,117.5,Brady Tanner,188,,,,188,KS,USA,1
Single-ply,Special Olympian,B,M,140,Jock Mayes,67.5,,,,67.5,CA,USA,1
Single-ply,Special Olympian,B,M,44,Todd Moore,55,,,,55,,Canada,1
Single-ply,Teen 12-13,B,M,52,Karter Brachear,75,80,,,75,IL,USA,1
Single-ply,Teen 12-13,B,M,110,Shun Talmadge,102.5,,,,102.5,OR,USA,1
Single-ply,Teen 12-13,B,M,44,Vicente Borja,47.5,,,,47.5,OR,USA,1
Single-ply,Teen 14-15,B,M,67.5,Christopher Kays,80,,,,80,CA,USA,1
Single-ply,Teen 14-15,B,M,110,Tristen Zumwalt,100,,,,100,OR,USA,1
Single-ply,Teen 14-15,B,M,110,Nathan Smith #2,85,,,,85,WA,USA,2
Single-ply,Teen 14-15,B,M,44,Michael Saldivar,103.5,,,,103.5,TX,USA,1
Multi-ply,Teen 16-17,B,M,125,Brentson Banister,127.5,,,,127.5,HI,USA,1
Single-ply,Teen 16-17,B,M,75,Joshua Bailey,55,,,,55,TX,USA,3
Single-ply,Teen 16-17,B,M,48,Adam Morton,70.5,72.5,,,70.5,TX,USA,1
Single-ply,Teen 16-17,B,M,52,Fabian Osorio,82.5,,,,82.5,TX,USA,1
Single-ply,Teen 16-17,B,M,52,Brandon Gerace,65,,,,65,NJ,USA,2
Single-ply,Teen 16-17,B,M,56,Clayton Watts,101,,,,101,CA,USA,1
Single-ply,Teen 16-17,B,M,60,Harley Hnatek,92.5,,,,92.5,TX,USA,1
Single-ply,Teen 16-17,B,M,60,Mason Ismert,67.5,,,,67.5,CO,USA,2
Single-ply,Teen 16-17,B,M,67.5,Scott Homes,102.5,,,,102.5,CA,USA,1
Single-ply,Teen 16-17,B,M,67.5,Caleb Nute,,,,,,ME,USA,DQ
Single-ply,Teen 16-17,B,M,75,Gianno Lucas,135,,,,135,CA,USA,1
Single-ply,Teen 16-17,B,M,75,Sho Talmadge,102.5,,,,102.5,OR,USA,2
Single-ply,Teen 16-17,B,M,82.5,Dylan Blum,192.5,,,,192.5,TX,USA,1
Single-ply,Teen 16-17,B,M,90,C. J. Hollingshead,215,222.5,,,215,KS,USA,1
Single-ply,Teen 16-17,B,M,90,John Weis,120,,,,120,CO,USA,2
Single-ply,Teen 16-17,B,M,110,Christian Marshall,,,,,,WV,USA,DQ
Single-ply,Teen 16-17,B,M,140+,Raymond Gutierrez,,,,,,CA,USA,DQ
Single-ply,Teen 18-19,B,M,52,Cesar Casas,105,116.5,,,105,TX,USA,1
Single-ply,Teen 18-19,B,M,56,Alexander Garcia,77.5,,,,77.5,TX,USA,1
Single-ply,Teen 18-19,B,M,60,Anthony Grimes,128.5,,,,128.5,TX,USA,1
Single-ply,Teen 18-19,B,M,60,Trevett Edwards,127.5,,,,127.5,WI,USA,2
Single-ply,Teen 18-19,B,M,67.5,William Lumayas,172.5,177.5,,,172.5,HI,USA,1
Single-ply,Teen 18-19,B,M,67.5,Jesse Trevino,166.5,,,,166.5,TX,USA,2
Single-ply,Teen 18-19,B,M,67.5,Brandon Jones #10,165,,,,165,HI,USA,3
Single-ply,Teen 18-19,B,M,67.5,Robert Carrasco,117.5,,,,117.5,TX,USA,4
Single-ply,Teen 18-19,B,M,67.5,Hunter Hume,115,,,,115,OK,USA,5
Single-ply,Teen 18-19,B,M,67.5,Chris Eason,100,,,,100,TX,USA,6
Single-ply,Teen 18-19,B,M,67.5,Garrett Johnson,85,,,,85,CO,USA,7
Single-ply,Teen 18-19,B,M,67.5,Cody Adams,,,,,,MT,USA,DQ
Single-ply,Teen 18-19,B,M,67.5,Tanner Surratt,,,,,,TX,USA,DQ
Single-ply,Teen 18-19,B,M,75,Llumel Magana,162.5,,,,162.5,HI,USA,1
Single-ply,Teen 18-19,B,M,75,Austin Witt,157.5,,,,157.5,NV,USA,2
Single-ply,Teen 18-19,B,M,75,Juan Santos,145,,,,145,TX,USA,3
Single-ply,Teen 18-19,B,M,75,Matthew Collins #3,80,,,,80,CA,USA,4
Single-ply,Teen 18-19,B,M,82.5,Miguel Galvan,167.5,,,,167.5,TX,USA,1
Single-ply,Teen 18-19,B,M,82.5,Luis Munoz #7,167.5,,,,167.5,TX,USA,2
Single-ply,Teen 18-19,B,M,82.5,Jonathan Bradfield,162.5,,,,162.5,TX,USA,3
Single-ply,Teen 18-19,B,M,82.5,AJ Castaneda,155,,,,155,CA,USA,4
Single-ply,Teen 18-19,B,M,100,Austin Sellers,250,,,,250,TX,USA,1
Single-ply,Teen 18-19,B,M,100,Jeffrey Moreno,210,,,,210,TX,USA,2
Single-ply,Teen 18-19,B,M,100,Aaron Villanova,185,,,,185,HI,USA,3
Single-ply,Teen 18-19,B,M,100,Dillon Kendrick,172.5,,,,172.5,TX,USA,4
Single-ply,Teen 18-19,B,M,100,Joey Miguel,170,,,,170,NV,USA,5
Single-ply,Teen 18-19,B,M,110,Seth Reed,250,,,,250,ME,USA,1
Single-ply,Teen 18-19,B,M,110,Seth La,182.5,,,,182.5,TX,USA,2
Single-ply,Teen 18-19,B,M,110,Devon Burdette,150,,,,150,MI,USA,3
Single-ply,Teen 18-19,B,M,125,Damon Klinedinst,215,,,,215,ME,USA,1
Single-ply,Teen 18-19,B,M,140+,Esteven Balderrama,182.5,,,,182.5,TX,USA,1
Multi-ply,Juniors 20-25,B,M,67.5,Hunter Hernandez #1,137.5,,,,137.5,NV,USA,1
Multi-ply,Juniors 20-25,B,M,125,Christian Swate,155,,,,155,TX,USA,1
Multi-ply,Juniors 20-25,B,M,140+,Amado Nacapuy,195,,,,195,HI,USA,1
Single-ply,Juniors 20-25,B,M,56,Jesus Sanchez,117.5,,,,117.5,TX,USA,1
Single-ply,Juniors 20-25,B,M,56,Andres Cruz,87.5,,,,87.5,TX,USA,2
Single-ply,Juniors 20-25,B,M,67.5,Kekoa Pasion-Almeida,205,,,,205,HI,USA,1
Single-ply,Juniors 20-25,B,M,67.5,Divale Roberson,185,,,,185,IL,USA,2
Single-ply,Juniors 20-25,B,M,67.5,James Robertson #5,82.5,,,,82.5,TX,USA,3
Single-ply,Juniors 20-25,B,M,67.5,Ronald A. C. Nipp,,,,,,HI,USA,DQ
Single-ply,Juniors 20-25,B,M,75,Judd Sato III,187.5,,,,187.5,HI,USA,1
Single-ply,Juniors 20-25,B,M,75,Ray Segura,162.5,,,,162.5,WA,USA,2
Single-ply,Juniors 20-25,B,M,75,Roy Arispe,150,,,,150,TX,USA,3
Single-ply,Juniors 20-25,B,M,75,Jesus Lozano,132.5,,,,132.5,TX,USA,4
Single-ply,Juniors 20-25,B,M,82.5,Daniel Sisneros,182.5,,,,182.5,CA,USA,1
Single-ply,Juniors 20-25,B,M,82.5,Edward O'Brien,172.5,,,,172.5,NV,USA,2
Single-ply,Juniors 20-25,B,M,82.5,Martin Esparza,160,,,,160,TX,USA,3
Single-ply,Juniors 20-25,B,M,82.5,Jesse Mendoza,55,,,,55,TX,USA,4
Single-ply,Juniors 20-25,B,M,90,Seppo Junttila,220,,,,220,,Finland,1
Single-ply,Juniors 20-25,B,M,90,Dalton Christian,212.5,,,,212.5,WV,USA,2
Single-ply,Juniors 20-25,B,M,90,Ilian Rojas,210.5,,,,210.5,TX,USA,3
Single-ply,Juniors 20-25,B,M,90,Tyler Carlson,207.5,,,,207.5,MT,USA,4
Single-ply,Juniors 20-25,B,M,90,Anthony White #4,190,,,,190,AZ,USA,5
Single-ply,Juniors 20-25,B,M,90,Cameron Fraser,167.5,,,,167.5,NV,USA,6
Single-ply,Juniors 20-25,B,M,90,Steven Rocha,162.5,,,,162.5,TX,USA,7
Single-ply,Juniors 20-25,B,M,90,Jacob Fernandez,,,,,,TX,USA,DQ
Single-ply,Juniors 20-25,B,M,100,Adam Contreras #1,165,,,,165,CA,USA,1
Single-ply,Juniors 20-25,B,M,100,Adam Hays,132.5,,,,132.5,AZ,USA,2
Single-ply,Juniors 20-25,B,M,100,Bart Golightly,,,,,,TX,USA,DQ
Single-ply,Juniors 20-25,B,M,110,Jake Garbush,220,,,,220,WA,USA,1
Single-ply,Juniors 20-25,B,M,110,Anthony Rodriguez,197.5,,,,197.5,TX,USA,2
Single-ply,Juniors 20-25,B,M,110,Bradley Caughey,97.5,,,,97.5,UT,USA,3
Single-ply,Juniors 20-25,B,M,110,Zachary Holloway,,,,,,NV,USA,DQ
Single-ply,Juniors 20-25,B,M,125,Kamuela Wassman,227.5,,,,227.5,HI,USA,1
Single-ply,Juniors 20-25,B,M,125,Jose Trejo,210,,,,210,TX,USA,2
Single-ply,Juniors 20-25,B,M,140,Johannes Impiö,270,,,,270,,Finland,1
Multi-ply,Submasters 33-39,B,M,100,Scott Edmondson,260,,,,260,OR,USA,1
Multi-ply,Submasters 33-39,B,M,100,Steven Kaufman,190,,,,190,TX,USA,2
Multi-ply,Submasters 33-39,B,M,110,Tony Blas,307.5,,,,307.5,OR,USA,1
Multi-ply,Submasters 33-39,B,M,110,Mike Burns,220,,,,220,CA,USA,2
Multi-ply,Submasters 33-39,B,M,117.5,Jani Toivo Kristian Ihalainen,257.5,,,,257.5,,Finland,1
Multi-ply,Submasters 33-39,B,M,117.5,James Guffey,230,,,,230,IL,USA,2
Multi-ply,Submasters 33-39,B,M,117.5,Brandon Swate,150,,,,150,TX,USA,3
Multi-ply,Submasters 33-39,B,M,125,Harjit Kumar,250,,,,250,,India,1
Single-ply,Submasters 33-39,B,M,56,Vin Voeun,102.5,,,,102.5,AZ,USA,1
Single-ply,Submasters 33-39,B,M,67.5,Donald Ramil,206,,,,206,HI,USA,1
Single-ply,Submasters 33-39,B,M,82.5,Murphy Knott,172.5,,,,172.5,OR,USA,1
Single-ply,Submasters 33-39,B,M,82.5,Jeff Holz,152.5,,,,152.5,NV,USA,2
Single-ply,Submasters 33-39,B,M,82.5,Craig Bitton,137.5,,,,137.5,UT,USA,3
Single-ply,Submasters 33-39,B,M,90,Matt LaMarque,260,272.5,,,260,CA,USA,1
Single-ply,Submasters 33-39,B,M,90,Coby Washburn,255,,,,255,TX,USA,2
Single-ply,Submasters 33-39,B,M,90,David Fiori,192.5,,,,192.5,NV,USA,3
Single-ply,Submasters 33-39,B,M,100,Chad Bertelmann,295,,,,295,HI,USA,1
Single-ply,Submasters 33-39,B,M,100,George Price,130,,,,130,WA,USA,2
Single-ply,Submasters 33-39,B,M,100,Miguel Chain Junior,120,,,,120,,Brazil,3
Single-ply,Submasters 33-39,B,M,110,Kevin Loudermilk,247.5,,,,247.5,OK,USA,1
Single-ply,Submasters 33-39,B,M,110,Kendrick Bennett,175,,,,175,TX,USA,2
Single-ply,Submasters 33-39,B,M,110,John Erickson,,,,,,OK,USA,DQ
Single-ply,Submasters 33-39,B,M,110,James Houston,,,,,,CA,USA,DQ
Single-ply,Submasters 33-39,B,M,117.5,Mike Desrosiers,262.5,,,,262.5,AZ,USA,1
Single-ply,Submasters 33-39,B,M,117.5,Jay Anderson,160,,,,160,UT,USA,2
Single-ply,Submasters 33-39,B,M,117.5,Chris Johnson #4,152.5,,,,152.5,WA,USA,3
Single-ply,Submasters 33-39,B,M,117.5,Kegan Engelke,,,,,,WA,USA,DQ
Single-ply,Submasters 33-39,B,M,140+,Robert Vick,,,,,,IL,USA,DQ
Multi-ply,Masters 40-46,B,M,75,James Lin #2,137.5,,,,137.5,WA,USA,1
Multi-ply,Masters 40-46,B,M,110,Nick Massey,230,,,,230,CA,USA,1
Multi-ply,Masters 40-46,B,M,125,Patrick Parnell,337.5,,,,337.5,TX,USA,1
Multi-ply,Masters 40-46,B,M,140+,Tiny Meeker,412.5,,,,412.5,TX,USA,1
Single-ply,Masters 40-46,B,M,67.5,Kerwin Unten,242.5,,,,242.5,HI,USA,1
Single-ply,Masters 40-46,B,M,67.5,David R Smith,195,,,,195,TX,USA,2
Single-ply,Masters 40-46,B,M,67.5,Willis McCoy,150,,,,150,OH,USA,3
Single-ply,Masters 40-46,B,M,75,Allen McVaney,167.5,,,,167.5,OH,USA,1
Single-ply,Masters 40-46,B,M,75,John Petersen,162.5,,,,162.5,WI,USA,2
Single-ply,Masters 40-46,B,M,75,Craig Kornwolf,140,,,,140,MN,USA,3
Single-ply,Masters 40-46,B,M,75,Valentino Plummer,,,,,,OR,USA,DQ
Single-ply,Masters 40-46,B,M,82.5,Jeb Brydon,137.5,,,,137.5,MI,USA,1
Single-ply,Masters 40-46,B,M,90,Kim Päivöke,255,,,,255,,Finland,1
Single-ply,Masters 40-46,B,M,90,Ed Lund,177.5,,,,177.5,WI,USA,2
Single-ply,Masters 40-46,B,M,90,Pasi Koukkula,160,,,,160,,Finland,3
Single-ply,Masters 40-46,B,M,100,Gary Gulseth,237.5,,,,237.5,WI,USA,1
Single-ply,Masters 40-46,B,M,100,Michael Happach,197.5,,,,197.5,IL,USA,2
Single-ply,Masters 40-46,B,M,100,Steven Petersen,195,,,,195,TX,USA,3
Single-ply,Masters 40-46,B,M,100,John Westleigh,187.5,,,,187.5,ME,USA,4
Single-ply,Masters 40-46,B,M,100,Marcelo Schneider,170,,,,170,,Brazil,5
Single-ply,Masters 40-46,B,M,110,James Hunter,307.5,,,,307.5,CA,USA,1
Single-ply,Masters 40-46,B,M,110,Rob Golgano,305,,,,305,ME,USA,2
Single-ply,Masters 40-46,B,M,110,Brant Bishop,272.5,,,,272.5,AL,USA,3
Single-ply,Masters 40-46,B,M,110,Jeff Bignell,210,,,,210,MN,USA,4
Single-ply,Masters 40-46,B,M,110,Joseph Gerald Pablo,182.5,,,,182.5,MT,USA,5
Single-ply,Masters 40-46,B,M,110,David Palmer,160,,,,160,ME,USA,6
Single-ply,Masters 40-46,B,M,117.5,Joey Murphy,301,,,,301,GA,USA,1
Single-ply,Masters 40-46,B,M,117.5,Troy Chun,,,,,,OR,USA,DQ
Single-ply,Masters 40-46,B,M,125,David Lewis #4,350,,,,350,IL,USA,1
Single-ply,Masters 40-46,B,M,125,Harley Timbs,300,,,,300,TN,USA,2
Single-ply,Masters 40-46,B,M,125,Patrick Holloway,290,,,,290,AZ,USA,3
Single-ply,Masters 40-46,B,M,125,Mike Dalpoas,227.5,,,,227.5,OK,USA,4
Single-ply,Masters 40-46,B,M,140,Sam Aumavae,377.5,,,,377.5,OR,USA,1
Single-ply,Masters 40-46,B,M,140,Warren Orr,247.5,,,,247.5,,Canada,2
Single-ply,Masters 40-46,B,M,140+,Scott Wesley Jordan,237.5,,,,237.5,AZ,USA,1
Single-ply,Masters 40-46,B,M,140+,Heath Thiel,207.5,,,,207.5,WI,USA,2
Single-ply,Masters 40-46,B,M,140+,Dave Forstner,,,,,,MI,USA,DQ
Single-ply,Masters 40-46,B,M,140+,Rich Lopez,,,,,,CA,USA,DQ
Multi-ply,Masters 47-53,B,M,67.5,Charles Venturella,150,,,,150,PA,USA,1
Multi-ply,Masters 47-53,B,M,82.5,Michael Bingham,235,,,,235,PA,USA,1
Multi-ply,Masters 47-53,B,M,90,Steve Rudolfsky,160,,,,160,NV,USA,1
Multi-ply,Masters 47-53,B,M,100,Kenneth Millrany,295,,,,295,TN,USA,1
Multi-ply,Masters 47-53,B,M,117.5,Bill Gillespie,287.5,,,,287.5,VA,USA,1
Multi-ply,Masters 47-53,B,M,125,Tim Moon,301.5,,,,301.5,GA,USA,1
Multi-ply,Masters 47-53,B,M,125,Bill Welch,282.5,,,,282.5,TN,USA,2
Multi-ply,Masters 47-53,B,M,140+,Keith Sayles,145,,,,145,TX,USA,1
Single-ply,Masters 47-53,B,M,75,Fulton White,152.5,,,,152.5,NV,USA,1
Single-ply,Masters 47-53,B,M,75,Keith Cunningham,147.5,,,,147.5,WA,USA,2
Single-ply,Masters 47-53,B,M,75,Mark Laurel,147.5,,,,147.5,CA,USA,3
Single-ply,Masters 47-53,B,M,82.5,Deron Agaran,225,230,,,225,HI,USA,1
Single-ply,Masters 47-53,B,M,82.5,Bryan Walter,147.5,,,,147.5,TX,USA,2
Single-ply,Masters 47-53,B,M,82.5,Eric Lumpkin,,,,,,OR,USA,DQ
Single-ply,Masters 47-53,B,M,90,Jeff Woods,233,,,,233,OH,USA,1
Single-ply,Masters 47-53,B,M,90,Tony Coduto,232.5,,,,232.5,IL,USA,2
Single-ply,Masters 47-53,B,M,90,Doug Noebe,207.5,,,,207.5,OH,USA,3
Single-ply,Masters 47-53,B,M,90,Bob Levering,207.5,,,,207.5,CA,USA,4
Single-ply,Masters 47-53,B,M,90,Keith Kanemoto,182.5,,,,182.5,CA,USA,5
Single-ply,Masters 47-53,B,M,90,Richard Joachim,180,,,,180,OR,USA,6
Single-ply,Masters 47-53,B,M,90,Frank Johnson,170,,,,170,AZ,USA,7
Single-ply,Masters 47-53,B,M,90,Darrell Horn,152.5,,,,152.5,MI,USA,8
Single-ply,Masters 47-53,B,M,90,Bill Marchetti,140,,,,140,NY,USA,9
Single-ply,Masters 47-53,B,M,90,Louie Mansanas,,,,,,HI,USA,DQ
Single-ply,Masters 47-53,B,M,100,Greg Powell,295,,,,295,TX,USA,1
Single-ply,Masters 47-53,B,M,100,James Noblit,250.5,,,,250.5,OR,USA,2
Single-ply,Masters 47-53,B,M,100,Juha Pukkila,210,,,,210,,Finland,3
Single-ply,Masters 47-53,B,M,100,George Phipps,185,,,,185,NV,USA,4
Single-ply,Masters 47-53,B,M,100,Edward Pipp,170,,,,170,WI,USA,5
Single-ply,Masters 47-53,B,M,100,Gene A Wenzel,107.5,,,,107.5,OH,USA,6
Single-ply,Masters 47-53,B,M,100,Dwight Roberson,,,,,,IL,USA,DQ
Single-ply,Masters 47-53,B,M,110,Cody Colchado,182.5,,,,182.5,TX,USA,1
Single-ply,Masters 47-53,B,M,110,Jason Julian,167.5,,,,167.5,CO,USA,2
Single-ply,Masters 47-53,B,M,110,Samuel Wenz,135,,,,135,WI,USA,3
Single-ply,Masters 47-53,B,M,117.5,Enrique Molina,202.5,,,,202.5,TX,USA,1
Single-ply,Masters 47-53,B,M,125,Eric Jones,190,,,,190,MI,USA,1
Single-ply,Masters 47-53,B,M,125,Gary Gertner,165,,,,165,CO,USA,2
Single-ply,Masters 47-53,B,M,125,John Solleder,147.5,,,,147.5,TX,USA,3
Single-ply,Masters 47-53,B,M,140,Jeff Peshek,349,,,,349,OH,USA,1
Single-ply,Masters 47-53,B,M,140+,Jeffrey Place,303.5,,,,303.5,OR,USA,1
Single-ply,Masters 47-53,B,M,140+,James Mersberg,295,,,,295,HI,USA,2
Single-ply,Masters 47-53,B,M,140+,John Hudson,,,,,,TX,USA,DQ
Multi-ply,Masters 54-60,B,M,82.5,Perry Plush,160.5,,,,160.5,WA,USA,1
Multi-ply,Masters 54-60,B,M,90,Doug Woods,155,,,,155,WA,USA,1
Multi-ply,Masters 54-60,B,M,110,Forest Hofer,207.5,,,,207.5,WA,USA,1
Multi-ply,Masters 54-60,B,M,110,William B Caughey,110,,,,110,UT,USA,2
Single-ply,Masters 54-60,B,M,60,Chetram Mangra,113,,,,113,NY,USA,1
Single-ply,Masters 54-60,B,M,67.5,Dave Constantineau,132.5,,,,132.5,WI,USA,1
Single-ply,Masters 54-60,B,M,67.5,Clotário Portugal,110,,,,110,,Brazil,2
Single-ply,Masters 54-60,B,M,75,Dennis Lambard,122.5,,,,122.5,AZ,USA,1
Single-ply,Masters 54-60,B,M,75,Dave Higgins,120,,,,120,MN,USA,2
Single-ply,Masters 54-60,B,M,82.5,Jody Fjelstad,177.5,,,,177.5,MN,USA,1
Single-ply,Masters 54-60,B,M,90,Jody Woods,227.5,232.5,,,227.5,CA,USA,1
Single-ply,Masters 54-60,B,M,90,Doug Morong,165,,,,165,TN,USA,2
Single-ply,Masters 54-60,B,M,90,James Spainhower,130,,,,130,WA,USA,3
Single-ply,Masters 54-60,B,M,90,Neal Gerace,113,,,,113,NJ,USA,4
Single-ply,Masters 54-60,B,M,100,Tom Gonnering,210,,,,210,AL,USA,1
Single-ply,Masters 54-60,B,M,100,Tim Epting,137.5,,,,137.5,TX,USA,2
Single-ply,Masters 54-60,B,M,100,Jim Curley,132.5,,,,132.5,CO,USA,3
Single-ply,Masters 54-60,B,M,100,Dennis George,130,,,,130,WI,USA,4
Single-ply,Masters 54-60,B,M,110,Ric Duncan,287.5,,,,287.5,TX,USA,1
Single-ply,Masters 54-60,B,M,110,Mike Frizzell,245,,,,245,IL,USA,2
Single-ply,Masters 54-60,B,M,110,James Pettit,145,,,,145,TX,USA,3
Single-ply,Masters 54-60,B,M,110,Gary Stevens,,,,,,WY,USA,DQ
Single-ply,Masters 54-60,B,M,117.5,Willard Crossen Jr,310,313,,,310,WA,USA,1
Single-ply,Masters 54-60,B,M,117.5,Andy Gose,190,,,,190,OR,USA,2
Single-ply,Masters 54-60,B,M,117.5,James Rickert,155,,,,155,WI,USA,3
Single-ply,Masters 54-60,B,M,140,Ted Stewart,148,,,,148,NV,USA,1
Single-ply,Masters 54-60,B,M,140+,Joe Mickelson,252.5,,,,252.5,WA,USA,1
Single-ply,Masters 54-60,B,M,140+,Leo Contreras,160,,,,160,CA,USA,2
Multi-ply,Masters 61-67,B,M,67.5,Gary Miller #2,157.5,,,,157.5,NV,USA,1
Multi-ply,Masters 61-67,B,M,75,Gary Witzel,120,,,,120,WA,USA,1
Multi-ply,Masters 61-67,B,M,75,Joe Pablo,92.5,,,,92.5,MT,USA,2
Multi-ply,Masters 61-67,B,M,90,Daniel Hofeditz,155,,,,155,AZ,USA,1
Single-ply,Masters 61-67,B,M,75,Stefan Lemire,128.5,,,,128.5,UT,USA,1
Single-ply,Masters 61-67,B,M,82.5,G. Jeffery Thornton,125,,,,125,AZ,USA,1
Single-ply,Masters 61-67,B,M,82.5,Barry Murphy,120,,,,120,CA,USA,2
Single-ply,Masters 61-67,B,M,82.5,Bill Stoner,110,,,,110,MI,USA,3
Single-ply,Masters 61-67,B,M,90,Dan Swift,215,,,,215,IL,USA,1
Single-ply,Masters 61-67,B,M,90,Godfrey Holzinger,142.5,,,,142.5,WA,USA,2
Single-ply,Masters 61-67,B,M,90,Kenneth Kirk,85,,,,85,CA,USA,3
Single-ply,Masters 61-67,B,M,90,Nelson Raymond,67.5,,,,67.5,ME,USA,4
Single-ply,Masters 61-67,B,M,100,Larry Anderson,157.5,,,,157.5,MN,USA,1
Single-ply,Masters 61-67,B,M,110,Tom Matlock,117.5,,,,117.5,AZ,USA,1
Single-ply,Masters 61-67,B,M,125,Eldon Olson,197.5,200,,,197.5,MT,USA,1
Single-ply,Masters 61-67,B,M,125,Doug Knapp,190,,,,190,CA,USA,2
Single-ply,Masters 61-67,B,M,140,Alan Fraser,150,,,,150,NV,USA,1
Single-ply,Masters 61-67,B,M,140,Larry Riskey,145,,,,145,OR,USA,2
Single-ply,Masters 61-67,B,M,140+,Randy Patterson,255,,,,255,AZ,USA,1
Multi-ply,Masters 68-74,B,M,82.5,Arnold Pereza,103,105.5,,,103,HI,USA,1
Multi-ply,Masters 68-74,B,M,82.5,Stan Miyahira,95,,,,95,NV,USA,2
Multi-ply,Masters 68-74,B,M,110,Dave Holmes,162.5,,,,162.5,WA,USA,1
Multi-ply,Masters 68-74,B,M,140,Ed Acey,175,,,,175,UT,USA,1
Single-ply,Masters 68-74,B,M,56,Gary Nye Schwebs,75.5,77.5,,,75.5,NV,USA,1
Single-ply,Masters 68-74,B,M,82.5,Ed Angstrom,127.5,,,,127.5,IA,USA,1
Single-ply,Masters 68-74,B,M,90,Bob Rudge,155,,,,155,CA,USA,1
Single-ply,Masters 68-74,B,M,90,James Rouse,137.5,,,,137.5,IL,USA,2
Single-ply,Masters 68-74,B,M,90,Roy Eriksen,125,,,,125,NV,USA,3
Single-ply,Masters 68-74,B,M,90,John Herbein,110,,,,110,PA,USA,4
Single-ply,Masters 68-74,B,M,90,Rudy Lozano,102.5,,,,102.5,CA,USA,5
Single-ply,Masters 68-74,B,M,90,Ronald Ford,62.5,,,,62.5,CA,USA,6
Single-ply,Masters 68-74,B,M,100,Jim Parham,190,,,,190,OK,USA,1
Single-ply,Masters 68-74,B,M,100,Al Williamson,145,,,,145,WI,USA,2
Single-ply,Masters 68-74,B,M,100,Robert Urrea,130,,,,130,CA,USA,3
Single-ply,Masters 68-74,B,M,100,Tom Haggenmiller,117.5,,,,117.5,MN,USA,4
Single-ply,Masters 68-74,B,M,110,Daniel Smith III,170,,,,170,CA,USA,1
Single-ply,Masters 68-74,B,M,110,William Coleman,95,,,,95,HI,USA,2
Multi-ply,Masters 75-79,B,M,90,William Prince,142.5,,,,142.5,NV,USA,1
Multi-ply,Masters 75-79,B,M,100,Johnny Yong,150,152.5,,,150,FL,USA,1
Single-ply,Masters 75-79,B,M,60,Larry Vincent,108.5,,,,108.5,OR,USA,1
Single-ply,Masters 75-79,B,M,67.5,Raymond Whalen,55,61.5,,,55,,Canada,1
Single-ply,Masters 75-79,B,M,75,Charles Vause,77.5,,,,77.5,GA,USA,1
Single-ply,Masters 75-79,B,M,90,Dean Baker,57.5,,,,57.5,CA,USA,1
Single-ply,Masters 75-79,B,M,140,JP Krachunis,105,,,,105,CA,USA,1
Single-ply,Masters 80-84,B,M,82.5,Nixon Munly,60,,,,60,OR,USA,1
Single-ply,Masters 80-84,B,M,100,Richard Austin,152.5,160.5,,,152.5,ME,USA,1
Single-ply,Masters 85-89,B,M,75,Robert Fornachon,73.5,,,,73.5,CA,USA,1
Single-ply,Masters 85-89,B,M,75,Jack Ford,70,,,,70,AZ,USA,2
Single-ply,Masters 85-89,B,M,90,Rodney Graves,72.5,,,,72.5,NV,USA,1
Single-ply,Masters 85-89,B,M,100,James Weiss,75,,,,75,CA,USA,1
Multi-ply,Law-Fire Open,B,M,90,Shawn Suda,177.5,,,,177.5,NM,USA,1
Multi-ply,Law-Fire Open,B,M,100,Kincy Lloyd,240,245,,,240,TX,USA,1
Multi-ply,Law-Fire Open,B,M,100,Ernest Stuart,120,,,,120,TX,USA,2
Multi-ply,Law-Fire Open,B,M,117.5,Flip Silva Jr,227.5,,,,227.5,TX,USA,1
Multi-ply,Law-Fire Open,B,M,125,Tracy Lundin,265,,,,265,OR,USA,1
Single-ply,Law-Fire Open,B,M,82.5,Ryan Marble,185,,,,185,UT,USA,1
Single-ply,Law-Fire Open,B,M,82.5,Donovan Bender,142.5,,,,142.5,ND,USA,2
Single-ply,Law-Fire Open,B,M,90,Ronald W. C. Nipp,250,,,,250,HI,USA,1
Single-ply,Law-Fire Open,B,M,90,Nick Berriman,227.5,,,,227.5,OR,USA,2
Single-ply,Law-Fire Open,B,M,90,Heikki Tyrväinen,215,,,,215,,Finland,3
Single-ply,Law-Fire Open,B,M,90,Luis Fernando Meireles Dias,160,,,,160,,Brazil,4
Single-ply,Law-Fire Open,B,M,110,Shawn Vial,,,,,,OR,USA,DQ
Single-ply,Law-Fire Open,B,M,140,Tommy Harrison,320,,,,320,IL,USA,1
Single-ply,Law-Fire Open,B,M,140,Hiram Kaikaina,290,,,,290,HI,USA,2
Single-ply,Law-Fire Open,B,M,140,Marcus Austin,182.5,,,,182.5,OK,USA,3
Multi-ply,Law-Fire Submasters,B,M,90,Shawn Suda,177.5,,,,177.5,NM,USA,1
Single-ply,Law-Fire Submasters,B,M,90,Nick Berriman,227.5,,,,227.5,OR,USA,1
Single-ply,Law-Fire Submasters,B,M,100,Chad Bertelmann,295,,,,295,HI,USA,1
Single-ply,Law-Fire Submasters,B,M,100,Darryl Zuchelli,227.5,,,,227.5,AL,USA,2
Single-ply,Law-Fire Submasters,B,M,125,Arthur Nakamura,235,,,,235,OR,USA,1
Single-ply,Law-Fire Submasters,B,M,140,Tommy Harrison,320,,,,320,IL,USA,1
Single-ply,Law-Fire Submasters,B,M,140,Hiram Kaikaina,290,,,,290,HI,USA,2
Single-ply,Law-Fire Submasters,B,M,140,Marcus Austin,182.5,,,,182.5,OK,USA,3
Single-ply,Law-Fire Submasters,B,M,140+,Ramon Gutierrez,282.5,,,,282.5,CA,USA,1
Single-ply,Law-Fire Submasters,B,M,140+,Chane Cline,265,,,,265,OH,USA,2
Single-ply,Law-Fire Submasters,B,M,140+,Keoni Reich,142.5,,,,142.5,HI,USA,3
Multi-ply,Law-Fire 40-47,B,M,82.5,Michael Bingham,235,,,,235,PA,USA,1
Multi-ply,Law-Fire 40-47,B,M,90,Darren Carr,192.5,,,,192.5,UT,USA,1
Multi-ply,Law-Fire 40-47,B,M,110,Frank Wakakuwa,307.5,,,,307.5,NV,USA,1
Multi-ply,Law-Fire 40-47,B,M,117.5,Flip Silva Jr,227.5,,,,227.5,TX,USA,1
Single-ply,Law-Fire 40-47,B,M,90,Ronald W. C. Nipp,250,,,,250,HI,USA,1
Single-ply,Law-Fire 40-47,B,M,90,Barran Stone,170,,,,170,TX,USA,2
Single-ply,Law-Fire 40-47,B,M,100,Ernest Cano,137.5,,,,137.5,AZ,USA,1
Single-ply,Law-Fire 40-47,B,M,140,Warren Orr,247.5,,,,247.5,,Canada,1
Multi-ply,Law-Fire 48-55,B,M,125,Tracy Lundin,265,,,,265,OR,USA,1
Multi-ply,Law-Fire 48-55,B,M,125,Frank Sua,230,,,,230,WA,USA,2
Single-ply,Law-Fire 48-55,B,M,90,Luis Fernando Meireles Dias,160,,,,160,,Brazil,1
Single-ply,Law-Fire 48-55,B,M,117.5,Arnold Weaver,237.5,248,,,237.5,AR,USA,1
Single-ply,Law-Fire 48-55,B,M,125,Eric Jones,190,,,,190,MI,USA,1
Single-ply,Law-Fire 48-55,B,M,140+,Ken Havlicek,205,,,,205,AZ,USA,1
Multi-ply,Law-Fire 56-63,B,M,67.5,Gary Miller #2,157.5,,,,157.5,NV,USA,1
Multi-ply,Law-Fire 56-63,B,M,100,Ernest Stuart,120,,,,120,TX,USA,1
Single-ply,Law-Fire 56-63,B,M,100,William Denniston,190,,,,190,MI,USA,1
Single-ply,Law-Fire 56-63,B,M,140,Roger Ryan,342.5,,,,342.5,IL,USA,1
Multi-ply,Law-Fire 64+,B,M,140,Ed Acey,175,,,,175,UT,USA,1
Single-ply,Law-Fire 64+,B,M,100,Jon Wolbers,175,,,,175,,Canada,1
Single-ply,Law-Fire 64+,B,M,125,Eldon Olson,197.5,200,,,197.5,MT,USA,1
Single-ply,Law-Fire 64+,B,M,140,JP Krachunis,105,,,,105,CA,USA,1
Single-ply,Law-Fire 64+,B,M,140+,Randy Patterson,255,,,,255,AZ,USA,1
Multi-ply,Open,B,F,52,Rebecca Moore,67.5,,,,67.5,WA,USA,1
Multi-ply,Open,B,F,60,Martha Godinez-Shim,83,85,,,83,HI,USA,1
Multi-ply,Open,B,F,67.5,Peach Presley,93,95,,,93,CA,USA,1
Multi-ply,Open,B,F,67.5,Darnell Criste,86.5,,,,86.5,HI,USA,2
Multi-ply,Open,B,F,82.5,Annie Bowman,118,,,,118,WA,USA,1
Multi-ply,Open,B,F,90,Kayla Sua,87.5,,,,87.5,WA,USA,1
Multi-ply,Open,B,F,90+,Melissa Zumwalt,,,,,,OR,USA,DQ
Single-ply,Open,B,F,48,Colleen Loo,67.5,,,,67.5,HI,USA,1
Single-ply,Open,B,F,48,Danielle Columby,55,,,,55,AZ,USA,2
Single-ply,Open,B,F,52,Valesca Cristina Rocha,40,,,,40,,Brazil,2
Single-ply,Open,B,F,52,Leticia Neira,40,,,,40,TX,USA,3
Single-ply,Open,B,F,52,Amparo Barajas,52.5,,,,52.5,TX,USA,1
Single-ply,Open,B,F,56,Angela Sweet,97.5,,,,97.5,PA,USA,1
Single-ply,Open,B,F,56,Shae Bitton,77.5,,,,77.5,UT,USA,2
Single-ply,Open,B,F,56,Sarah Bentley,52.5,,,,52.5,MI,USA,3
Single-ply,Open,B,F,60,Dolores Garcia-Munro,42.5,,,,42.5,CA,USA,5
Single-ply,Open,B,F,60,Christie Luehrs,107.5,113,,,107.5,OR,USA,1
Single-ply,Open,B,F,60,Velma Panlasigui,77.5,,,,77.5,HI,USA,2
Single-ply,Open,B,F,60,Alecia Cook,65,,,,65,MI,USA,3
Single-ply,Open,B,F,60,Stacie Wallace,60,,,,60,TX,USA,4
Single-ply,Open,B,F,60,Dede Leinwohl,,,,,,CA,USA,DQ
Single-ply,Open,B,F,67.5,Jeanne Watts,112.5,,,,112.5,CA,USA,1
Single-ply,Open,B,F,67.5,Ana Catia Portilho Couto,80,85,,,80,,Brazil,2
Single-ply,Open,B,F,75,Virpi Pukkila,140,,,,140,,Finland,1
Single-ply,Open,B,F,75,Cindy Shockman,138.5,140.5,,,138.5,OR,USA,2
Single-ply,Open,B,F,75,Beverly Anolin,116.5,,,,116.5,CA,USA,3
Single-ply,Open,B,F,75,Elizabeth Couture,100,,,,100,MA,USA,4
Single-ply,Open,B,F,75,Sheri Klocke,,,,,,OR,USA,DQ
Single-ply,Open,B,F,82.5,Josee Solleder,30,,,,30,TX,USA,1
Single-ply,Open,B,F,90,Karen Campbell,192.5,,,,192.5,ME,USA,1
Single-ply,Open,B,F,100,Melissa Powell,128,,,,128,OK,USA,1
Single-ply,Open,B,F,100,Nancy Hodge,95.5,,,,95.5,NV,USA,2
Single-ply,Open,B,F,44,Elizabeth Cabe,52.5,,,,52.5,HI,USA,1
Single-ply,Open,B,F,90+,Kelly Riskey,125,,,,125,OR,USA,1
Single-ply,Disabled,B,F,60,Beatriz Ribeiro,65,,,,65,,Brazil,1
Single-ply,Teen 14-15,B,F,52,Eda Hnatek,65,68,,,65,TX,USA,1
Single-ply,Teen 14-15,B,F,56,Pomaikai Yamaguchi,75,,,,75,HI,USA,1
Single-ply,Teen 16-17,B,F,48,Angela Perez,40,,,,40,TX,USA,1
Single-ply,Teen 16-17,B,F,56,Gabriela Damasceno,25,,,,25,,Brazil,1
Single-ply,Teen 16-17,B,F,67.5,Loren Nunez,57.5,,,,57.5,TX,USA,1
Single-ply,Teen 16-17,B,F,90,Anna Rodriguez,77.5,,,,77.5,TX,USA,1
Single-ply,Teen 18-19,B,F,56,Brittany Flores,72.5,,,,72.5,TX,USA,1
Single-ply,Teen 18-19,B,F,60,Alexia Trevino,62.5,,,,62.5,TX,USA,1
Single-ply,Teen 18-19,B,F,67.5,Ashley Lutringer,67.5,,,,67.5,TX,USA,1
Single-ply,Teen 18-19,B,F,67.5,Sara Anguiano,57.5,,,,57.5,TX,USA,2
Single-ply,Teen 18-19,B,F,75,Dorthy Tran,87.5,95,,,87.5,TX,USA,1
Single-ply,Teen 18-19,B,F,75,Melanie Mamerow,80,,,,80,TX,USA,2
Single-ply,Teen 18-19,B,F,82.5,Ashley Vasquez,80,,,,80,TX,USA,1
Single-ply,Teen 18-19,B,F,82.5,Brianna Smith,80,,,,80,TX,USA,2
Single-ply,Teen 18-19,B,F,90+,Regina Elizondo,65,,,,65,TX,USA,1
Multi-ply,Juniors 20-25,B,F,90,Kayla Sua,87.5,,,,87.5,WA,USA,1
Single-ply,Juniors 20-25,B,F,56,Petra Villegas,62.5,,,,62.5,TX,USA,1
Single-ply,Juniors 20-25,B,F,60,Krystal Miller,107.5,,,,107.5,NV,USA,1
Single-ply,Juniors 20-25,B,F,60,Alecia Cook,65,,,,65,MI,USA,2
Single-ply,Juniors 20-25,B,F,60,Kimberly Phanthavong,,,,,,WA,USA,DQ
Single-ply,Juniors 20-25,B,F,67.5,Brenda Clayton,80,,,,80,WY,USA,1
Single-ply,Juniors 20-25,B,F,67.5,Natalie Caughey,50,,,,50,UT,USA,2
Single-ply,Juniors 20-25,B,F,67.5,Morgan Myer,47.5,,,,47.5,TX,USA,3
Single-ply,Juniors 20-25,B,F,67.5,Sofia Valdez,,,,,,TX,USA,DQ
Single-ply,Juniors 20-25,B,F,90,Tiffany Luckett,130,,,,130,TX,USA,1
Multi-ply,Submasters 33-39,B,F,82.5,Arren Rosen,92.5,,,,92.5,ME,USA,1
Multi-ply,Submasters 33-39,B,F,90+,Melissa Zumwalt,,,,,,OR,USA,DQ
Single-ply,Submasters 33-39,B,F,56,Shae Bitton,77.5,,,,77.5,UT,USA,1
Single-ply,Submasters 33-39,B,F,56,Sarah Bentley,52.5,,,,52.5,MI,USA,2
Single-ply,Submasters 33-39,B,F,82.5,Alisha Howard,115,,,,115,WA,USA,1
Single-ply,Submasters 33-39,B,F,100,Julie Kimoto,122.5,,,,122.5,HI,USA,1
Multi-ply,Masters 40-46,B,F,67.5,Teresa Jacobs,82.5,,,,82.5,WA,USA,1
Multi-ply,Masters 40-46,B,F,82.5,Patricia Beasock,73.5,,,,73.5,WA,USA,1
Single-ply,Masters 40-46,B,F,48,Yu-Xin Hao,85,,,,85,OH,USA,1
Single-ply,Masters 40-46,B,F,52,Valesca Cristina Rocha,40,,,,40,,Brazil,1
Single-ply,Masters 40-46,B,F,56,Marla McElroy,,,,,,IL,USA,DQ
Single-ply,Masters 40-46,B,F,60,Velma Panlasigui,77.5,,,,77.5,HI,USA,1
Single-ply,Masters 40-46,B,F,60,Jody Fischer,65,,,,65,WA,USA,2
Single-ply,Masters 40-46,B,F,60,Dede Leinwohl,,,,,,CA,USA,DQ
Single-ply,Masters 40-46,B,F,67.5,Jeanne Watts,112.5,,,,112.5,CA,USA,1
Single-ply,Masters 40-46,B,F,67.5,Ana Catia Portilho Couto,80,85,,,80,,Brazil,2
Single-ply,Masters 40-46,B,F,67.5,Joanie Porter,65,,,,65,TX,USA,3
Single-ply,Masters 40-46,B,F,75,Virpi Pukkila,140,,,,140,,Finland,1
Single-ply,Masters 40-46,B,F,75,Cindy Shockman,138.5,,,,138.5,OR,USA,2
Single-ply,Masters 40-46,B,F,75,Mindi Lamoreaux,70,,,,70,UT,USA,3
Single-ply,Masters 40-46,B,F,75,Melissa Benson,67.5,,,,67.5,CO,USA,4
Single-ply,Masters 40-46,B,F,44,Elizabeth Cabe,52.5,,,,52.5,HI,USA,1
Multi-ply,Masters 47-53,B,F,52,Rebecca Moore,67.5,,,,67.5,WA,USA,1
Multi-ply,Masters 47-53,B,F,60,Martha Godinez-Shim,83,85,,,83,HI,USA,1
Multi-ply,Masters 47-53,B,F,67.5,Darnell Criste,86.5,,,,86.5,HI,USA,1
Multi-ply,Masters 47-53,B,F,75,Lisa Staplin,115,,,,115,MN,USA,1
Multi-ply,Masters 47-53,B,F,90,Linda Gerking,75,,,,75,WA,USA,1
Single-ply,Masters 47-53,B,F,52,Lisa Nerio,60,,,,60,CO,USA,1
Single-ply,Masters 47-53,B,F,56,Sarah Sanford,92.5,,,,92.5,MN,USA,1
Single-ply,Masters 47-53,B,F,56,Nan Helms,52.5,,,,52.5,OR,USA,2
Single-ply,Masters 47-53,B,F,60,Dolores Garcia-Munro,42.5,,,,42.5,CA,USA,2
Single-ply,Masters 47-53,B,F,60,Janet Montgomery,57.5,,,,57.5,OR,USA,1
Single-ply,Masters 47-53,B,F,67.5,Andrea Macauley,75,,,,75,OR,USA,1
Single-ply,Masters 47-53,B,F,75,Iraci Fatima Fenner,40,,,,40,,Brazil,3
Single-ply,Masters 47-53,B,F,75,Beverly Anolin,110,,,,110,CA,USA,1
Single-ply,Masters 47-53,B,F,75,Josefina Jackson,80.5,,,,80.5,TX,USA,2
Single-ply,Masters 47-53,B,F,75,Sheri Klocke,,,,,,OR,USA,DQ
Single-ply,Masters 47-53,B,F,82.5,Brenda Hermann,122.5,,,,122.5,WI,USA,1
Single-ply,Masters 47-53,B,F,82.5,Denise Wenz,52.5,,,,52.5,WI,USA,2
Single-ply,Masters 47-53,B,F,90,Karen Campbell,192.5,,,,192.5,ME,USA,1
Single-ply,Masters 47-53,B,F,100,Nancy Hodge,95.5,,,,95.5,NV,USA,1
Single-ply,Masters 47-53,B,F,44,Vilma Aguilar,37.5,,,,37.5,CA,USA,1
Multi-ply,Masters 54-60,B,F,48,Robyn Nelson,48,50,,,48,OR,USA,1
Multi-ply,Masters 54-60,B,F,67.5,Peach Presley,93,95,,,93,CA,USA,1
Multi-ply,Masters 54-60,B,F,67.5,Suzanne Greathouse,67.5,,,,67.5,WA,USA,2
Multi-ply,Masters 54-60,B,F,75,Jane Stabile,98,,,,98,MA,USA,1
Multi-ply,Masters 54-60,B,F,82.5,Margie Huston,83,,,,83,WA,USA,1
Multi-ply,Masters 54-60,B,F,90,Marilyn Lewis,67.5,,,,67.5,WA,USA,1
Single-ply,Masters 54-60,B,F,56,Karon Denniston,65,,,,65,MI,USA,1
Single-ply,Masters 54-60,B,F,56,Sabra Callahan,,,,,,NV,USA,DQ
Single-ply,Masters 54-60,B,F,75,Laura Gonnering,45,,,,45,AL,USA,2
Single-ply,Masters 54-60,B,F,75,Nadine Huxley,120,122.5,,,120,WA,USA,1
Single-ply,Masters 54-60,B,F,82.5,Wilma Lee Cadavona,87.5,,,,87.5,ID,USA,1
Multi-ply,Masters 61-67,B,F,56,Gloria Camp,50,,,,50,OR,USA,1
Single-ply,Masters 61-67,B,F,60,Leona Pereza,45,,,,45,HI,USA,1
Single-ply,Masters 61-67,B,F,75,Marlene Wexler,40.5,,,,40.5,MN,USA,1
Single-ply,Masters 61-67,B,F,100,Susan Arnett,65,,,,65,HI,USA,1
Multi-ply,Masters 68-74,B,F,52,Mary-Ellen Buchanan,52.5,,,,52.5,WA,USA,1
Single-ply,Masters 68-74,B,F,56,Jo Walker,65,,,,65,OR,USA,1
Single-ply,Masters 68-74,B,F,67.5,Lynn Ford,27.5,,,,27.5,CA,USA,1
Single-ply,Masters 68-74,B,F,75,Pat Robey,,,,,,WA,USA,DQ
Single-ply,Masters 68-74,B,F,82.5,Gerda Shupe,45,,,,45,CA,USA,1
Single-ply,Masters 68-74,B,F,90,Winifred Pristell,81.5,,,,81.5,WA,USA,1
Single-ply,Masters 75-79,B,F,75,Joan Mike Sloan,33,,,,33,NV,USA,1
Single-ply,Masters 75-79,B,F,82.5,Barbara Meraz,38.5,39,,,38.5,CA,USA,1
Single-ply,Masters 85-89,B,F,56,Dottie Ward,,,,,,CA,USA,DQ
Single-ply,Law-Fire Open,B,F,67.5,Kim Carter,75,,,,75,IL,USA,1
Single-ply,Law-Fire Open,B,F,82.5,Alisha Howard,115,,,,115,WA,USA,1
Single-ply,Law-Fire Submasters,B,F,67.5,Kim Carter,75,,,,75,IL,USA,1
Single-ply,Law-Fire Submasters,B,F,100,Julie Kimoto,122.5,,,,122.5,HI,USA,1
Single-ply,Open,D,M,56,James Vrem,,,182.5,,182.5,OR,USA,1
Single-ply,Open,D,M,60,Gary Hunter #1,,,202.5,,202.5,TX,USA,1
Single-ply,Open,D,M,67.5,Edwin Manmano,,,290,,290,HI,USA,1
Single-ply,Open,D,M,67.5,Nick Dunn #1,,,272.5,,272.5,UT,USA,2
Single-ply,Open,D,M,67.5,Ryan Snelling,,,262.5,,262.5,MO,USA,3
Single-ply,Open,D,M,67.5,Dean Kaneshiro,,,255,,255,HI,USA,4
Single-ply,Open,D,M,67.5,Tanner Surratt,,,247.5,,247.5,TX,USA,5
Single-ply,Open,D,M,67.5,Willis McCoy,,,227.5,,227.5,OH,USA,6
Single-ply,Open,D,M,75,Richard Cirigliano,,,250,,250,CA,USA,1
Single-ply,Open,D,M,75,Vahana Dorcis,,,240,,240,AZ,USA,2
Single-ply,Open,D,M,75,Llumel Magana,,,237.5,,237.5,HI,USA,3
Single-ply,Open,D,M,82.5,Ron Garofalo,,,318,,318,CO,USA,1
Single-ply,Open,D,M,82.5,Leamon Woodley,,,300,,300,WA,USA,2
Single-ply,Open,D,M,82.5,Olício dos Santos Filho,,,285,,285,,Brazil,3
Single-ply,Open,D,M,82.5,Brian McLaughlin,,,265,,265,OR,USA,4
Single-ply,Open,D,M,82.5,Paulo Alceu Duque Reis,,,250,,250,,Brazil,5
Single-ply,Open,D,M,82.5,David Felton,,,247.5,,247.5,WI,USA,6
Single-ply,Open,D,M,82.5,Anthony Williams,,,227.5,,227.5,WI,USA,7
Single-ply,Open,D,M,90,Matthew Marsiglia,,,337.5,,337.5,MI,USA,1
Single-ply,Open,D,M,90,Ben Rice,,,332.5,,332.5,WA,USA,2
Single-ply,Open,D,M,90,Jody Woods,,,318.5,,318.5,CA,USA,3
Single-ply,Open,D,M,90,Jordan Glenn,,,310.5,,310.5,TX,USA,4
Single-ply,Open,D,M,90,Eddie DiFruscia,,,292.5,,292.5,NH,USA,5
Single-ply,Open,D,M,90,C. J. Hollingshead,,,272.5,,272.5,KS,USA,6
Single-ply,Open,D,M,90,Jerry Saldana,,,272.5,,272.5,TX,USA,7
Single-ply,Open,D,M,90,Ed Sun,,,270,,270,AZ,USA,8
Single-ply,Open,D,M,90,Pasi Koukkula,,,260,,260,,Finland,9
Single-ply,Open,D,M,90,Dustin McFarland,,,250,,250,OR,USA,10
Single-ply,Open,D,M,90,Doug Morong,,,245,,245,TN,USA,11
Single-ply,Open,D,M,90,Seppo Junttila,,,240,,240,,Finland,12
Single-ply,Open,D,M,90,Luis Baerga,,,237.5,,237.5,TX,USA,13
Single-ply,Open,D,M,90,Wayne Thomas,,,230,,230,WI,USA,14
Single-ply,Open,D,M,90,Kim Päivöke,,,185,,185,,Finland,15
Single-ply,Open,D,M,100,Jacob Rammell,,,315,,315,WY,USA,1
Single-ply,Open,D,M,100,Steve LeMarié,,,307.5,,307.5,LA,USA,2
Single-ply,Open,D,M,100,Jeffrey Moreno,,,303,,303,TX,USA,3
Single-ply,Open,D,M,100,Tim Sparkes,,,300,,300,AZ,USA,4
Single-ply,Open,D,M,100,Scott Edmondson,,,300,,300,OR,USA,5
Single-ply,Open,D,M,100,Kirk Remer,,,295,,295,WI,USA,6
Single-ply,Open,D,M,100,Al Bianchi,,,290,,290,MA,USA,7
Single-ply,Open,D,M,100,Taylor Selig,,,272.5,,272.5,MT,USA,8
Single-ply,Open,D,M,100,Shayne Unea,,,272.5,,272.5,OR,USA,9
Single-ply,Open,D,M,100,Duane Burlingame,,,245,,245,IL,USA,10
Single-ply,Open,D,M,100,Nick Hosley,,,230,,230,UT,USA,11
Single-ply,Open,D,M,100,Jason Flores,,,227.5,,227.5,TX,USA,12
Single-ply,Open,D,M,100,Adam Hays,,,220,,220,AZ,USA,13
Single-ply,Open,D,M,100,Petri Hietamäki,,,,,,,Finland,DQ
Single-ply,Open,D,M,110,Garrett Muro,,,330,,330,NV,USA,1
Single-ply,Open,D,M,110,Kari Pöntinen,,,300,,300,,Finland,2
Single-ply,Open,D,M,110,Keithyon Gunter,,,295,,295,TX,USA,3
Single-ply,Open,D,M,110,Ron L'Huillier,,,287.5,,287.5,MI,USA,4
Single-ply,Open,D,M,110,Robert Schleder,,,287.5,,287.5,AZ,USA,5
Single-ply,Open,D,M,110,Tom Matlock,,,205,,205,AZ,USA,6
Single-ply,Open,D,M,117.5,Tony Arterburn,,,272.5,,272.5,TX,USA,1
Single-ply,Open,D,M,117.5,Jani Toivo Kristian Ihalainen,,,265,,265,,Finland,2
Single-ply,Open,D,M,117.5,Terry Putman,,,,,,OK,USA,DQ
Single-ply,Open,D,M,125,Patrick Holloway,,,387.5,,387.5,AZ,USA,1
Single-ply,Open,D,M,140,David Edgell,,,310,,310,UT,USA,1
Single-ply,Open,D,M,140,Jeff Peshek,,,302.5,,302.5,OH,USA,2
Single-ply,Open,D,M,140,Johannes Impiö,,,300,,300,,Finland,3
Single-ply,Open,D,M,140,Mike Womack #1,,,,,,TX,USA,DQ
Single-ply,Open,D,M,140+,Jerry Pritchett,,,367.5,,367.5,AZ,USA,1
Single-ply,Open,D,M,140+,Dave Forstner,,,300,,300,MI,USA,2
Single-ply,Open,D,M,140+,Joe Mickelson,,,260,,260,WA,USA,3
Single-ply,Class 1,D,M,56,James Vrem,,,182.5,,182.5,OR,USA,1
Single-ply,Class 1,D,M,67.5,Jose Cabrera,,,220,,220,CA,USA,1
Single-ply,Class 1,D,M,67.5,Jonathan Rosete,,,190,,190,OR,USA,2
Single-ply,Class 1,D,M,67.5,Dave Constantineau,,,182.5,,182.5,WI,USA,3
Single-ply,Class 1,D,M,75,Ben Dehghan,,,240,,240,WA,USA,1
Single-ply,Class 1,D,M,75,John Heidenreich,,,200,,200,CO,USA,2
Single-ply,Class 1,D,M,75,Rodell Esteban,,,192.5,,192.5,OR,USA,3
Single-ply,Class 1,D,M,75,Heath Robbins,,,,,,IL,USA,DQ
Single-ply,Class 1,D,M,82.5,Brian McLaughlin,,,265,,265,OR,USA,1
Single-ply,Class 1,D,M,82.5,Jason Pelc,,,250,,250,MI,USA,2
Single-ply,Class 1,D,M,82.5,Victor Sanchez,,,240,,240,CA,USA,3
Single-ply,Class 1,D,M,82.5,Matthew Jones #8,,,227.5,,227.5,MI,USA,4
Single-ply,Class 1,D,M,82.5,Manuel Alejandro Chaparro,,,202.5,,202.5,HI,USA,5
Single-ply,Class 1,D,M,82.5,Dylan Kuehl,,,157.5,,157.5,WA,USA,6
Single-ply,Class 1,D,M,82.5,Aramiq Amirchian,,,,,,AZ,USA,DQ
Single-ply,Class 1,D,M,90,Ira Kekaualua,,,282.5,,282.5,OR,USA,1
Single-ply,Class 1,D,M,90,Kyle Herzik,,,240,,240,NV,USA,2
Single-ply,Class 1,D,M,90,Jason Burgoon,,,220,,220,MN,USA,3
Single-ply,Class 1,D,M,90,Bryan Walter,,,125,,125,TX,USA,4
Single-ply,Class 1,D,M,90,Jake Nissen,,,,,,MT,USA,DQ
Single-ply,Class 1,D,M,100,Kaleb Crafts,,,280,,280,UT,USA,1
Single-ply,Class 1,D,M,100,Shayne Unea,,,272.5,,272.5,OR,USA,2
Single-ply,Class 1,D,M,100,Brian Fahrenfeld,,,250,,250,NY,USA,3
Single-ply,Class 1,D,M,100,William G Caughey,,,222.5,,222.5,UT,USA,4
Single-ply,Class 1,D,M,100,Brent Jordan,,,217.5,,217.5,WA,USA,5
Single-ply,Class 1,D,M,100,John Lisenbee,,,205,,205,OK,USA,6
Single-ply,Class 1,D,M,110,Arthur Haug,,,320,,320,IA,USA,1
Single-ply,Class 1,D,M,110,Dennis Schmidt Jr,,,277.5,,277.5,MN,USA,2
Single-ply,Class 1,D,M,110,David Palmer,,,240,,240,ME,USA,3
Single-ply,Class 1,D,M,117.5,Harold Pettegrove,,,322.5,,322.5,WA,USA,1
Single-ply,Class 1,D,M,117.5,Gabriel Balboa,,,272.5,,272.5,HI,USA,2
Single-ply,Class 1,D,M,117.5,Tony Arterburn,,,272.5,,272.5,TX,USA,3
Single-ply,Class 1,D,M,117.5,Jay Anderson,,,260,,260,UT,USA,4
Single-ply,Class 1,D,M,117.5,Isaac Conde,,,245,,245,TX,USA,5
Single-ply,Class 1,D,M,117.5,Matt Maini,,,230,,230,AL,USA,6
Single-ply,Class 1,D,M,125,Tom Ekenberg,,,282.5,,282.5,TX,USA,1
Single-ply,Class 1,D,M,140,Fred Riccardi,,,250,,250,NY,USA,1
Single-ply,Class 1,D,M,140,Justin Purcell,,,182.5,,182.5,NV,USA,2
Single-ply,Class 1,D,M,140+,Jeffrey Place,,,282.5,,282.5,OR,USA,1
Single-ply,Class 1,D,M,140+,Manuel Villarreal,,,182.5,,182.5,TX,USA,2
Single-ply,Disabled,D,M,82.5,Vilmar Oliveira,,,180,,180,,Brazil,1
Single-ply,Disabled,D,M,90,John Herbein,,,175,,175,PA,USA,1
Single-ply,Disabled,D,M,110,Cody Colchado,,,252.5,,252.5,TX,USA,1
Single-ply,Disabled,D,M,117.5,Serafim Rocha Lima Filho,,,170,180,170,,Brazil,1
Single-ply,Special Olympian,D,M,52,David Hammond,,,92.5,95,92.5,WA,USA,1
Single-ply,Special Olympian,D,M,117.5,Brady Tanner,,,240,,240,KS,USA,1
Single-ply,Special Olympian,D,M,140,Jock Mayes,,,105,,105,CA,USA,1
Single-ply,Special Olympian,D,M,44,Todd Moore,,,82.5,87.5,82.5,,Canada,1
Single-ply,Teen 12-13,D,M,52,Karter Brachear,,,110,,110,IL,USA,1
Single-ply,Teen 12-13,D,M,75,Antonio Waldorf,,,152.5,,152.5,MN,USA,1
Single-ply,Teen 12-13,D,M,82.5,Luis Molina,,,117.5,,117.5,TX,USA,1
Single-ply,Teen 12-13,D,M,110,Shun Talmadge,,,170,,170,OR,USA,1
Single-ply,Teen 12-13,D,M,44,Vicente Borja,,,100,108,100,OR,USA,1
Single-ply,Teen 14-15,D,M,67.5,Christopher Kays,,,165,,165,CA,USA,1
Single-ply,Teen 14-15,D,M,82.5,Westin Fryar,,,200,,200,WA,USA,1
Single-ply,Teen 14-15,D,M,90,Gaven White,,,182.5,,182.5,AZ,USA,1
Single-ply,Teen 14-15,D,M,90,Paul Gonnering,,,137.5,,137.5,AL,USA,2
Single-ply,Teen 14-15,D,M,100,Glenn Stila,,,207.5,,207.5,NY,USA,1
Single-ply,Teen 14-15,D,M,110,Nathan Smith #2,,,160,,160,WA,USA,1
Single-ply,Teen 16-17,D,M,48,Adam Morton,,,147.5,,147.5,TX,USA,1
Single-ply,Teen 16-17,D,M,52,Fabian Osorio,,,137.5,,137.5,TX,USA,1
Single-ply,Teen 16-17,D,M,60,Harley Hnatek,,,160,,160,TX,USA,1
Single-ply,Teen 16-17,D,M,60,Mason Ismert,,,152.5,,152.5,CO,USA,2
Single-ply,Teen 16-17,D,M,67.5,Scott Homes,,,192.5,,192.5,CA,USA,1
Single-ply,Teen 16-17,D,M,67.5,Caleb Nute,,,155,,155,ME,USA,2
Single-ply,Teen 16-17,D,M,67.5,Brock Gallagher,,,147.5,,147.5,CO,USA,3
Single-ply,Teen 16-17,D,M,75,Sho Talmadge,,,167.5,,167.5,OR,USA,1
Single-ply,Teen 16-17,D,M,75,Joshua Bailey,,,120,,120,TX,USA,2
Single-ply,Teen 16-17,D,M,82.5,Justin Woods,,,272.5,,272.5,CA,USA,1
Single-ply,Teen 16-17,D,M,82.5,Dylan Blum,,,237.5,,237.5,TX,USA,2
Single-ply,Teen 16-17,D,M,90,C. J. Hollingshead,,,272.5,,272.5,KS,USA,1
Single-ply,Teen 16-17,D,M,90,John Weis,,,210,,210,CO,USA,2
Single-ply,Teen 16-17,D,M,110,Christian Marshall,,,217.5,,217.5,WV,USA,1
Single-ply,Teen 18-19,D,M,52,Cesar Casas,,,182.5,,182.5,TX,USA,1
Single-ply,Teen 18-19,D,M,56,Alexander Garcia,,,157.5,,157.5,TX,USA,1
Single-ply,Teen 18-19,D,M,60,Anthony Grimes,,,220,227.5,220,TX,USA,1
Single-ply,Teen 18-19,D,M,60,Brett Black,,,135,,135,AR,USA,2
Single-ply,Teen 18-19,D,M,67.5,Tanner Surratt,,,247.5,,247.5,TX,USA,1
Single-ply,Teen 18-19,D,M,67.5,Brandon Jones #10,,,230,,230,HI,USA,2
Single-ply,Teen 18-19,D,M,67.5,Robert Carrasco,,,225,,225,TX,USA,3
Single-ply,Teen 18-19,D,M,67.5,Hunter Hume,,,220,,220,OK,USA,4
Single-ply,Teen 18-19,D,M,67.5,Jesse Trevino,,,205,,205,TX,USA,5
Single-ply,Teen 18-19,D,M,67.5,Chris Eason,,,182.5,,182.5,TX,USA,6
Single-ply,Teen 18-19,D,M,67.5,Garrett Johnson,,,160,,160,CO,USA,7
Single-ply,Teen 18-19,D,M,75,Llumel Magana,,,237.5,,237.5,HI,USA,1
Single-ply,Teen 18-19,D,M,75,Austin Witt,,,212.5,,212.5,NV,USA,2
Single-ply,Teen 18-19,D,M,75,Matthew Collins #3,,,167.5,,167.5,CA,USA,3
Single-ply,Teen 18-19,D,M,75,Juan Santos,,,150,,150,TX,USA,4
Single-ply,Teen 18-19,D,M,82.5,Luis Munoz #7,,,260,,260,TX,USA,1
Single-ply,Teen 18-19,D,M,82.5,Jonathan Bradfield,,,240,,240,TX,USA,2
Single-ply,Teen 18-19,D,M,82.5,Riley Tracy,,,227.5,,227.5,WA,USA,3
Single-ply,Teen 18-19,D,M,82.5,Miguel Galvan,,,227.5,,227.5,TX,USA,4
Single-ply,Teen 18-19,D,M,90,Jordan Glenn,,,310.5,,310.5,TX,USA,1
Single-ply,Teen 18-19,D,M,90,Weylen White,,,245,,245,AZ,USA,2
Single-ply,Teen 18-19,D,M,90,Barry Authenreith,,,215,,215,TX,USA,3
Single-ply,Teen 18-19,D,M,100,Jeffrey Moreno,,,303,,303,TX,USA,1
Single-ply,Teen 18-19,D,M,100,Aaron Villanova,,,272.5,,272.5,HI,USA,2
Single-ply,Teen 18-19,D,M,100,Austin Sellers,,,265,,265,TX,USA,3
Single-ply,Teen 18-19,D,M,100,William Cameron LaForge,,,262.5,,262.5,MA,USA,4
Single-ply,Teen 18-19,D,M,100,Ben Cotton,,,260,,260,WA,USA,5
Single-ply,Teen 18-19,D,M,100,Joey Miguel,,,217.5,,217.5,NV,USA,6
Single-ply,Teen 18-19,D,M,110,Seth Reed,,,272.5,,272.5,ME,USA,1
Single-ply,Teen 18-19,D,M,110,Devon Burdette,,,227.5,,227.5,MI,USA,2
Single-ply,Teen 18-19,D,M,110,Seth La,,,205,,205,TX,USA,3
Single-ply,Teen 18-19,D,M,117.5,Colby Ballinger,,,272.5,,272.5,CA,USA,1
Single-ply,Teen 18-19,D,M,117.5,Kristopher Ravin,,,227.5,,227.5,ME,USA,2
Single-ply,Teen 18-19,D,M,125,Damon Klinedinst,,,222.5,,222.5,ME,USA,1
Single-ply,Teen 18-19,D,M,140+,Esteven Balderrama,,,227.5,,227.5,TX,USA,1
Single-ply,Juniors 20-25,D,M,56,Andres Cruz,,,170,,170,TX,USA,1
Single-ply,Juniors 20-25,D,M,67.5,Jacob Valmoja,,,207.5,,207.5,HI,USA,1
Single-ply,Juniors 20-25,D,M,67.5,James Robertson #5,,,182.5,,182.5,TX,USA,2
Single-ply,Juniors 20-25,D,M,75,Roy Arispe,,,235,,235,TX,USA,1
Single-ply,Juniors 20-25,D,M,75,Judd Sato III,,,232.5,,232.5,HI,USA,2
Single-ply,Juniors 20-25,D,M,75,Jesus Lozano,,,210,,210,TX,USA,3
Single-ply,Juniors 20-25,D,M,75,Ray Segura,,,205,,205,WA,USA,4
Single-ply,Juniors 20-25,D,M,75,Connor Fuqua,,,192.5,,192.5,CO,USA,5
Single-ply,Juniors 20-25,D,M,82.5,Blake Parado,,,257.5,,257.5,HI,USA,1
Single-ply,Juniors 20-25,D,M,82.5,Andrew Tabisula,,,250,,250,HI,USA,2
Single-ply,Juniors 20-25,D,M,82.5,Martin Esparza,,,242.5,,242.5,TX,USA,3
Single-ply,Juniors 20-25,D,M,82.5,Rance Balidoy,,,232.5,,232.5,HI,USA,4
Single-ply,Juniors 20-25,D,M,82.5,Manuel Alejandro Chaparro,,,202.5,,202.5,HI,USA,5
Single-ply,Juniors 20-25,D,M,82.5,Jesse Mendoza,,,142.5,,142.5,TX,USA,6
Single-ply,Juniors 20-25,D,M,90,Ben Rice,,,332.5,,332.5,WA,USA,1
Single-ply,Juniors 20-25,D,M,90,Tyler Carlson,,,255.5,,255.5,MT,USA,2
Single-ply,Juniors 20-25,D,M,90,Cameron Fraser,,,250,,250,NV,USA,3
Single-ply,Juniors 20-25,D,M,90,Steven Rocha,,,250,,250,TX,USA,4
Single-ply,Juniors 20-25,D,M,90,Jacob Fernandez,,,245,,245,TX,USA,5
Single-ply,Juniors 20-25,D,M,90,Seppo Junttila,,,240,,240,,Finland,6
Single-ply,Juniors 20-25,D,M,90,Wayne Thomas,,,230,,230,WI,USA,7
Single-ply,Juniors 20-25,D,M,90,Ilian Rojas,,,227.5,,227.5,TX,USA,8
Single-ply,Juniors 20-25,D,M,90,Anthony White #4,,,217.5,,217.5,AZ,USA,9
Single-ply,Juniors 20-25,D,M,100,Jacob Rammell,,,315,,315,WY,USA,1
Single-ply,Juniors 20-25,D,M,100,Bart Golightly,,,227.5,,227.5,TX,USA,2
Single-ply,Juniors 20-25,D,M,100,Adam Hays,,,220,,220,AZ,USA,3
Single-ply,Juniors 20-25,D,M,110,Jake Garbush,,,300,,300,WA,USA,1
Single-ply,Juniors 20-25,D,M,110,Zachary Holloway,,,260,,260,NV,USA,2
Single-ply,Juniors 20-25,D,M,117.5,Garrett Muro,,,330,,330,NV,USA,1
Single-ply,Juniors 20-25,D,M,117.5,Gabriel Balboa,,,272.5,,272.5,HI,USA,2
Single-ply,Juniors 20-25,D,M,117.5,Andrew Marczak,,,202.5,,202.5,NV,USA,3
Single-ply,Juniors 20-25,D,M,125,Kamuela Wassman,,,295.5,,295.5,HI,USA,1
Single-ply,Juniors 20-25,D,M,125,Jose Trejo,,,232.5,,232.5,TX,USA,2
Single-ply,Juniors 20-25,D,M,140,Johannes Impiö,,,300,,300,,Finland,1
Single-ply,Juniors 20-25,D,M,140,Dean Crowell,,,272.5,,272.5,HI,USA,2
Single-ply,Juniors 20-25,D,M,140+,Manuel Villarreal,,,182.5,,182.5,TX,USA,1
Single-ply,Submasters 33-39,D,M,56,Vin Voeun,,,157.5,,157.5,AZ,USA,1
Single-ply,Submasters 33-39,D,M,67.5,Alejandro Barajas,,,217.5,,217.5,TX,USA,1
Single-ply,Submasters 33-39,D,M,75,Ben Dehghan,,,240,,240,WA,USA,1
Single-ply,Submasters 33-39,D,M,75,Walter Hellegeist,,,227.5,,227.5,TX,USA,2
Single-ply,Submasters 33-39,D,M,75,Heath Robbins,,,220,,220,IL,USA,3
Single-ply,Submasters 33-39,D,M,75,Rodell Esteban,,,192.5,,192.5,OR,USA,4
Single-ply,Submasters 33-39,D,M,82.5,Murphy Knott,,,230,,230,OR,USA,1
Single-ply,Submasters 33-39,D,M,82.5,Travis Voss,,,225,,225,IL,USA,2
Single-ply,Submasters 33-39,D,M,82.5,Jeff Holz,,,210,,210,NV,USA,3
Single-ply,Submasters 33-39,D,M,82.5,Craig Bitton,,,195,,195,UT,USA,4
Single-ply,Submasters 33-39,D,M,90,Jason Hansen,,,225,,225,UT,USA,1
Single-ply,Submasters 33-39,D,M,100,Scott Edmondson,,,300,,300,OR,USA,1
Single-ply,Submasters 33-39,D,M,100,Chris Newton,,,272.5,,272.5,CA,USA,2
Single-ply,Submasters 33-39,D,M,100,Miguel Chain Junior,,,255,,255,,Brazil,3
Single-ply,Submasters 33-39,D,M,100,Richard Curran,,,245,,245,WA,USA,4
Single-ply,Submasters 33-39,D,M,100,Nick Hosley,,,230,,230,UT,USA,5
Single-ply,Submasters 33-39,D,M,100,George Price,,,207.5,,207.5,WA,USA,6
Single-ply,Submasters 33-39,D,M,100,John Lisenbee,,,205,,205,OK,USA,7
Single-ply,Submasters 33-39,D,M,110,Kari Pöntinen,,,300,,300,,Finland,1
Single-ply,Submasters 33-39,D,M,110,Mike Burns,,,282.5,,282.5,CA,USA,2
Single-ply,Submasters 33-39,D,M,117.5,Jani Toivo Kristian Ihalainen,,,265,,265,,Finland,1
Single-ply,Submasters 33-39,D,M,117.5,Chris Johnson #4,,,262.5,,262.5,WA,USA,2
Single-ply,Submasters 33-39,D,M,117.5,Jay Anderson,,,260,,260,UT,USA,3
Single-ply,Submasters 33-39,D,M,117.5,Mike Desrosiers,,,,,,AZ,USA,DQ
Single-ply,Submasters 33-39,D,M,117.5,Kegan Engelke,,,,,,WA,USA,DQ
Single-ply,Submasters 33-39,D,M,125,Joe Carter,,,340,,340,TN,USA,1
Single-ply,Masters 40-46,D,M,67.5,Willis McCoy,,,227.5,,227.5,OH,USA,1
Single-ply,Masters 40-46,D,M,75,Allen McVaney,,,237.5,,237.5,OH,USA,1
Single-ply,Masters 40-46,D,M,90,Pasi Koukkula,,,260,282.5,260,,Finland,1
Single-ply,Masters 40-46,D,M,90,Ed Lund,,,250.5,,250.5,WI,USA,2
Single-ply,Masters 40-46,D,M,90,Kim Päivöke,,,200,,200,,Finland,3
Single-ply,Masters 40-46,D,M,100,Tim Sparkes,,,300,,300,AZ,USA,1
Single-ply,Masters 40-46,D,M,100,Steven Petersen,,,260,,260,TX,USA,2
Single-ply,Masters 40-46,D,M,100,John Westleigh,,,255,,255,ME,USA,3
Single-ply,Masters 40-46,D,M,100,Lance Davis,,,,,,UT,USA,DQ
Single-ply,Masters 40-46,D,M,110,Ismansjah Soekardi,,,287.5,,287.5,CA,USA,1
Single-ply,Masters 40-46,D,M,110,Nick Massey,,,265,,265,CA,USA,2
Single-ply,Masters 40-46,D,M,110,David Palmer,,,240,,240,ME,USA,3
Single-ply,Masters 40-46,D,M,117.5,Eric Poitevien,,,297.5,,297.5,NY,USA,1
Single-ply,Masters 40-46,D,M,117.5,Robert Exum,,,272.5,,272.5,CA,USA,2
Single-ply,Masters 40-46,D,M,125,Patrick Holloway,,,387.5,,387.5,AZ,USA,1
Single-ply,Masters 40-46,D,M,140,David Edgell,,,310,,310,UT,USA,1
Single-ply,Masters 40-46,D,M,140,Thomas Guiney,,,280,,280,OK,USA,2
Single-ply,Masters 40-46,D,M,140,Dean Munsey,,,250,,250,OR,USA,3
Single-ply,Masters 40-46,D,M,140,Warren Orr,,,240,,240,,Canada,4
Single-ply,Masters 40-46,D,M,140+,Heath Thiel,,,302.5,,302.5,WI,USA,1
Single-ply,Masters 40-46,D,M,140+,Dave Forstner,,,300,,300,MI,USA,2
Single-ply,Masters 40-46,D,M,140+,Tiny Meeker,,,250,,250,TX,USA,3
Single-ply,Masters 47-53,D,M,67.5,James Valmoja,,,227.5,,227.5,HI,USA,1
Single-ply,Masters 47-53,D,M,75,Keith Cunningham,,,250.5,,250.5,WA,USA,1
Single-ply,Masters 47-53,D,M,75,Fulton White,,,245,,245,NV,USA,2
Single-ply,Masters 47-53,D,M,82.5,Ron Garofalo,,,318,,318,CO,USA,1
Single-ply,Masters 47-53,D,M,82.5,Anthony Williams,,,227.5,,227.5,WI,USA,2
Single-ply,Masters 47-53,D,M,90,Eddie DiFruscia,,,292.5,,292.5,NH,USA,1
Single-ply,Masters 47-53,D,M,90,Mitch Edelstein,,,277.5,,277.5,MN,USA,2
Single-ply,Masters 47-53,D,M,90,Doug Noebe,,,237.5,,237.5,OH,USA,3
Single-ply,Masters 47-53,D,M,90,Bill Marchetti,,,215,,215,NY,USA,4
Single-ply,Masters 47-53,D,M,100,Steve LeMarié,,,307.5,,307.5,LA,USA,1
Single-ply,Masters 47-53,D,M,100,Rolando Espinoza,,,220,,220,TX,USA,2
Single-ply,Masters 47-53,D,M,100,Brent Jordan,,,217.5,,217.5,WA,USA,3
Single-ply,Masters 47-53,D,M,100,Gene A Wenzel,,,210,,210,OH,USA,4
Single-ply,Masters 47-53,D,M,110,Cody Colchado,,,252.5,,252.5,TX,USA,1
Single-ply,Masters 47-53,D,M,110,Jason Julian,,,232.5,,232.5,CO,USA,2
Single-ply,Masters 47-53,D,M,110,Steve Gaytan,,,227.5,,227.5,CA,USA,3
Single-ply,Masters 47-53,D,M,117.5,Terry Putman,,,300.5,,300.5,OK,USA,1
Single-ply,Masters 47-53,D,M,117.5,Tom Pennella,,,296,,296,WA,USA,2
Single-ply,Masters 47-53,D,M,117.5,Ismyanto Soekardi,,,272.5,,272.5,CA,USA,3
Single-ply,Masters 47-53,D,M,117.5,Enrique Molina,,,222.5,,222.5,TX,USA,4
Single-ply,Masters 47-53,D,M,125,Bobby Driskill,,,300,,300,AL,USA,1
Single-ply,Masters 47-53,D,M,140,Jeff Peshek,,,302.5,,302.5,OH,USA,1
Single-ply,Masters 47-53,D,M,140+,Jeffrey Place,,,282.5,,282.5,OR,USA,1
Single-ply,Masters 54-60,D,M,60,Chuck Wong,,,190,,190,MN,USA,1
Single-ply,Masters 54-60,D,M,60,Chetram Mangra,,,120,,120,NY,USA,2
Single-ply,Masters 54-60,D,M,67.5,Dean Kaneshiro,,,235,,235,HI,USA,1
Single-ply,Masters 54-60,D,M,67.5,Dave Constantineau,,,182.5,,182.5,WI,USA,2
Single-ply,Masters 54-60,D,M,75,Richard Cirigliano,,,250,,250,CA,USA,1
Single-ply,Masters 54-60,D,M,75,Dave Higgins,,,150,,150,MN,USA,2
Single-ply,Masters 54-60,D,M,82.5,Leamon Woodley,,,300,,300,WA,USA,1
Single-ply,Masters 54-60,D,M,82.5,David Felton,,,247.5,,247.5,WI,USA,2
Single-ply,Masters 54-60,D,M,82.5,Raymond Cavileer,,,215.5,,215.5,CA,USA,3
Single-ply,Masters 54-60,D,M,90,Jody Woods,,,318.5,,318.5,CA,USA,1
Single-ply,Masters 54-60,D,M,90,Doug Morong,,,245,,245,TN,USA,2
Single-ply,Masters 54-60,D,M,90,Doug Woods,,,227.5,,227.5,WA,USA,3
Single-ply,Masters 54-60,D,M,90,James Spainhower,,,180,,180,WA,USA,4
Single-ply,Masters 54-60,D,M,100,Eugene Merrill,,,255,,255,AR,USA,1
Single-ply,Masters 54-60,D,M,100,Dave Rodgers,,,247.5,,247.5,OR,USA,2
Single-ply,Masters 54-60,D,M,100,Duane Burlingame,,,245,,245,IL,USA,3
Single-ply,Masters 54-60,D,M,100,Jim Curley,,,225,,225,CO,USA,4
Single-ply,Masters 54-60,D,M,100,Tim Epting,,,215,,215,TX,USA,5
Single-ply,Masters 54-60,D,M,100,Tom Gonnering,,,160,,160,AL,USA,6
Single-ply,Masters 54-60,D,M,100,Ryland Monroe,,,160,,160,WI,USA,7
Single-ply,Masters 54-60,D,M,110,Ron L'Huillier,,,287.5,,287.5,MI,USA,1
Single-ply,Masters 54-60,D,M,110,Mike Frizzell,,,272.5,,272.5,IL,USA,2
Single-ply,Masters 54-60,D,M,110,Marvin Hollan,,,260,,260,TX,USA,3
Single-ply,Masters 54-60,D,M,110,Gary Stevens,,,220,,220,WY,USA,4
Single-ply,Masters 54-60,D,M,117.5,Eddie Morgan #1,,,282.5,,282.5,AR,USA,1
Single-ply,Masters 54-60,D,M,117.5,Keith Huffer,,,242.5,,242.5,CA,USA,2
Single-ply,Masters 54-60,D,M,117.5,James Rickert,,,232.5,,232.5,WI,USA,3
Single-ply,Masters 54-60,D,M,140,Ted Stewart,,,240,,240,NV,USA,1
Single-ply,Masters 54-60,D,M,140+,Joe Mickelson,,,260,,260,WA,USA,1
Single-ply,Masters 61-67,D,M,75,James Christian #1,,,185,,185,TX,USA,1
Single-ply,Masters 61-67,D,M,75,Stefan Lemire,,,162.5,,162.5,UT,USA,2
Single-ply,Masters 61-67,D,M,82.5,Jack Rankin,,,210,,210,WA,USA,1
Single-ply,Masters 61-67,D,M,82.5,G. Jeffery Thornton,,,165,,165,AZ,USA,2
Single-ply,Masters 61-67,D,M,90,Jerry Shetka,,,262.5,,262.5,MN,USA,1
Single-ply,Masters 61-67,D,M,90,Godfrey Holzinger,,,205,,205,WA,USA,2
Single-ply,Masters 61-67,D,M,90,Kenneth Kirk,,,137.5,,137.5,CA,USA,3
Single-ply,Masters 61-67,D,M,100,Bob Hochstein,,,245,,245,IL,USA,1
Single-ply,Masters 61-67,D,M,110,Cliff Sandberg,,,237.5,,237.5,WA,USA,1
Single-ply,Masters 61-67,D,M,110,Tom Matlock,,,205,,205,AZ,USA,2
Single-ply,Masters 61-67,D,M,125,Tom Ekenberg,,,282.5,287.5,282.5,TX,USA,1
Single-ply,Masters 61-67,D,M,125,Mike Fryar,,,235,,235,WA,USA,2
Single-ply,Masters 61-67,D,M,125,Tom Morgan,,,217.5,,217.5,AR,USA,3
Single-ply,Masters 61-67,D,M,140,Alan Fraser,,,192.5,,192.5,NV,USA,1
Single-ply,Masters 61-67,D,M,140+,Randy Patterson,,,267.5,,267.5,AZ,USA,1
Single-ply,Masters 68-74,D,M,60,Eugene Kawamata,,,92.5,,92.5,HI,USA,1
Single-ply,Masters 68-74,D,M,75,Martin Montgomery,,,215,,215,IN,USA,1
Single-ply,Masters 68-74,D,M,75,Ray Gandeza Sr,,,182.5,,182.5,HI,USA,2
Single-ply,Masters 68-74,D,M,82.5,Olício dos Santos Filho,,,285,,285,,Brazil,1
Single-ply,Masters 68-74,D,M,82.5,Dennis Johnson,,,227.5,,227.5,WI,USA,2
Single-ply,Masters 68-74,D,M,82.5,Ed Angstrom,,,182.5,,182.5,IA,USA,3
Single-ply,Masters 68-74,D,M,90,James Rouse,,,212.5,,212.5,IL,USA,1
Single-ply,Masters 68-74,D,M,90,Roy Eriksen,,,192.5,,192.5,NV,USA,2
Single-ply,Masters 68-74,D,M,90,John Herbein,,,175,,175,PA,USA,3
Single-ply,Masters 68-74,D,M,90,Ronald Ford,,,95,,95,CA,USA,4
Single-ply,Masters 68-74,D,M,100,Bud Davis,,,259,,259,UT,USA,1
Single-ply,Masters 68-74,D,M,100,Al Williamson,,,215,,215,WI,USA,2
Single-ply,Masters 68-74,D,M,100,Tom Haggenmiller,,,207.5,,207.5,MN,USA,3
Single-ply,Masters 68-74,D,M,100,Robert Urrea,,,195,,195,CA,USA,4
Single-ply,Masters 68-74,D,M,100,Tom Overholtzer,,,190,,190,CA,USA,5
Single-ply,Masters 68-74,D,M,110,Dave Holmes,,,202.5,,202.5,WA,USA,1
Single-ply,Masters 75-79,D,M,60,Larry Vincent,,,157.5,,157.5,OR,USA,1
Single-ply,Masters 75-79,D,M,67.5,Raymond Whalen,,,112.5,,112.5,,Canada,1
Single-ply,Masters 75-79,D,M,75,Ron Ringewold,,,182.5,,182.5,MI,USA,1
Single-ply,Masters 75-79,D,M,82.5,Bob Caves,,,165,,165,MT,USA,1
Single-ply,Masters 75-79,D,M,90,Dean Baker,,,112.5,,112.5,CA,USA,1
Single-ply,Masters 75-79,D,M,140,JP Krachunis,,,105,,105,CA,USA,1
Single-ply,Masters 80-84,D,M,75,Peter Filippelli,,,127.5,,127.5,CA,USA,1
Single-ply,Masters 85-89,D,M,82.5,Roy Kahn,,,80,,80,CA,USA,1
Single-ply,Masters 85-89,D,M,90,Rodney Graves,,,97.5,,97.5,NV,USA,1
Single-ply,Masters 85-89,D,M,100,James Weiss,,,102.5,,102.5,CA,USA,1
Single-ply,Law-Fire Open,D,M,67.5,David Edmondson,,,212.5,,212.5,UT,USA,1
Single-ply,Law-Fire Open,D,M,82.5,Ryan Marble,,,238,,238,UT,USA,1
Single-ply,Law-Fire Open,D,M,82.5,Shane Morigeau,,,237.5,,237.5,MT,USA,2
Single-ply,Law-Fire Open,D,M,82.5,Donovan Bender,,,227.5,,227.5,ND,USA,3
Single-ply,Law-Fire Open,D,M,90,Dan Guches,,,265,273.5,265,OR,USA,1
Single-ply,Law-Fire Open,D,M,90,Luis Fernando Meireles Dias,,,230,,230,,Brazil,2
Single-ply,Law-Fire Open,D,M,90,Shawn Suda,,,212.5,,212.5,NM,USA,3
Single-ply,Law-Fire Open,D,M,100,Ernest Stuart,,,102.5,,102.5,TX,USA,1
Single-ply,Law-Fire Open,D,M,110,Troy Fryar,,,300,,300,WA,USA,1
Single-ply,Law-Fire Open,D,M,110,Robert Schleder,,,287.5,,287.5,AZ,USA,2
Single-ply,Law-Fire Open,D,M,110,Shawn Vial,,,247.5,,247.5,OR,USA,3
Single-ply,Law-Fire Open,D,M,140,Tommy Harrison,,,275,,275,IL,USA,1
Single-ply,Law-Fire Open,D,M,140,Marcus Austin,,,182.5,,182.5,OK,USA,2
Single-ply,Law-Fire Open,D,M,140+,Keoni Reich,,,310,,310,HI,USA,1
Single-ply,Law-Fire Submasters,D,M,82.5,Travis Voss,,,225,,225,IL,USA,1
Single-ply,Law-Fire Submasters,D,M,90,Nick Berriman,,,230,,230,OR,USA,1
Single-ply,Law-Fire Submasters,D,M,90,Shawn Suda,,,212.5,,212.5,NM,USA,2
Single-ply,Law-Fire Submasters,D,M,100,Chris Newton,,,272.5,,272.5,CA,USA,1
Single-ply,Law-Fire Submasters,D,M,140,Tommy Harrison,,,275,,275,IL,USA,1
Single-ply,Law-Fire Submasters,D,M,140,Marcus Austin,,,182.5,,182.5,OK,USA,2
Single-ply,Law-Fire Submasters,D,M,140+,Keoni Reich,,,310,,310,HI,USA,1
Single-ply,Law-Fire 40-47,D,M,90,Ronald W. C. Nipp,,,237.5,,237.5,HI,USA,1
Single-ply,Law-Fire 40-47,D,M,90,Barran Stone,,,232.5,,232.5,TX,USA,2
Single-ply,Law-Fire 40-47,D,M,100,Al Bianchi,,,290,,290,MA,USA,1
Single-ply,Law-Fire 40-47,D,M,100,Lance Davis,,,,,,UT,USA,DQ
Single-ply,Law-Fire 40-47,D,M,110,Troy Fryar,,,300,,300,WA,USA,1
Single-ply,Law-Fire 40-47,D,M,117.5,Craige Couture,,,237.5,,237.5,MT,USA,1
Single-ply,Law-Fire 40-47,D,M,140,Warren Orr,,,240,,240,,Canada,1
Single-ply,Law-Fire 48-55,D,M,67.5,David Edmondson,,,212.5,,212.5,UT,USA,1
Single-ply,Law-Fire 48-55,D,M,75,Larry Esquivel,,,187.5,,187.5,CA,USA,1
Single-ply,Law-Fire 48-55,D,M,90,Dan Guches,,,265,273.5,265,OR,USA,1
Single-ply,Law-Fire 48-55,D,M,90,Luis Fernando Meireles Dias,,,230,,230,,Brazil,2
Single-ply,Law-Fire 48-55,D,M,110,Zachary Clark,,,262.5,,262.5,CA,USA,1
Single-ply,Law-Fire 48-55,D,M,117.5,Ismyanto Soekardi,,,272.5,,272.5,CA,USA,1
Single-ply,Law-Fire 56-63,D,M,67.5,Gary Miller #2,,,175.5,,175.5,NV,USA,1
Single-ply,Law-Fire 56-63,D,M,82.5,Charles McFarland,,,240.5,245,240.5,OR,USA,1
Single-ply,Law-Fire 56-63,D,M,100,William Denniston,,,202.5,,202.5,MI,USA,1
Single-ply,Law-Fire 56-63,D,M,100,Ernest Stuart,,,102.5,,102.5,TX,USA,2
Single-ply,Law-Fire 56-63,D,M,110,Marvin Hollan,,,260,,260,TX,USA,1
Single-ply,Law-Fire 64+,D,M,100,Jon Wolbers,,,260,265,260,,Canada,1
Single-ply,Law-Fire 64+,D,M,100,Tom Overholtzer,,,190,,190,CA,USA,2
Single-ply,Law-Fire 64+,D,M,125,Mike Fryar,,,235,,235,WA,USA,1
Single-ply,Law-Fire 64+,D,M,140,JP Krachunis,,,105,,105,CA,USA,1
Single-ply,Law-Fire 64+,D,M,140+,Randy Patterson,,,267.5,,267.5,AZ,USA,1
Single-ply,Open,D,F,48,Cheryl Anderson,,,156,,156,MN,USA,1
Single-ply,Open,D,F,48,Colleen Loo,,,151.5,,151.5,HI,USA,2
Single-ply,Open,D,F,48,Danielle Columby,,,115,,115,AZ,USA,3
Single-ply,Open,D,F,52,Valesca Cristina Rocha,,,135,140,135,,Brazil,1
Single-ply,Open,D,F,52,Amparo Barajas,,,130,,130,TX,USA,2
Single-ply,Open,D,F,52,Tajsha Jordan,,,115,,115,AZ,USA,3
Single-ply,Open,D,F,52,Leticia Neira,,,95,,95,TX,USA,4
Single-ply,Open,D,F,56,Angela Sweet,,,132.5,,132.5,PA,USA,1
Single-ply,Open,D,F,56,Sarah Bentley,,,130,,130,MI,USA,2
Single-ply,Open,D,F,60,Ashley Carillo,,,155,,155,HI,USA,1
Single-ply,Open,D,F,60,Amanda Everhart,,,153,,153,AZ,USA,2
Single-ply,Open,D,F,60,Alecia Cook,,,151.5,,151.5,MI,USA,3
Single-ply,Open,D,F,60,Velma Panlasigui,,,140,,140,HI,USA,4
Single-ply,Open,D,F,60,Dolores Garcia-Munro,,,130,,130,CA,USA,5
Single-ply,Open,D,F,60,Dede Leinwohl,,,130,,130,CA,USA,6
Single-ply,Open,D,F,60,Stacie Wallace,,,102.5,,102.5,TX,USA,7
Single-ply,Open,D,F,67.5,Jane McCubbin,,,193,,193,WI,USA,1
Single-ply,Open,D,F,67.5,Ana Catia Portilho Couto,,,190,195,190,,Brazil,2
Single-ply,Open,D,F,67.5,Suzanne LaForge,,,167.5,,167.5,MA,USA,3
Single-ply,Open,D,F,67.5,Jeanne Watts,,,165,,165,CA,USA,4
Single-ply,Open,D,F,67.5,Elizabeth Fuentes,,,142.5,,142.5,TX,USA,5
Single-ply,Open,D,F,67.5,Debi Kesper,,,140,,140,MA,USA,6
Single-ply,Open,D,F,67.5,Jessie Adams #1,,,140,,140,IA,USA,7
Single-ply,Open,D,F,75,Cindy Shockman,,,191,,191,OR,USA,1
Single-ply,Open,D,F,75,Beverly Anolin,,,167.5,,167.5,CA,USA,2
Single-ply,Open,D,F,75,Elizabeth Couture,,,147.5,,147.5,MA,USA,3
Single-ply,Open,D,F,75,Sophia Hussary,,,142.5,,142.5,AZ,USA,4
Single-ply,Open,D,F,82.5,Jennifer Taylor,,,197.5,,197.5,OR,USA,1
Single-ply,Open,D,F,82.5,Annie Bowman,,,183,,183,WA,USA,2
Single-ply,Open,D,F,82.5,Judith Petray,,,140,,140,CA,USA,3
Single-ply,Open,D,F,82.5,Jennifer Fahrney,,,138,,138,UT,USA,4
Single-ply,Open,D,F,82.5,Rebekah Schmidt,,,,,,MN,USA,DQ
Single-ply,Open,D,F,90,Karen Campbell,,,222.5,,222.5,ME,USA,1
Single-ply,Open,D,F,90,Anna Knapski,,,186,,186,OH,USA,2
Single-ply,Open,D,F,90,Amber Wilson,,,160,,160,UT,USA,3
Single-ply,Open,D,F,90,Kayla Sua,,,160,,160,WA,USA,4
Single-ply,Open,D,F,44,Elizabeth Cabe,,,147.5,,147.5,HI,USA,1
Single-ply,Open,D,F,44,Kim Davis,,,85,,85,TX,USA,2
Single-ply,Open,D,F,90+,Kelly Riskey,,,167.5,,167.5,OR,USA,1
Single-ply,Disabled,D,F,60,Beatriz Ribeiro,,,140,,140,,Brazil,1
Single-ply,Disabled,D,F,67.5,Michelle Barclay,,,117.5,127.5,117.5,WA,USA,1
Single-ply,Teen 12-13,D,F,44,Savannah Sparkes,,,72.5,,72.5,AZ,USA,1
Single-ply,Teen 14-15,D,F,52,Eda Hnatek,,,92.5,,92.5,TX,USA,1
Single-ply,Teen 14-15,D,F,56,Pomaikai Yamaguchi,,,130,140.5,130,HI,USA,1
Single-ply,Teen 16-17,D,F,48,Angela Perez,,,80,,80,TX,USA,1
Single-ply,Teen 16-17,D,F,56,Gabriela Damasceno,,,110,,110,,Brazil,1
Single-ply,Teen 16-17,D,F,60,Alexandra Pecktol,,,140.5,,140.5,OR,USA,1
Single-ply,Teen 16-17,D,F,67.5,Loren Nunez,,,140,,140,TX,USA,1
Single-ply,Teen 16-17,D,F,90,Anna Rodriguez,,,137.5,,137.5,TX,USA,1
Single-ply,Teen 18-19,D,F,56,Brittany Flores,,,153,,153,TX,USA,1
Single-ply,Teen 18-19,D,F,56,Hannah Barnhill,,,110,,110,CA,USA,2
Single-ply,Teen 18-19,D,F,60,Alexia Trevino,,,115,122.5,115,TX,USA,1
Single-ply,Teen 18-19,D,F,67.5,Ashley Lutringer,,,135,,135,TX,USA,1
Single-ply,Teen 18-19,D,F,67.5,Sara Anguiano,,,95,,95,TX,USA,2
Single-ply,Teen 18-19,D,F,75,Dorthy Tran,,,162.5,,162.5,TX,USA,1
Single-ply,Teen 18-19,D,F,75,Melanie Mamerow,,,150,,150,TX,USA,2
Single-ply,Teen 18-19,D,F,82.5,Ashley Vasquez,,,152.5,,152.5,TX,USA,1
Single-ply,Teen 18-19,D,F,82.5,Brianna Smith,,,140,,140,TX,USA,2
Single-ply,Teen 18-19,D,F,90,Jacqueline Wickens,,,172.5,,172.5,NV,USA,1
Single-ply,Teen 18-19,D,F,90+,Regina Elizondo,,,102.5,,102.5,TX,USA,1
Single-ply,Juniors 20-25,D,F,52,Tajsha Jordan,,,115,,115,AZ,USA,1
Single-ply,Juniors 20-25,D,F,56,Petra Villegas,,,102.5,,102.5,TX,USA,1
Single-ply,Juniors 20-25,D,F,60,Ashley Carillo,,,155,,155,HI,USA,1
Single-ply,Juniors 20-25,D,F,60,Amanda Everhart,,,153,,153,AZ,USA,2
Single-ply,Juniors 20-25,D,F,60,Alecia Cook,,,151.5,,151.5,MI,USA,3
Single-ply,Juniors 20-25,D,F,60,Kimberly Phanthavong,,,137.5,,137.5,WA,USA,4
Single-ply,Juniors 20-25,D,F,60,Krystal Miller,,,130,,130,NV,USA,5
Single-ply,Juniors 20-25,D,F,67.5,Brenda Clayton,,,145,,145,WY,USA,1
Single-ply,Juniors 20-25,D,F,67.5,Natalie Caughey,,,128,,128,UT,USA,2
Single-ply,Juniors 20-25,D,F,67.5,Sofia Valdez,,,127.5,,127.5,TX,USA,3
Single-ply,Juniors 20-25,D,F,67.5,Emily Blaylock,,,120,,120,CA,USA,4
Single-ply,Juniors 20-25,D,F,67.5,Morgan Myer,,,115,,115,TX,USA,5
Single-ply,Juniors 20-25,D,F,90,Anna Knapski,,,186,,186,OH,USA,1
Single-ply,Juniors 20-25,D,F,90,Tiffany Luckett,,,165,,165,TX,USA,2
Single-ply,Juniors 20-25,D,F,90,Amber Wilson,,,160,,160,UT,USA,3
Single-ply,Juniors 20-25,D,F,90,Kayla Sua,,,160,,160,WA,USA,4
Single-ply,Juniors 20-25,D,F,90,Sady Rogers,,,113.5,,113.5,UT,USA,5
Single-ply,Submasters 33-39,D,F,56,Sarah Bentley,,,130,,130,MI,USA,1
Single-ply,Submasters 33-39,D,F,82.5,Arren Rosen,,,175,,175,ME,USA,1
Single-ply,Submasters 33-39,D,F,82.5,Alisha Howard,,,175,,175,WA,USA,2
Single-ply,Submasters 33-39,D,F,90+,Leilana McKindra,,,187.5,,187.5,OK,USA,1
Single-ply,Masters 40-46,D,F,48,Yu-Xin Hao,,,140.5,,140.5,OH,USA,1
Single-ply,Masters 40-46,D,F,52,Valesca Cristina Rocha,,,135,,135,,Brazil,1
Single-ply,Masters 40-46,D,F,56,Marla McElroy,,,137.5,,137.5,IL,USA,1
Single-ply,Masters 40-46,D,F,60,Velma Panlasigui,,,140,,140,HI,USA,1
Single-ply,Masters 40-46,D,F,60,Jody Fischer,,,137.5,,137.5,WA,USA,2
Single-ply,Masters 40-46,D,F,60,Dede Leinwohl,,,130,,130,CA,USA,3
Single-ply,Masters 40-46,D,F,67.5,Ana Catia Portilho Couto,,,190,195,190,,Brazil,1
Single-ply,Masters 40-46,D,F,67.5,Teresa Jacobs,,,167.5,,167.5,WA,USA,2
Single-ply,Masters 40-46,D,F,67.5,Joanie Porter,,,160,,160,TX,USA,3
Single-ply,Masters 40-46,D,F,67.5,Michelle Barclay,,,117.5,,117.5,WA,USA,4
Single-ply,Masters 40-46,D,F,75,Cindy Shockman,,,191,,191,OR,USA,1
Single-ply,Masters 40-46,D,F,75,Mindi Lamoreaux,,,120,,120,UT,USA,2
Single-ply,Masters 40-46,D,F,75,Melissa Benson,,,117.5,,117.5,CO,USA,3
Single-ply,Masters 40-46,D,F,82.5,Jennifer Fahrney,,,138,,138,UT,USA,1
Single-ply,Masters 40-46,D,F,44,Elizabeth Cabe,,,147.5,,147.5,HI,USA,1
Single-ply,Masters 47-53,D,F,52,Rebecca Moore,,,105,,105,WA,USA,1
Single-ply,Masters 47-53,D,F,60,Martha Godinez-Shim,,,143,,143,HI,USA,1
Single-ply,Masters 47-53,D,F,60,Alison Barnhill,,,132.5,,132.5,CA,USA,2
Single-ply,Masters 47-53,D,F,60,Dolores Garcia-Munro,,,130,,130,CA,USA,3
Single-ply,Masters 47-53,D,F,67.5,Suzanne LaForge,,,167.5,,167.5,MA,USA,1
Single-ply,Masters 47-53,D,F,67.5,Debi Kesper,,,140,,140,MA,USA,2
Single-ply,Masters 47-53,D,F,75,Beverly Anolin,,,167.5,,167.5,CA,USA,1
Single-ply,Masters 47-53,D,F,75,Josefina Jackson,,,140,,140,TX,USA,2
Single-ply,Masters 47-53,D,F,75,Iraci Fatima Fenner,,,90,,90,,Brazil,3
Single-ply,Masters 47-53,D,F,82.5,Jennifer Taylor,,,197.5,,197.5,OR,USA,1
Single-ply,Masters 47-53,D,F,82.5,Brenda Hermann,,,160,,160,WI,USA,2
Single-ply,Masters 47-53,D,F,90,Karen Campbell,,,222.5,,222.5,ME,USA,1
Single-ply,Masters 47-53,D,F,44,Vilma Aguilar,,,95,,95,CA,USA,1
Single-ply,Masters 54-60,D,F,52,Paula Laudino,,,90,,90,CA,USA,1
Single-ply,Masters 54-60,D,F,56,Sabra Callahan,,,120,,120,NV,USA,1
Single-ply,Masters 54-60,D,F,56,Karon Denniston,,,100,,100,MI,USA,2
Single-ply,Masters 54-60,D,F,67.5,Jane McCubbin,,,193,,193,WI,USA,1
Single-ply,Masters 54-60,D,F,67.5,Suzanne Greathouse,,,157.5,,157.5,WA,USA,2
Single-ply,Masters 54-60,D,F,75,Jane Stabile,,,162.5,,162.5,MA,USA,1
Single-ply,Masters 54-60,D,F,75,Nadine Huxley,,,157.5,,157.5,WA,USA,2
Single-ply,Masters 54-60,D,F,75,Laura Gonnering,,,105,,105,AL,USA,3
Single-ply,Masters 54-60,D,F,82.5,Margie Huston,,,142.5,,142.5,WA,USA,1
Single-ply,Masters 54-60,D,F,90,Marilyn Lewis,,,147.5,,147.5,WA,USA,1
Single-ply,Masters 54-60,D,F,100,Nancy Merrill,,,82.5,,82.5,AR,USA,1
Single-ply,Masters 61-67,D,F,60,Marilyn Gambardella,,,117.5,,117.5,NY,USA,1
Single-ply,Masters 61-67,D,F,67.5,Karen Harding,,,130.5,138,130.5,MA,USA,1
Single-ply,Masters 61-67,D,F,75,Marlene Wexler,,,112.5,,112.5,MN,USA,1
Single-ply,Masters 61-67,D,F,82.5,Judith Petray,,,140,,140,CA,USA,1
Single-ply,Masters 68-74,D,F,67.5,Lynn Ford,,,65,,65,CA,USA,1
Single-ply,Masters 68-74,D,F,75,Pat Robey,,,110,123.5,110,WA,USA,1
Single-ply,Masters 68-74,D,F,82.5,Gerda Shupe,,,123.5,,123.5,CA,USA,1
Single-ply,Masters 68-74,D,F,90,Winifred Pristell,,,122.5,,122.5,WA,USA,1
Single-ply,Masters 75-79,D,F,75,Joan Mike Sloan,,,75,75.5,75,NV,USA,1
Single-ply,Masters 75-79,D,F,82.5,Barbara Meraz,,,67.5,68.5,67.5,CA,USA,1
Single-ply,Masters 75-79,D,F,100,Carrie Reese,,,100,102.5,100,CA,USA,1
Single-ply,Masters 85-89,D,F,56,Dottie Ward,,,45,,45,CA,USA,1
Single-ply,Law-Fire Open,D,F,67.5,Kim Carter,,,150,,150,IL,USA,1
Single-ply,Law-Fire Open,D,F,82.5,Alisha Howard,,,175,,175,WA,USA,1
Single-ply,Law-Fire Submasters,D,F,67.5,Kim Carter,,,150,,150,IL,USA,1
