Place,Sex,Name,CyrillicName,BodyweightKg,Squat1Kg,Squat2Kg,Squat3Kg,Best3SquatKg,Squat4Kg,Bench1Kg,Bench2Kg,Bench3Kg,Best3BenchKg,Bench4Kg,Deadlift1Kg,Deadlift2Kg,Deadlift3Kg,Best3DeadliftKg,Deadlift4Kg,TotalKg,WeightClassKg,Event,Equipment,Tested,Division,Age,BirthDate
1,F,Marina Stepankina,Марина Степанкина,49.1,75,80,85,85,,40,42.5,-45,42.5,,90,-95,-95,90,,217.5,52,SBD,Raw,Yes,Open,20,1998-12-17
1,F,Ekaterina Shumilova,Екатерина Шумилова,59,90,97.5,100,100,,60,67.5,70,70,,125,140,150,150,,320,60,SBD,Raw,Yes,Open,27,1991-11-06
1,F,Olga Kurova,Ольга Курова,67,85,90,-92.5,90,,50,-55,-55,50,,105,110,115,115,,255,67.5,SBD,Raw,Yes,Open,39,1979-09-22
1,F,Natalya Cherkasova,Наталья Черкасова,71.3,115,-125,-125,115,,-57.5,57.5,62.5,62.5,,130,-142.5,142.5,142.5,,320,75,SBD,Raw,Yes,Open,42,1976-05-30
2,F,Ekaterina Nikolaeva,Екатерина Николаева,74.8,75,80,-90,80,,45,50,-55,50,,85,95,107.5,107.5,,237.5,75,SBD,Raw,Yes,Open,31,1987-10-21
1,M,Daniil Melnikov,Даниил Мельников,88.6,140,150,162.5,162.5,,-100,105,-115,105,,150,165,180,180,,447.5,90,SBD,Raw,Yes,Open,34,1985-04-04
1,M,Artem Erokhin,Артем Ерохин,99,210,222.5,-230,222.5,,150,-160,-160,150,,215,230,-257.5,230,,602.5,100,SBD,Raw,Yes,Open,29,1989-12-16
DQ,M,Evgeniy Zhiltsov,Евгений Жильцов,96.4,195,207.5,-212.5,207.5,,-170,-175,-175,,,,,,,,,100,SBD,Raw,Yes,Open,32,1986-11-14
DQ,M,Igor Alferov,Игорь Алферов,137.8,230,-240,,230,,-160,-160,-160,,,,,,,,,140,SBD,Raw,Yes,Open,43,1976-04-02
DQ,M,Gor Petrosyan,Гор Петросян,82,-95,-107.5,-107.5,,,,,,,,,,,,,,82.5,SBD,Raw,No,Open,17,2001-12-29
1,M,Sergey Lvov,Сергей Львов,88.8,175,185,190,190,,140,150,155,155,,200,215,-225,215,,560,90,SBD,Raw,No,Open,39,1979-05-05
2,M,Oleg Yakimov,Олег Якимов,87.5,150,160,165,165,,110,117.5,122.5,122.5,,180,192.5,-202.5,192.5,,480,90,SBD,Raw,No,Open,30,1989-04-04
1,M,Roman Levchuk,Роман Левчук,100,230,-240,-240,230,,140,-150,-150,140,,260,-302.5,,260,,630,100,SBD,Raw,No,Open,30,1988-10-11
1,M,Aleksey Finogenov,Алексей Финогенов,107.7,230,240,-250,240,,160,170,-175,170,,250,260,270,270,,680,110,SBD,Raw,No,Open,37,1981-07-12
1,M,Aleksey Sadikov,Алексей Садиков,119.4,170,-180,-180,170,,132.5,137.5,140,140,,-190,200,-212.5,200,,510,125,SBD,Raw,No,Open,34,1985-01-04
1,F,Kristina Sitenkova,Кристина Ситенкова,51.6,85,95,97.5,97.5,,35,40,42.5,42.5,,85,92.5,100,100,,240,52,SBD,Wraps,Yes,Open,25,1993-08-29
1,F,Natalya Medenkova,Наталья Меденкова,54.8,80,90,100,100,,45,50,-55,50,,90,100,110,110,,260,56,SBD,Wraps,Yes,Open,31,1987-10-25
1,M,Dmitriy Kozlov,Дмитрий Козлов,72.5,160,-170,175,175,,117.5,120,122.5,122.5,,190,200,205,205,,502.5,75,SBD,Wraps,Yes,Open,27,1991-10-17
2,M,Zaza Otiashvili,Заза Отиашвили,72.9,165,-172.5,-175,165,,110,120,-125,120,,-160,165,-170,165,,450,75,SBD,Wraps,Yes,Open,17,2001-05-16
1,M,Aleksandr Stepanov,Александр Степанов,97.7,190,-205,205,205,,105,-112.5,-112.5,105,,190,200,-205,200,,510,100,SBD,Wraps,Yes,Open,32,1987-04-20
1,M,Vadim Abramov,Вадим Абрамов,105.8,210,-220,-220,210,,135,140,145,145,,230,240,247.5,247.5,,602.5,110,SBD,Wraps,Yes,Open,26,1992-06-17
1,M,Nikolay Zabelin,Николай Забелин,111.1,220,-230,235,235,,155,-162.5,-162.5,155,,240,250,-252.5,250,,640,125,SBD,Wraps,Yes,Open,33,1985-05-23
1,M,Sergey Solovev #3,Сергей Соловьев,97.8,190,-200,-205,190,,120,130,135,135,,-190,190,-200,190,,515,100,SBD,Wraps,No,Open,56,1962-08-14
2,M,Oleg Konyaev,Олег Коняев,95.7,-185,185,-190,185,,-130,-130,130,130,,190,-200,-210,190,,505,100,SBD,Wraps,No,Open,26,1992-12-09
1,M,Sergey Simakov,Сергей Симаков,109.8,-280,-300,300,300,,170,180,187.5,187.5,,270,285,-290,285,,772.5,110,SBD,Wraps,No,Open,34,1984-07-21
1,M,Sergey Komrakov,Сергей Комраков,114,250,-270,-280,250,,160,170,180,180,,260,270,280,280,,710,125,SBD,Wraps,No,Open,38,1981-01-03
1,F,Svetlana Anishenkova,Светлана Анишенкова,56,,,,,,-65,65,-67.5,65,,,,,,,65,56,B,Raw,Yes,Open,13,2005-06-10
1,M,Gennadiy Mazhartsev,Геннадий Мажарцев,64.7,,,,,,115,-125,-125,115,,,,,,,115,67.5,B,Raw,Yes,Open,18,2000-05-09
1,M,Dmitriy Kozlov,Дмитрий Козлов,72.5,,,,,,117.5,120,122.5,122.5,,,,,,,122.5,75,B,Raw,Yes,Open,27,1991-10-17
2,M,Zaza Otiashvili,Заза Отиашвили,72.9,,,,,,110,120,-125,120,,,,,,,120,75,B,Raw,Yes,Open,17,2001-05-16
DQ,M,Maksim Perevoshchikov,Максим Перевощиков,71.9,,,,,,-107.5,-107.5,-107.5,,,,,,,,,75,B,Raw,Yes,Open,34,1984-05-22
1,M,Mikhail Suvorov,Михаил Суворов,79.2,,,,,,140,-150,-150,140,,,,,,,140,82.5,B,Raw,Yes,Masters 45-49,47,1971-11-15
1,M,Maksim Prokhorov,Максим Прохоров,88.4,,,,,,145,152.5,160,160,,,,,,,160,90,B,Raw,Yes,Open,25,1994-05-04
2,M,Sergey Volkov,Сергей Волков,86.5,,,,,,145,-150,150,150,,,,,,,150,90,B,Raw,Yes,Open,30,1988-12-22
3,M,Sergey Oleshko,Сергей Олешко,88.2,,,,,,145,-152.5,,145,,,,,,,145,90,B,Raw,Yes,Open,31,1987-09-17
4,M,Aleksandr Gorshkov,Александр Горшков,89.8,,,,,,-140,140,-152.5,140,,,,,,,140,90,B,Raw,Yes,Open,35,1983-12-22
5,M,Petr Radyk,Петр Радык,87.7,,,,,,125,135,-147.5,135,,,,,,,135,90,B,Raw,Yes,Open,30,1989-04-09
6,M,Sergey Sychev,Сергей Сычёв,90,,,,,,125,130,132.5,132.5,,,,,,,132.5,90,B,Raw,Yes,Open,38,1980-05-16
DQ,M,Pavel Kostikov,Павел Костиков,88.1,,,,,,-125,-125,-125,,,,,,,,,90,B,Raw,Yes,Open,28,1991-02-07
1,M,Grigoriy Berezin,Григорий Березин,96.2,,,,,,170,180,-190,180,,,,,,,180,100,B,Raw,Yes,Open,28,1991-03-08
2,M,Aleksandr Smirnov,Александр Смирнов,95.4,,,,,,125,140,-145,140,,,,,,,140,100,B,Raw,Yes,Open,24,1995-01-15
3,M,Ilya Belyakov,Илья Беляков,95.6,,,,,,115,125,-132.5,125,,,,,,,125,100,B,Raw,Yes,Open,25,1993-05-28
1,M,Sergey Vasilev,Сергей Васильев,108.1,,,,,,-162.5,-167.5,167.5,167.5,,,,,,,167.5,110,B,Raw,Yes,Open,39,1979-07-12
2,M,Evgeniy Korvin,Евгений Корвин,109.8,,,,,,150,167.5,-175,167.5,,,,,,,167.5,110,B,Raw,Yes,Open,34,1984-05-29
1,F,Ekaterina Matyukhina,Екатерина Матюхина,51.3,,,,,,65,70,-75,70,,,,,,,70,52,B,Raw,No,Open,28,1990-05-20
1,M,Gleb Kuzin,Глеб Кузин,72.4,,,,,,65,70,-75,70,,,,,,,70,75,B,Raw,No,Open,13,2005-05-27
1,M,Yuriy Lisitsyn,Юрий Лисицын,79.8,,,,,,140,-145,-145,140,,,,,,,140,82.5,B,Raw,No,Masters 40-44,41,1977-05-16
1,M,Vladislav Volchanov,Владислав Волчанов,87.2,,,,,,175,182.5,-190,182.5,,,,,,,182.5,90,B,Raw,No,Open,43,1975-10-31
2,M,Dmitriy Voronevich,Дмитрий Вороневич,88.3,,,,,,165,-175,-175,165,,,,,,,165,90,B,Raw,No,Open,29,1990-01-06
3,M,Roman Bokov,Роман Боков,87.5,,,,,,110,120,130,130,,,,,,,130,90,B,Raw,No,Open,35,1984-03-26
1,M,Dmitriy Bogdanov,Дмитрий Богданов,95.2,,,,,,160,167.5,170,170,,,,,,,170,100,B,Raw,No,Open,37,1981-08-01
2,M,Aleksandr Tatarinov,Александр Татаринов,99.5,,,,,,160,165,170,170,,,,,,,170,100,B,Raw,No,Open,29,1990-03-22
3,M,Maksim Veselov,Максим Веселов,97.5,,,,,,150,160,165,165,,,,,,,165,100,B,Raw,No,Open,37,1981-08-10
4,M,Dmitriy Tamaev,Дмитрий Тамаев,96.5,,,,,,140,-150,155,155,,,,,,,155,100,B,Raw,No,Open,33,1985-07-06
1,M,Aleksey Strulev,Алексей Струлев,99.3,,,,,,155,162.5,167.5,167.5,,,,,,,167.5,100,B,Raw,No,Masters 45-49,48,1971-03-19
1,M,Maksim Bystrov,Максим Быстров,109.7,,,,,,200,-215,-215,200,,,,,,,200,110,B,Raw,No,Open,38,1981-02-21
2,M,Nodar Tsutskiridze,Нодар Цуцкиридзе,105,,,,,,180,190,,190,,,,,,,190,110,B,Raw,No,Open,42,1976-09-14
3,M,Dmitriy Ageev,Дмитрий Агеев,108.7,,,,,,167.5,-175,-175,167.5,,,,,,,167.5,110,B,Raw,No,Open,30,1989-01-30
1,M,Nodar Tsutskiridze,Нодар Цуцкиридзе,105,,,,,,180,190,,190,,,,,,,190,110,B,Raw,No,Masters 40-44,42,1976-09-14
1,M,Vladimir Popov,Владимир Попов,114,,,,,,200,210,-215,210,,,,,,,210,125,B,Multi-ply,Yes,Masters 60-64,63,1956-02-26
DQ,F,Kristina Zotova,Кристина Зотова,55.8,,,,,,,,,,,-110,-110,-110,,,,56,D,Raw,Yes,Open,23,1995-08-16
1,M,Dmitriy Kozlov,Дмитрий Козлов,72.5,,,,,,,,,,,190,200,205,205,,205,75,D,Raw,Yes,Open,27,1991-10-17
1,M,Vadim Dyachenko,Вадим Дьяченко,87.2,,,,,,,,,,,250,262.5,272.5,272.5,,272.5,90,D,Raw,Yes,Open,37,1981-10-16
2,M,Dmitriy Drozdov,Дмитрий Дроздов,90,,,,,,,,,,,200,210,220,220,,220,90,D,Raw,Yes,Open,38,1980-09-24
3,M,Maksim Privalov,Максим Привалов,87.9,,,,,,,,,,,190,202.5,-205,202.5,,202.5,90,D,Raw,Yes,Open,32,1986-11-03
1,M,Vladimir Luzin,Владимир Лузин,95.4,,,,,,,,,,,185,210,-220,210,,210,100,D,Raw,Yes,Open,31,1987-10-27
2,M,Maksim Pyatkovskiy,Максим Пятковский,96.7,,,,,,,,,,,190,200,210,210,,210,100,D,Raw,Yes,Open,36,1983-02-07
3,M,Pavel Konstantinov,Павел Константинов,97.2,,,,,,,,,,,185,210,-220,210,,210,100,D,Raw,Yes,Open,19,2000-04-03
1,M,Vadim Abramov,Вадим Абрамов,105.8,,,,,,,,,,,230,240,247.5,247.5,,247.5,110,D,Raw,Yes,Open,26,1992-06-17
1,M,Aleksandr Strunkin,Александр Стрункин,73.2,,,,,,,,,,,210,220,-230,220,,220,75,D,Raw,No,Open,34,1984-10-20
1,M,Roman Levchuk,Роман Левчук,100,,,,,,,,,,,260,-302.5,,260,,260,100,D,Raw,No,Open,30,1988-10-11
2,M,Maksim Veselov,Максим Веселов,97.5,,,,,,,,,,,-235,235,-245,235,,235,100,D,Raw,No,Open,37,1981-08-10
1,M,Sergey Simakov,Сергей Симаков,109.8,,,,,,,,,,,270,285,-290,285,,285,110,D,Raw,No,Open,34,1984-07-21
2,M,Dmitriy Ageev,Дмитрий Агеев,108.7,,,,,,,,,,,-240,-252.5,255,255,,255,110,D,Raw,No,Open,30,1989-01-30
