Sex,Name,CyrillicName,Place,BodyweightKg,Deadlift1Kg,Deadlift2Kg,Deadlift3Kg,Best3DeadliftKg,Deadlift4Kg,TotalKg,WeightClassKg,Event,Equipment,Tested,Bench1Kg,Bench2Kg,Bench3Kg,Best3BenchKg,Bench4Kg,Squat1Kg,Squat2Kg,Squat3Kg,Best3SquatKg,Squat4Kg,Division,Age,BirthDate
F,Marina Klimas,Марина Климас,1,66.3,130,140,145,145,,145,67.5,D,Single-ply,No,,,,,,,,,,,Pro Open,45,1973-04-06
F,Marina Klimas,Марина Климас,1,66.3,130,140,145,145,,145,67.5,D,Single-ply,No,,,,,,,,,,,Pro Masters 45-49,45,1973-04-06
F,Anastasiya Belyaeva,Анастасия Беляева,1,47.55,102.5,107.5,,107.5,,107.5,48,D,Raw,No,,,,,,,,,,,Pro Open,26,1991-12-03
F,Natalya Lesnyakova,Наталья Леснякова,2,46.9,92.5,95,100,100,,100,48,D,Raw,No,,,,,,,,,,,Pro Open,33,1984-12-10
F,Elena Ivanova,Елена Иванова,1,55.95,110,-115,-115,110,,110,56,D,Raw,No,,,,,,,,,,,Pro Open,37,1981-01-03
F,Alyona Sokolova,Алёна Соколова,2,55.85,95,102.5,105,105,,105,56,D,Raw,No,,,,,,,,,,,Pro Open,27,1991-09-01
F,Marina Kornienkova,Марина Корниенкова,1,66.65,120,130,-140,130,,130,67.5,D,Raw,No,,,,,,,,,,,Pro Juniors 20-23,21,1996-12-16
F,Siranush Papikyan,Сирануш Папикян,1,65.4,130,150,-157.5,150,,150,67.5,D,Raw,No,,,,,,,,,,,Pro Open,24,1994-04-02
F,Valentina Stashevskaya,Валентина Сташевская,1,70.95,145,-155,-155,145,,145,75,D,Raw,No,,,,,,,,,,,Pro Open,32,1985-12-27
M,Vitaliy Grachev,Виталий Грачев,1,64.9,130,150,175,175,,175,67.5,D,Raw,No,,,,,,,,,,,Pro Juniors 20-23,21,1997-02-01
M,Valeriy Merkulov,Валерий Меркулов,1,64,175,190,195,195,,195,67.5,D,Raw,No,,,,,,,,,,,Pro Masters 45-49,49,1969-01-30
M,Daniil Samoylov,Даниил Самойлов,1,73.8,150,170,177.5,177.5,,177.5,75,D,Raw,No,,,,,,,,,,,Pro Teen 16-17,17,2001-08-13
M,Vladislav Chokheli,Владислав Чохели,1,71.65,140,160,170,170,,170,75,D,Raw,No,,,,,,,,,,,Pro Teen 18-19,18,2000-06-24
M,Aleksey Borisov,Алексей Борисов,1,73.1,125,145,155,155,,155,75,D,Raw,No,,,,,,,,,,,Pro Open,31,1987-01-22
M,Igor Zhandarov,Игорь Жандаров,1,80.55,-177.5,185,-192.5,185,,185,82.5,D,Raw,No,,,,,,,,,,,Pro Juniors 20-23,20,1998-03-11
M,Danil Dolzhenkov,Данил Долженков,1,86.2,185,195,207.5,207.5,,207.5,90,D,Raw,No,,,,,,,,,,,Pro Teen 16-17,17,2000-11-27
M,Vyacheslav Guskov,Вячеслав Гуськов,1,85.1,175,195,210,210,,210,90,D,Raw,No,,,,,,,,,,,Pro Teen 18-19,18,2000-06-03
M,Roman Bokk,Роман Бокк,1,88.85,185,205,222.5,222.5,,222.5,90,D,Raw,No,,,,,,,,,,,Pro Masters 40-44,41,1977-07-29
M,Evgeniy Lavrentev,Евгений Лаврентьев,1,98.5,240,255,-270,255,,255,100,D,Raw,No,,,,,,,,,,,Pro Open,28,1990-07-09
M,Dmitriy Zhandarov,Дмитрий Жандаров,2,98.95,-202.5,202.5,,202.5,,202.5,100,D,Raw,No,,,,,,,,,,,Pro Open,24,1994-05-22
M,Vladimir Konopatskiy,Владимир Конопацкий,1,109.35,245,265,-280,265,,265,110,D,Raw,No,,,,,,,,,,,Pro Open,45,1973-08-06
M,Vladimir Konopatskiy,Владимир Конопацкий,1,109.35,245,265,-280,265,,265,110,D,Raw,No,,,,,,,,,,,Pro Masters 45-49,45,1973-08-06
M,Dmitriy Levin,Дмитрий Левин,1,122.05,200,215,225,225,,225,125,D,Raw,No,,,,,,,,,,,Pro Open,39,1979-06-17
F,Yana Broslavskaya,Яна Брославская,1,37.75,60,65,70,70,,70,44,D,Raw,No,,,,,,,,,,,Pro Youth,12,2006-03-26
M,Aleksey Zenin,Алексей Зенин,1,83.4,230,250,-265,250,,250,90,D,Raw,No,,,,,,,,,,,Pro Open,31,1986-10-22
M,Valeriy Fadeev,Валерий Фадеев,1,94.85,180,,,180,,180,100,D,Raw,No,,,,,,,,,,,Pro Masters 60-64,63,1955-09-11
M,Yuriy Demyanchuk,Юрий Демьянчук,1,127.6,280,300,315,315,,315,140,D,Raw,No,,,,,,,,,,,Pro Masters 40-44,40,1978-10-03
F,Elena Ivanova,Елена Иванова,1,55.95,,,,,,65,56,B,Unlimited,No,-65,65,-70,65,,,,,,,Pro Open,37,1981-01-03
F,Siranush Papikyan,Сирануш Папикян,DQ,65.4,,,,,,,67.5,B,Unlimited,No,-105,-105,-105,,,,,,,,Pro Open,24,1994-04-02
M,Maksim Abdiev,Максим Абдиев,1,51.9,,,,,,162.5,52,B,Unlimited,No,140,150,162.5,162.5,,,,,,,Pro Juniors 20-23,22,1996-06-24
M,Dmitiy Kurkin,Дмитий Куркин,1,66.5,,,,,,142.5,67.5,B,Unlimited,No,142.5,-165,-165,142.5,,,,,,,Pro Teen 16-17,17,2001-03-27
M,Vladimir Makushin,Владимир Макушин,1,71.65,,,,,,220,75,B,Unlimited,No,-220,-220,220,220,,,,,,,Pro Open,28,1990-02-28
M,Igor Overchenko,Игорь Оверченко,2,74.9,,,,,,190,75,B,Unlimited,No,190,-212.5,-212.5,190,,,,,,,Pro Open,26,1992-06-30
M,Aleksandr Andreev,Александр Андреев,3,75,,,,,,190,75,B,Unlimited,No,190,-205,-212.5,190,,,,,,,Pro Open,26,1992-06-05
M,Sergey Chichkin,Сергей Чичкин,4,68.8,,,,,,160,75,B,Unlimited,No,160,,,160,,,,,,,Pro Open,26,1992-07-15
M,Matvey Klimenko,Матвей Клименко,1,81,,,,,,185,82.5,B,Unlimited,No,185,-200,-200,185,,,,,,,Pro Juniors 20-23,20,1998-08-28
M,Aleksey Nebykov,Алексей Небыков,1,81.45,,,,,,230,82.5,B,Unlimited,No,220,-230,230,230,,,,,,,Pro Open,52,1966-03-19
M,Pavel Karpukhin,Павел Карпухин,1,90,,,,,,240,90,B,Unlimited,No,220,230,240,240,,,,,,,Pro Open,31,1987-10-16
M,Ilya Aliev,Илья Алиев,2,88.3,,,,,,185,90,B,Unlimited,No,185,-200,,185,,,,,,,Pro Open,28,1989-12-15
M,Azizdzhon Azimov,Азизджон Азимов,1,96.2,,,,,,175,100,B,Unlimited,No,150,160,175,175,,,,,,,Pro Juniors 20-23,23,1995-10-15
M,Evgeniy Lavrentev,Евгений Лаврентьев,1,98.5,,,,,,267.5,100,B,Unlimited,No,250,267.5,-282.5,267.5,,,,,,,Pro Open,28,1990-07-09
F,Tatyana Kalinina,Татьяна Калинина,1,48,,,,,,60,48,B,Single-ply,No,60,-65,-65,60,,,,,,,Pro Open,29,1989-06-09
M,Maksim Omelyanenko,Максим Омельяненко,1,89.95,,,,,,160,90,B,Single-ply,No,160,-175,-175,160,,,,,,,Pro Open,27,1991-06-29
F,Alena Yamolova,Алена Ямолова,1,47.4,,,,,,35,48,B,Raw,No,35,-45,-45,35,,,,,,,Pro Teen 16-17,17,2000-11-02
F,Tatyana Kalinina,Татьяна Калинина,1,48,,,,,,47.5,48,B,Raw,No,42.5,47.5,-52.5,47.5,,,,,,,Pro Open,29,1989-06-09
F,Anastasiya Belyaeva,Анастасия Беляева,2,47.55,,,,,,37.5,48,B,Raw,No,37.5,-40,-40,37.5,,,,,,,Pro Open,26,1991-12-03
F,Valentina Stashevskaya,Валентина Сташевская,1,70.95,,,,,,80,75,B,Raw,No,75,80,-85,80,,,,,,,Pro Open,32,1985-12-27
M,Maksim Abdiev,Максим Абдиев,1,51.9,,,,,,127.5,52,B,Raw,No,110,120,127.5,127.5,,,,,,,Pro Juniors 20-23,22,1996-06-24
M,Vitaliy Grachev,Виталий Грачев,1,64.9,,,,,,70,67.5,B,Raw,No,70,-90,-90,70,,,,,,,Pro Juniors 20-23,21,1997-02-01
M,Andrey Stepanov,Андрей Степанов,1,65.9,,,,,,112.5,67.5,B,Raw,No,-110,112.5,-120,112.5,,,,,,,Pro Open,24,1993-11-29
M,Aleksey Pronin,Алексей Пронин,DQ,66.15,,,,,,,67.5,B,Raw,No,-110,-110,-110,,,,,,,,Pro Open,28,1990-01-04
M,Kirill Tselogorodtsev,Кирилл Целогородцев,1,73.95,,,,,,92.5,75,B,Raw,No,-87.5,87.5,92.5,92.5,,,,,,,Pro Teen 16-17,17,2001-05-11
M,Vladislav Chokheli,Владислав Чохели,1,71.65,,,,,,95,75,B,Raw,No,90,95,-100,95,,,,,,,Pro Teen 18-19,18,2000-06-24
M,Vitaliy Krasilnikov,Виталий Красильников,1,73.8,,,,,,140,75,B,Raw,No,140,-155,-155,140,,,,,,,Pro Open,37,1981-05-08
M,Dmitriy Naumov,Дмитрий Наумов,2,72.1,,,,,,107.5,75,B,Raw,No,107.5,-112.5,-117.5,107.5,,,,,,,Pro Open,26,1992-05-22
M,Dmitriy Shumilov,Дмитрий Шумилов,1,81.85,,,,,,110,82.5,B,Raw,No,100,110,-115,110,,,,,,,Pro Teen 16-17,16,2002-10-20
M,Kirill Eliseev,Кирилл Елисеев,1,80.8,,,,,,127.5,82.5,B,Raw,No,120,127.5,-135,127.5,,,,,,,Pro Juniors 20-23,20,1998-10-15
M,Radik Farvazdinov,Радик Фарваздинов,1,78.9,,,,,,145,82.5,B,Raw,No,140,145,-150,145,,,,,,,Pro Open,24,1994-08-29
M,Egor Emelyanov,Егор Емельянов,1,89.7,,,,,,155,90,B,Raw,No,155,-165,-165,155,,,,,,,Pro Juniors 20-23,23,1995-08-01
M,Pavel Karpukhin,Павел Карпухин,1,90,,,,,,170,90,B,Raw,No,160,170,-177.5,170,,,,,,,Pro Open,31,1987-10-16
M,Evgeniy Degtyarev,Евгений Дегтярев,2,86.25,,,,,,165,90,B,Raw,No,160,165,-170,165,,,,,,,Pro Open,31,1987-01-15
M,Dmitriy Borisov,Дмитрий Борисов,3,88.9,,,,,,160,90,B,Raw,No,152.5,157.5,160,160,,,,,,,Pro Open,32,1986-07-07
M,Andrey Chuvashov,Андрей Чувашов,DQ,89.6,,,,,,,90,B,Raw,No,-120,-120,-132.5,,,,,,,,Pro Open,30,1988-05-21
M,Dmitriy Zhandarov,Дмитрий Жандаров,1,98.95,,,,,,147.5,100,B,Raw,No,135,140,147.5,147.5,,,,,,,Pro Open,24,1994-05-22
M,Vladimir Adamov,Владимир Адамов,1,109,,,,,,185,110,B,Raw,No,175,185,-195,185,,,,,,,Pro Open,32,1986-04-25
M,Dmitiy Kurkin,Дмитий Куркин,1,66.5,150,170,-175,170,,425,67.5,SBD,Raw,No,90,105,-110,105,,-150,-150,150,150,,Pro Teen 16-17,17,2001-03-27
F,Ekaterina Gorbunova,Екатерина Горбунова,1,48,102.5,107.5,-112.5,107.5,,240,48,SBD,Raw,No,52.5,55,-57.5,55,,-75,77.5,-80,77.5,,Pro Juniors 20-23,20,1997-10-23
M,Ilya Spiridonov,Илья Спиридонов,1,56.6,100,115,120,120,,270,60,SBD,Raw,No,50,-60,-60,50,,75,-95,100,100,,Pro Teen 13-15,15,2003-02-21
M,Vagram Mkhitaryan,Ваграм Мхитарян,1,66.35,135,150,155,155,,400,67.5,SBD,Raw,No,110,-115,-115,110,,135,-145,-145,135,,Pro Open,26,1992-03-01
M,Viktor Karpov,Виктор Карпов,1,73.45,140,150,155,155,,402.5,75,SBD,Raw,No,95,100,107.5,107.5,,130,140,-145,140,,Pro Open,28,1990-09-08
M,Daniil Morozov,Даниил Морозов,2,73.55,120,130,142.5,142.5,,337.5,75,SBD,Raw,No,70,90,-92.5,90,,80,90,105,105,,Pro Open,24,1994-03-01
M,Yaroslav Klimanov,Ярослав Климанов,1,81.4,210,-220,220,220,,555,82.5,SBD,Raw,No,130,135,-140,135,,190,200,-205,200,,Pro Open,27,1991-03-04
M,Dmitriy Kartsev,Дмитрий Карцев,DQ,82.1,-175,,,,,,82.5,SBD,Raw,No,-110,,,,,,,,,,Pro Open,31,1987-01-29
M,Roman Dubrovin,Роман Дубровин,DQ,88.2,-150,,,,,,90,SBD,Raw,No,-100,-100,-100,,,140,150,-160,150,,Pro Open,38,1980-07-21
M,Nikolay Utenkov,Николай Утенков,1,136.6,180,192.5,200,200,,520,140,SBD,Raw,No,130,135,137.5,137.5,,170,177.5,182.5,182.5,,Pro Masters 50-54,51,1967-06-07
F,Marina Cherneva,Марина Чернева,1,73.4,,,,,,95,75,B,Unlimited,No,90,95,-100,95,,,,,,,Pro Masters 45-49,48,1970-09-27
M,Aleksandr Kanaev,Александр Канаев,1,117.7,,,,,,342.5,125,B,Unlimited,No,335,342.5,-352.5,342.5,,,,,,,Pro Open,30,1988-08-06
M,Sharof Azimov,Шароф Азимов,1,118,,,,,,290,125,B,Unlimited,No,270,290,-305,290,,,,,,,Pro Masters 45-49,46,1972-10-15
M,Yuriy Demyanchuk,Юрий Демьянчук,DQ,127.6,,,,,,,140,B,Unlimited,No,-290,-310,,,,,,,,,Pro Masters 40-44,40,1978-10-03
M,Sergey Korneev,Сергей Корнеев,1,74.2,,,,,,150,75,B,Single-ply,No,150,-160,-160,150,,,,,,,Pro Open,32,1986-08-29
F,Yana Broslavskaya,Яна Брославская,1,37.75,,,,,,22.5,44,B,Raw,No,22.5,-27.5,-27.5,22.5,,,,,,,Pro Youth,12,2006-03-26
F,Elena Lyakh,Елена Лях,1,55.5,,,,,,62.5,56,B,Raw,No,60,62.5,-65,62.5,,,,,,,Pro Open,42,1976-05-13
F,Ekaterina Varivtseva,Екатерина Варивцева,1,57.9,,,,,,50,60,B,Raw,No,45,-50,50,50,,,,,,,Pro Open,32,1985-11-17
F,Marina Cherneva,Марина Чернева,1,73.4,,,,,,75,75,B,Raw,No,70,75,-77.5,75,,,,,,,Pro Masters 45-49,48,1970-09-27
M,Sharaf Azimov,Шараф Азимов,1,40.6,,,,,,30,52,B,Raw,No,25,27.5,30,30,,,,,,,Pro Youth,11,2007-05-10
M,Stepan Shakhmut,Степан Шахмуть,1,52.65,,,,,,40,56,B,Raw,No,37.5,40,-42.5,40,,,,,,,Pro Youth,12,2006-01-01
M,German Egorov,Герман Егоров,1,54.55,,,,,,72.5,56,B,Raw,No,62.5,65,72.5,72.5,,,,,,,Pro Teen 16-17,17,2001-04-23
M,Evgeniy Shirokikh,Евгений Широких,1,52.5,,,,,,72.5,56,B,Raw,No,65,70,72.5,72.5,,,,,,,Pro Open,38,1980-01-08
M,Egor Kudryashov,Егор Кудряшов,1,58.2,,,,,,70,60,B,Raw,No,62.5,65,70,70,,,,,,,Pro Teen 13-15,15,2003-07-11
M,Vladimir Skripachev,Владимир Скрипачев,1,67.2,,,,,,120,67.5,B,Raw,No,115,120,-125,120,,,,,,,Pro Open,24,1994-02-03
M,Dmitriy Lavrukhin,Дмитрий Лаврухин,1,71.5,,,,,,65,75,B,Raw,No,60,62.5,65,65,,,,,,,Pro Teen 13-15,13,2004-11-27
M,Denis Kasyanov,Денис Касьянов,1,81.65,,,,,,95,82.5,B,Raw,No,90,92.5,95,95,,,,,,,Pro Teen 13-15,15,2003-06-26
M,Valentin Kozlov,Валентин Козлов,1,75.8,,,,,,85,82.5,B,Raw,No,77.5,82.5,85,85,-87.5,,,,,,Pro Masters 75-79,75,1943-08-08
M,Rafail Zaripov,Рафаиль Зарипов,1,89.85,,,,,,130,90,B,Raw,No,117.5,122.5,130,130,,,,,,,Pro Teen 16-17,17,2001-04-16
M,Sergey Khamov,Сергей Хамов,1,84.6,,,,,,160,90,B,Raw,No,145,152.5,160,160,,,,,,,Pro Teen 18-19,19,1998-12-03
M,Yuriy Bondarenko,Юрий Бондаренко,1,87.85,,,,,,170,90,B,Raw,No,160,170,-180,170,,,,,,,Pro Juniors 20-23,20,1997-10-24
M,Daniil Kovalenko,Даниил Коваленко,1,87.3,,,,,,135,90,B,Raw,No,120,127.5,135,135,,,,,,,Pro Open,26,1992-04-24
M,Igor Samsonov,Игорь Самсонов,1,88.15,,,,,,165,90,B,Raw,No,160,165,-170,165,,,,,,,Pro Masters 45-49,49,1969-03-23
M,Denis Sharabarov,Денис Шарабаров,1,97.3,,,,,,137.5,100,B,Raw,No,127.5,132.5,137.5,137.5,,,,,,,Pro Teen 16-17,17,2001-05-08
M,Ivan Trishin,Иван Тришин,1,97.45,,,,,,177.5,100,B,Raw,No,160,170,177.5,177.5,,,,,,,Pro Juniors 20-23,21,1997-10-05
M,Andrey Utkin,Андрей Уткин,1,98.9,,,,,,200,100,B,Raw,No,200,-210,-210,200,,,,,,,Pro Open,41,1976-12-21
M,Sergey Etrivanov,Сергей Етриванов,2,99.7,,,,,,170,100,B,Raw,No,170,-180,-185,170,,,,,,,Pro Open,37,1981-01-26
M,Yuriy Zhoglo,Юрий Жогло,3,98.45,,,,,,165,100,B,Raw,No,-145,155,165,165,,,,,,,Pro Open,28,1990-04-29
M,Zaur Khalykov,Заур Халыков,1,106.95,,,,,,155,110,B,Raw,No,145,155,-160,155,,,,,,,Pro Open,35,1983-06-09
F,Larisa Potemkina,Лариса Потемкина,1,54.2,80,90,100,100,,205,56,SBD,Raw,No,30,35,40,40,,55,65,-72.5,65,,Pro Open,41,1976-12-21
M,Mikhail Koptev,Михаил Коптев,1,105,260,280,-290,280,,710,110,SBD,Raw,No,140,150,-160,150,,260,280,-290,280,,Pro Open,27,1991-06-17
M,Egor Presnyakov,Егор Пресняков,1,58.35,100,112.5,-117.5,112.5,,275,60,SBD,Raw,No,55,57.5,-60,57.5,,90,-100,105,105,,Pro Teen 13-15,13,2004-11-10
M,Aleksey Kutukov,Алексей Кутуков,1,98.15,230,250,-260,250,,645,100,SBD,Raw,No,170,175,-180,175,,210,220,-240,220,,Pro Open,36,1982-08-01
