Tested,Equipment,Place,Name,Division,BirthYear,Country,BodyweightKg,Squat1Kg,Squat2Kg,Squat3Kg,Best3SquatKg,Bench1Kg,Bench2Kg,Bench3Kg,Best3BenchKg,Bench4Kg,Deadlift1Kg,Deadlift2Kg,Deadlift3Kg,Best3DeadliftKg,Deadlift4Kg,TotalKg,WeightClassKg,Sex,CyrillicName,Event
Yes,Wraps,1,Tatyana Dedyulya,Amateur Open,1986,Russia,47.90,50.0,57.5,62.5,62.5,27.5,-32.5,-32.5,27.5,,65.0,72.5,-77.5,72.5,,162.5,48,F,Татьяна Дедюля,SBD
Yes,Wraps,1,Lyudmila Zhumaniyazova,Amateur Juniors 20-23,1993,Russia,50.30,65.0,70.0,77.5,77.5,35.0,40.0,-47.5,40.0,,-75.0,80.0,95.0,95.0,,212.5,52,F,Людмила Жуманиязова,SBD
Yes,Wraps,1,Yuliya Makhankova,Amateur Open,1984,Russia,48.70,60.0,67.5,75.0,75.0,32.5,37.5,40.0,40.0,,75.0,85.0,100.0,100.0,,215.0,52,F,Юлия Маханкова,SBD
Yes,Wraps,1,Alina Sizhuk,Amateur Juniors 20-23,1994,Russia,55.45,-70.0,70.0,85.0,85.0,35.0,-40.0,-42.5,35.0,,90.0,100.0,115.0,115.0,,235.0,56,F,Алина Сижук,SBD
Yes,Wraps,DQ,Lyubov Marochenko,Amateur Juniors 20-23,1996,Russia,55.15,-120.0,,,,,,,,,,,,,,,56,F,Любовь Мароченко,SBD
Yes,Wraps,1,Kseniya Burchenkova,Amateur Open,1992,Russia,55.20,80.0,90.0,95.0,95.0,45.0,50.0,-52.5,50.0,,100.0,-115.0,-115.0,100.0,,245.0,56,F,Ксения Бурченкова,SBD
Yes,Wraps,1,Yuliya Kurdyukova,Amateur Juniors 20-23,1993,Russia,59.65,60.0,70.0,80.0,80.0,30.0,35.0,-40.0,35.0,,70.0,85.0,97.5,97.5,,212.5,60,F,Юлия Курдюкова,SBD
Yes,Wraps,1,Ekaterina Savchenko,Amateur Open,1991,Russia,59.85,80.0,90.0,-100.0,90.0,45.0,50.0,-52.5,50.0,,-90.0,90.0,-100.0,90.0,,230.0,60,F,Екатерина Савченко,SBD
Yes,Wraps,1,Irina Shishkovskaya,Amateur Masters 40-44,1973,Russia,59.30,75.0,80.0,90.0,90.0,50.0,52.5,-55.0,52.5,,100.0,110.0,-115.0,110.0,,252.5,60,F,Ирина Шишковская,SBD
Yes,Wraps,1,Tatyana Tulysheva,Amateur Open,1983,Russia,65.45,80.0,90.0,100.0,100.0,55.0,60.0,-65.0,60.0,,80.0,90.0,100.0,100.0,,260.0,67.5,F,Татьяна Тулышева,SBD
Yes,Wraps,1,Evgeniya Chekanova,Amateur Masters 40-44,1972,Russia,64.00,80.0,95.0,-107.5,95.0,67.5,-72.5,-75.0,67.5,,110.0,120.0,125.0,125.0,,287.5,67.5,F,Евгения Чеканова,SBD
Yes,Wraps,1,Natalya Kistkina,Amateur Masters 40-44,1975,Russia,71.50,70.0,75.0,80.0,80.0,52.5,55.0,-57.5,55.0,,90.0,-100.0,100.0,100.0,,235.0,75,F,Наталья Кисткина,SBD
Yes,Wraps,1,Andrey Petukhov,Amateur Teen 13-15,2001,Russia,48.20,80.0,85.0,95.0,95.0,60.0,65.0,-67.5,65.0,,110.0,117.5,125.0,125.0,,285.0,52,M,Андрей Петухов,SBD
Yes,Wraps,1,Aleksey Veshkurtsev,Amateur Open,1981,Russia,51.65,122.5,-127.5,127.5,127.5,90.0,-95.0,-95.0,90.0,,160.0,170.0,175.0,175.0,,392.5,52,M,Алексей Вешкурцев,SBD
Yes,Wraps,1,Konstantin Misyuk,Amateur Teen 16-17,1999,Russia,65.65,125.0,135.0,-140.0,135.0,97.5,102.5,105.0,105.0,,125.0,135.0,-142.5,135.0,,375.0,67.5,M,Константин Мисюк,SBD
Yes,Wraps,1,Aleksey Komarov,Amateur Teen 18-19,1998,Russia,61.30,130.0,140.0,-145.0,140.0,75.0,82.5,85.0,85.0,,-140.0,150.0,152.5,152.5,,377.5,67.5,M,Алексей Комаров,SBD
Yes,Wraps,1,Konstantin Pinigin,Amateur Open,1988,Russia,67.25,120.0,130.0,135.0,135.0,-100.0,100.0,-105.0,100.0,,140.0,150.0,160.0,160.0,,395.0,67.5,M,Константин Пинигин,SBD
Yes,Wraps,1,Vigen Aruryunyan,Amateur Juniors 20-23,1995,Russia,73.70,160.0,170.0,180.0,180.0,125.0,132.5,137.5,137.5,,200.0,215.0,225.0,225.0,,542.5,75,M,Виген Арурюнян,SBD
Yes,Wraps,1,Kostas Telidis,Amateur Open,1989,Russia,74.65,210.0,-220.0,220.0,220.0,150.0,-157.5,157.5,157.5,,220.0,-230.0,230.0,230.0,,607.5,75,M,Костас Телидис,SBD
Yes,Wraps,2,Vitaliy Anichkin,Amateur Open,1976,Russia,74.10,160.0,170.0,177.5,177.5,120.0,-127.5,127.5,127.5,,185.0,200.0,-210.0,200.0,,505.0,75,M,Виталий Аничкин,SBD
Yes,Wraps,3,Artem Rudenko,Amateur Open,1986,Russia,73.10,120.0,135.0,142.5,142.5,107.5,115.0,-117.5,115.0,,160.0,175.0,182.5,182.5,,440.0,75,M,Артем Руденко,SBD
Yes,Wraps,1,Vadim Valchenko,Amateur Teen 16-17,1999,Russia,75.10,-120.0,130.0,-135.0,130.0,75.0,-80.0,-80.0,75.0,,135.0,145.0,150.0,150.0,,355.0,82.5,M,Вадим Вальченко,SBD
Yes,Wraps,DQ,Vladislav Sokolov,Amateur Teen 16-17,2000,Russia,78.40,130.0,140.0,-150.0,140.0,-70.0,-80.0,-80.0,,,,,,,,,82.5,M,Владислав Соколов,SBD
Yes,Wraps,DQ,Anton Butorin,Amateur Teen 16-17,1999,Russia,81.20,-130.0,-135.0,-135.0,,,,,,,,,,,,,82.5,M,Антон Буторин,SBD
Yes,Wraps,1,Aleksey Shkarin,Amateur Open,1982,Russia,82.00,-200.0,-200.0,205.0,205.0,130.0,135.0,-137.5,135.0,,-225.0,230.0,-250.0,230.0,,570.0,82.5,M,Алексей Шкарин,SBD
Yes,Wraps,2,Ruslan Korostylev,Amateur Open,1991,Russia,78.95,-145.0,150.0,-160.0,150.0,-120.0,120.0,-125.0,120.0,,190.0,-200.0,-200.0,190.0,,460.0,82.5,M,Руслан Коростылев,SBD
Yes,Wraps,1,Vlas Unchikov,Amateur Open,1988,Russia,83.45,-170.0,170.0,180.0,180.0,120.0,130.0,-135.0,130.0,,180.0,190.0,200.0,200.0,,510.0,90,M,Влас Унчиков,SBD
Yes,Wraps,1,Rafik Ogannisyan,Amateur Open,1980,Russia,98.25,200.0,210.0,-215.0,210.0,182.5,-187.5,-187.5,182.5,,220.0,-230.0,,220.0,,612.5,100,M,Рафик Оганнисян,SBD
Yes,Wraps,DQ,Roman Mungalov,Amateur Masters 40-44,1976,Russia,95.50,-190.0,-190.0,-190.0,,,,,,,,,,,,,100,M,Роман Мунгалов,SBD
Yes,Wraps,1,Arbi Israilov,Amateur Masters 45-49,1968,Russia,109.80,140.0,-150.0,150.0,150.0,120.0,130.0,,130.0,,180.0,200.0,215.0,215.0,,495.0,110,M,Арби Исраилов,SBD
Yes,Single-ply,1,Yuliya Vakhterova,Amateur Open,1980,Russia,47.50,137.5,142.5,150.0,150.0,75.0,-80.0,-82.5,75.0,,140.0,147.5,152.5,152.5,,377.5,48,F,Юлия Вахтерова,SBD
Yes,Single-ply,1,Svetlana Tokareva,Amateur Open,1991,Russia,49.80,-100.0,100.0,105.0,105.0,50.0,55.0,60.0,60.0,,95.0,105.0,110.0,110.0,,275.0,52,F,Светлана Токарева,SBD
Yes,Single-ply,1,Lyubov Marochenko,Amateur Juniors 20-23,1996,Russia,55.15,110.0,117.5,125.0,125.0,50.0,57.5,60.0,60.0,,125.0,135.0,-140.0,135.0,,320.0,56,F,Любовь Мароченко,SBD
Yes,Single-ply,1,Elena Paneva,Amateur Open,1992,Russia,52.20,-80.0,80.0,90.0,90.0,35.0,40.0,-50.0,40.0,,85.0,90.0,95.0,95.0,,225.0,56,F,Елена Панева,SBD
Yes,Single-ply,1,Elena Cherepanova,Amateur Teen 18-19,1997,Russia,58.50,120.0,-140.0,-142.5,120.0,50.0,-60.0,-60.0,50.0,,120.0,-130.0,130.0,130.0,,300.0,60,F,Елена Черепанова,SBD
Yes,Single-ply,1,Kostas Telidis,Amateur Open,1989,Russia,74.65,265.0,280.0,287.5,287.5,225.0,235.0,242.5,242.5,,245.0,260.5,265.0,265.0,,795.0,75,M,Костас Телидис,SBD
Yes,Single-ply,1,Evgeniy Vdovin,Amateur Open,1979,Russia,81.10,195.0,205.0,-210.0,205.0,130.0,-135.0,135.0,135.0,,205.0,-210.0,210.0,210.0,,550.0,82.5,M,Евгений Вдовин,SBD
Yes,Single-ply,1,Dmitriy Pecherevin,Amateur Teen 18-19,1997,Russia,96.50,245.0,255.0,262.5,262.5,140.0,147.5,-152.5,147.5,,-240.0,240.0,-267.5,240.0,,650.0,100,M,Дмитрий Печеревин,SBD
No,Wraps,1,Aleksandr Sysoenko,Pro Teen 18-19,1996,Russia,81.65,160.0,175.0,185.0,185.0,140.0,-150.0,-150.0,140.0,,180.0,195.0,205.0,205.0,,530.0,82.5,M,Александр Сысоенко,SBD
No,Wraps,1,Ivan Troyanov,Pro Open,1987,Russia,81.60,230.0,-237.5,,230.0,175.0,182.5,-187.5,182.5,,257.5,265.0,-272.5,265.0,,677.5,82.5,M,Иван Троянов,SBD
No,Wraps,2,Aleksandr Sysoenko,Pro Open,1996,Russia,81.65,160.0,175.0,185.0,185.0,140.0,-150.0,-150.0,140.0,,180.0,195.0,205.0,205.0,,530.0,82.5,M,Александр Сысоенко,SBD
No,Wraps,1,Leonid Kilchanskiy,Pro Masters 50-54,1966,Russia,77.95,130.0,140.0,-150.0,140.0,85.0,-90.0,-90.0,85.0,,140.0,150.0,-155.0,150.0,,375.0,82.5,M,Леонид Кильчанский,SBD
No,Wraps,1,Aleksandr Smirnov,Pro Open,1987,Russia,89.85,200.0,215.0,225.0,225.0,190.0,-195.0,-200.0,190.0,,260.0,275.0,290.0,290.0,,705.0,90,M,Александр Смирнов,SBD
No,Wraps,2,Ilya Maltsev,Pro Open,1978,Russia,89.70,215.0,225.0,-230.0,225.0,165.0,-170.0,-170.0,165.0,,235.0,-245.0,,235.0,,625.0,90,M,Илья Мальцев,SBD
No,Wraps,DQ,Pavel Bagrov,Pro Open,1991,Russia,88.20,-200.0,-210.0,-210.0,,,,,,,,,,,,,90,M,Павел Багров,SBD
No,Wraps,1,Oleg Layter,Pro Masters 40-44,1974,Russia,88.60,180.0,190.0,200.0,200.0,155.0,165.0,-170.0,165.0,,200.0,215.0,225.0,225.0,,590.0,90,M,Олег Лайтер,SBD
No,Wraps,1,Aleksey Rogozin,Pro Open,1991,Russia,98.60,-225.0,235.0,-242.5,235.0,170.0,180.0,-187.5,180.0,,230.0,240.0,-245.0,240.0,,655.0,100,M,Алексей Рогозин,SBD
No,Wraps,2,Vladislav Skuratov,Pro Open,1989,Russia,97.50,-225.0,-225.0,225.0,225.0,-162.5,162.5,170.0,170.0,,235.0,-247.5,250.0,250.0,,645.0,100,M,Владислав Скуратов,SBD
No,Wraps,1,Igor Luzin,Pro Masters 45-49,1969,Russia,94.80,200.0,210.0,215.0,215.0,140.0,147.5,150.0,150.0,,200.0,210.0,220.0,220.0,,585.0,100,M,Игорь Лузин,SBD
No,Wraps,1,Yuriy Shantsyn,Pro Masters 65-69,1949,Russia,107.20,140.0,152.5,160.0,160.0,120.0,127.5,132.5,132.5,,180.0,190.0,200.0,200.0,,492.5,110,M,Юрий Шанцын,SBD
No,Single-ply,1,Denis Urmanov,Pro Open,1980,Russia,73.25,-315.0,-320.0,320.0,320.0,190.0,-197.5,-197.5,190.0,,270.0,-297.5,-297.5,270.0,,780.0,75,M,Денис Урманов,SBD
No,Single-ply,2,Oleg Solonenko,Pro Open,1970,Russia,74.90,210.0,220.0,230.0,230.0,160.0,165.0,170.0,170.0,,220.0,230.0,242.5,242.5,,642.5,75,M,Олег Солоненко,SBD
No,Single-ply,1,Oleg Solonenko,Pro Masters 45-49,1970,Russia,74.90,210.0,220.0,230.0,230.0,160.0,165.0,170.0,170.0,,220.0,230.0,242.5,242.5,,642.5,75,M,Олег Солоненко,SBD
No,Single-ply,1,Aleksandr Gulyaev,Pro Open,1980,Russia,88.75,320.0,335.0,345.0,345.0,220.0,230.0,-240.0,230.0,,305.0,320.0,330.0,330.0,,905.0,90,M,Александр Гуляев,SBD
No,Single-ply,2,Vitaliy Dolgov,Pro Open,1984,Russia,89.60,-250.0,260.0,280.0,280.0,170.0,185.0,-192.5,185.0,,210.0,235.0,-237.5,235.0,,700.0,90,M,Виталий Долгов,SBD
No,Single-ply,1,Elisey Belets,Pro Open,1986,Russia,98.15,300.0,-315.0,,300.0,190.0,-200.0,,190.0,,250.0,260.0,,260.0,,750.0,100,M,Елисей Белец,SBD
No,Single-ply,2,Roman Fedorov,Pro Open,1980,Russia,95.65,-245.0,-250.0,250.0,250.0,185.0,190.0,-195.0,190.0,,265.0,-275.0,-275.0,265.0,,705.0,100,M,Роман Федоров,SBD
No,Single-ply,1,Ivan Boyko,Pro Open,1986,Russia,116.80,340.0,-352.5,,340.0,230.0,240.0,245.0,245.0,,280.0,300.0,-312.5,300.0,,885.0,125,M,Иван Бойко,SBD
No,Single-ply,2,Vladimir Tarasov,Pro Open,1991,Russia,120.50,350.0,365.0,-375.0,365.0,-220.0,230.0,240.0,240.0,,270.0,-290.0,-292.5,270.0,,875.0,125,M,Владимир Тарасов,SBD
No,Single-ply,DQ,Ramig Nuruev,Pro Open,1984,Russia,125.00,350.0,-365.0,367.5,367.5,-297.5,-297.5,-301.0,,,,,,,,,125,M,Рамиг Нуруев,SBD
Yes,Raw,1,Natalya Chernobaeva,Amateur Juniors 20-23,1993,Russia,42.50,,,,,35.0,-40.0,-40.0,35.0,,,,,,,35.0,44,F,Наталья Чернобаева,B
Yes,Raw,1,Ekaterina Kosykh,Amateur Juniors 20-23,1994,Russia,46.40,,,,,37.5,40.0,-42.5,40.0,,,,,,,40.0,48,F,Екатерина Косых,B
Yes,Raw,1,Olga Shishkina,Amateur Open,1985,Russia,47.85,,,,,-37.5,40.0,-42.5,40.0,,,,,,,40.0,48,F,Ольга Шишкина,B
Yes,Raw,1,Yuliya Dvinina,Amateur Juniors 20-23,1994,Russia,51.70,,,,,32.5,35.0,-40.0,35.0,,,,,,,35.0,52,F,Юлия Двинина,B
Yes,Raw,1,Kristina Orekhova,Amateur Open,1989,Russia,50.65,,,,,52.5,57.5,60.0,60.0,,,,,,,60.0,52,F,Кристина Орехова,B
Yes,Raw,2,Mariya Romanchenko,Amateur Open,1988,Russia,51.70,,,,,50.0,-55.0,-55.0,50.0,,,,,,,50.0,52,F,Мария Романченко,B
Yes,Raw,1,Kristina Nechupey,Amateur Juniors 20-23,1992,Russia,55.90,,,,,45.0,-50.0,-50.0,45.0,,,,,,,45.0,56,F,Кристина Нечупей,B
Yes,Raw,1,Aleksandra Kirilyuk,Amateur Open,1987,Russia,55.15,,,,,50.0,55.0,-57.5,55.0,,,,,,,55.0,56,F,Александра Кирилюк,B
Yes,Raw,1,Alina Ryzhova,Amateur Juniors 20-23,1996,Russia,56.75,,,,,55.0,57.5,-62.5,57.5,,,,,,,57.5,60,F,Алина Рыжова,B
Yes,Raw,1,Ekaterina Galochka,Amateur Open,1987,Russia,59.80,,,,,80.0,85.0,,85.0,,,,,,,85.0,60,F,Екатерина Галочка,B
Yes,Raw,2,Kseniya Glinkina,Amateur Open,1988,Russia,59.00,,,,,-52.5,-52.5,52.5,52.5,,,,,,,52.5,60,F,Ксения Глинкина,B
Yes,Raw,1,Yuliya Tyutereva,Amateur Open,1980,Russia,67.50,,,,,75.0,80.0,85.0,85.0,,,,,,,85.0,67.5,F,Юлия Тютерева,B
Yes,Raw,2,Viktoriya Blotskaya,Amateur Open,1985,Russia,65.70,,,,,72.5,75.0,77.5,77.5,,,,,,,77.5,67.5,F,Виктория Блоцкая,B
Yes,Raw,3,Polina Boyarova,Amateur Open,1991,Russia,65.50,,,,,65.0,-67.5,-67.5,65.0,,,,,,,65.0,67.5,F,Полина Боярова,B
Yes,Raw,1,Evgeniya Chekanova,Amateur Masters 40-44,1972,Russia,64.00,,,,,67.5,-72.5,-72.5,67.5,,,,,,,67.5,67.5,F,Евгения Чеканова,B
Yes,Raw,1,Kirill Shaposhnikov,Amateur Teen 16-17,1998,Russia,50.00,,,,,90.0,-95.0,-95.0,90.0,,,,,,,90.0,52,M,Кирилл Шапошников,B
Yes,Raw,1,Aleksey Veshkurtsev,Amateur Open,1981,Russia,51.65,,,,,85.0,90.0,,90.0,,,,,,,90.0,52,M,Алексей Вешкурцев,B
Yes,Raw,1,Aleksey Yakushev,Amateur Teen 18-19,1998,Russia,57.70,,,,,80.0,-85.0,85.0,85.0,,,,,,,85.0,60,M,Алексей Якушев,B
Yes,Raw,1,Vadim Surikov,Amateur Teen 18-19,1997,Russia,66.10,,,,,100.0,107.5,-110.0,107.5,,,,,,,107.5,67.5,M,Вадим Суриков,B
Yes,Raw,1,Aleksandr Maschenko,Amateur Juniors 20-23,1996,Russia,66.40,,,,,117.5,120.0,-125.0,120.0,,,,,,,120.0,67.5,M,Александр Мащенко,B
Yes,Raw,1,Konstantin Pinigin,Amateur Open,1988,Russia,67.25,,,,,-107.5,107.5,-110.0,107.5,,,,,,,107.5,67.5,M,Константин Пинигин,B
Yes,Raw,1,Aleksandr Gribanov,Amateur Masters 40-44,1976,Russia,65.60,,,,,95.0,100.0,105.0,105.0,,,,,,,105.0,67.5,M,Александр Грибанов,B
Yes,Raw,1,Daniil Moseev,Amateur Teen 13-15,2000,Russia,71.15,,,,,100.0,-105.0,-105.0,100.0,,,,,,,100.0,75,M,Даниил Мосеев,B
Yes,Raw,1,Artem Zabelin,Amateur Juniors 20-23,1992,Russia,72.95,,,,,100.0,110.0,117.5,117.5,,,,,,,117.5,75,M,Артем Забелин,B
Yes,Raw,1,Eduard Makhota,Amateur Open,1983,Russia,70.20,,,,,150.0,157.5,-160.0,157.5,,,,,,,157.5,75,M,Эдуард Махота,B
Yes,Raw,2,Roman Kim,Amateur Open,1980,Russia,74.30,,,,,150.0,-155.0,,150.0,,,,,,,150.0,75,M,Роман Ким,B
Yes,Raw,3,Mikhail Pak,Amateur Open,1991,Russia,74.95,,,,,-130.0,130.0,-135.0,130.0,,,,,,,130.0,75,M,Михаил Пак,B
Yes,Raw,1,Artem Vanty,Amateur Teen 13-15,2003,Russia,80.95,,,,,60.0,65.0,-70.0,65.0,,,,,,,65.0,82.5,M,Артем Ванты,B
Yes,Raw,1,Sergey Semenov,Amateur Teen 18-19,1996,Russia,81.95,,,,,140.0,150.0,155.0,155.0,,,,,,,155.0,82.5,M,Сергей Семенов,B
Yes,Raw,1,Sergey Semenov,Amateur Open,1996,Russia,81.95,,,,,140.0,150.0,155.0,155.0,,,,,,,155.0,82.5,M,Сергей Семенов,B
Yes,Raw,2,Sergey Klatik,Amateur Open,1955,Russia,80.55,,,,,130.0,142.5,147.5,147.5,,,,,,,147.5,82.5,M,Сергей Клатик,B
Yes,Raw,3,Vasiliy Krupkin,Amateur Open,1983,Russia,81.00,,,,,110.0,-120.0,-120.0,110.0,,,,,,,110.0,82.5,M,Василий Крупкин,B
Yes,Raw,1,Aleksey Shtukin,Amateur Masters 40-44,1972,Russia,81.45,,,,,140.0,145.0,-147.5,145.0,,,,,,,145.0,82.5,M,Алексей Штукин,B
Yes,Raw,2,Andrey Elenskiy,Amateur Masters 40-44,1972,Russia,79.20,,,,,100.0,110.0,-120.0,110.0,,,,,,,110.0,82.5,M,Андрей Еленский,B
Yes,Raw,1,Sergey Klatik,Amateur Masters 60-64,1955,Russia,80.55,,,,,130.0,142.5,147.5,147.5,-148.0,,,,,,147.5,82.5,M,Сергей Клатик,B
Yes,Raw,1,Maksim Kondratyuk,Amateur Teen 16-17,1999,Russia,85.55,,,,,95.0,-102.5,-105.0,95.0,,,,,,,95.0,90,M,Максим Кондратюк,B
Yes,Raw,1,Vladimir Strelnikov,Amateur Open,1974,Russia,88.75,,,,,165.0,175.0,-177.5,175.0,,,,,,,175.0,90,M,Владимир Стрельников,B
Yes,Raw,1,Vladimir Strelnikov,Amateur Masters 40-44,1974,Russia,88.75,,,,,165.0,175.0,-177.5,175.0,,,,,,,175.0,90,M,Владимир Стрельников,B
Yes,Raw,DQ,Anton Shnyagin,Amateur Juniors 20-23,1992,Russia,95.80,,,,,-140.0,-140.0,,,,,,,,,,100,M,Антон Шнягин,B
Yes,Raw,1,Vyacheslav Ten,Amateur Open,1987,Russia,99.30,,,,,185.0,192.5,-197.5,192.5,,,,,,,192.5,100,M,Вячеслав Тен,B
Yes,Raw,2,Viktor Skorokhod,Amateur Open,1987,Russia,97.75,,,,,155.0,162.5,165.0,165.0,,,,,,,165.0,100,M,Виктор Скороход,B
Yes,Raw,3,Sergey Sidorenko,Amateur Open,1988,Russia,96.85,,,,,162.5,-175.0,-175.0,162.5,,,,,,,162.5,100,M,Сергей Сидоренко,B
Yes,Raw,4,Aleksandr Moseev,Amateur Open,1975,Russia,98.15,,,,,150.0,155.0,-162.5,155.0,,,,,,,155.0,100,M,Александр Мосеев,B
Yes,Raw,5,Aleksandr Khromov,Amateur Open,1982,Russia,99.80,,,,,155.0,-162.5,-162.5,155.0,,,,,,,155.0,100,M,Александр Хромов,B
Yes,Raw,6,Aleksey Vanyashev,Amateur Open,1981,Russia,95.80,,,,,137.5,142.5,-152.5,142.5,,,,,,,142.5,100,M,Алексей Ваняшев,B
Yes,Raw,1,Aleksandr Moseev,Amateur Masters 40-44,1975,Russia,98.15,,,,,150.0,155.0,-162.5,155.0,,,,,,,155.0,100,M,Александр Мосеев,B
Yes,Raw,1,Pavel Evseenko,Amateur Masters 45-49,1970,Russia,98.55,,,,,150.0,155.0,-157.5,155.0,,,,,,,155.0,100,M,Павел Евсеенко,B
Yes,Raw,1,Sergey Katanaev,Amateur Masters 60-64,1952,Russia,91.30,,,,,110.0,-115.0,,110.0,,,,,,,110.0,100,M,Сергей Катанаев,B
Yes,Raw,1,Vyacheslav Popravko,Amateur Open,1991,Russia,105.30,,,,,150.0,-160.0,167.5,167.5,,,,,,,167.5,110,M,Вячеслав Поправко,B
Yes,Raw,2,Konstantin Kolosov,Amateur Open,1960,Russia,100.70,,,,,145.0,155.0,-160.0,155.0,,,,,,,155.0,110,M,Константин Колосов,B
Yes,Raw,1,Vasiliy Ostanin,Amateur Masters 40-44,1974,Russia,109.20,,,,,160.0,-167.5,,160.0,,,,,,,160.0,110,M,Василий Останин,B
Yes,Raw,1,Arbi Israilov,Amateur Masters 45-49,1968,Russia,109.80,,,,,125.0,132.5,-137.5,132.5,,,,,,,132.5,110,M,Арби Исраилов,B
Yes,Raw,1,Konstantin Kolosov,Amateur Masters 55-59,1960,Russia,100.70,,,,,145.0,155.0,-160.0,155.0,,,,,,,155.0,110,M,Константин Колосов,B
Yes,Raw,1,Dmitriy Makarov,Amateur Open,1981,Russia,124.50,,,,,155.0,-160.0,-160.0,155.0,,,,,,,155.0,125,M,Дмитрий Макаров,B
Yes,Raw,2,Semen Shischenko,Amateur Open,1984,Russia,114.00,,,,,135.0,-140.0,-140.0,135.0,,,,,,,135.0,125,M,Семен Шищенко,B
Yes,Single-ply,DQ,Yuliya Vakhterova,Amateur Open,1980,Russia,47.70,,,,,-75.0,,,,,,,,,,,48,F,Юлия Вахтерова,B
Yes,Single-ply,1,Darya Toropova,Amateur Open,1991,Russia,53.45,,,,,50.0,60.0,65.0,65.0,,,,,,,65.0,56,F,Дарья Торопова,B
Yes,Single-ply,1,Kostas Telidis,Amateur Open,1989,Russia,74.65,,,,,-230.0,237.5,-242.5,237.5,,,,,,,237.5,75,M,Костас Телидис,B
Yes,Single-ply,1,Roman Svinarchuk,Amateur Open,1982,Russia,89.15,,,,,150.0,-157.5,-160.0,150.0,,,,,,,150.0,90,M,Роман Свинарчук,B
Yes,Single-ply,DQ,Dmitriy Gumirov,Amateur Open,1978,Russia,89.40,,,,,-200.0,-200.0,-200.0,,,,,,,,,90,M,Дмитрий Гумиров,B
Yes,Single-ply,1,Aleksey Shimchuk,Amateur Masters 40-44,1973,Russia,89.00,,,,,140.0,150.0,160.0,160.0,,,,,,,160.0,90,M,Алексей Шимчук,B
Yes,Multi-ply,1,Kostas Telidis,Amateur Open,1989,Russia,74.65,,,,,235.0,247.5,,247.5,,,,,,,247.5,75,M,Костас Телидис,B
No,Raw,1,Elena Kan,Pro Open,1975,Russia,58.65,,,,,70.0,72.5,-75.0,72.5,,,,,,,72.5,60,F,Елена Кан,B
No,Raw,2,Kseniya Shishkina,Pro Open,1989,Russia,57.10,,,,,40.0,45.0,-50.0,45.0,,,,,,,45.0,60,F,Ксения Шишкина,B
No,Raw,1,Elena Kan,Pro Masters 40-44,1975,Russia,58.65,,,,,70.0,72.5,-75.0,72.5,,,,,,,72.5,60,F,Елена Кан,B
No,Raw,1,Elena Martynenko,Pro Open,1981,Russia,66.35,,,,,107.5,112.5,-117.5,112.5,,,,,,,112.5,67.5,F,Елена Мартыненко,B
No,Raw,1,Uulu Kozhokul,Pro Juniors 20-23,1994,Russia,55.50,,,,,70.0,75.0,80.0,80.0,,,,,,,80.0,56,M,Уулу Кожокул,B
No,Raw,1,Vyet-Khong Nguen,Pro Open,1990,Russia,63.35,,,,,90.0,-100.0,-100.0,90.0,,,,,,,90.0,67.5,M,Вьет-Хонг Нгуен,B
No,Raw,1,Arseniy Rogozin,Pro Teen 16-17,1999,Russia,69.30,,,,,135.0,140.0,-145.0,140.0,,,,,,,140.0,75,M,Арсений Рогозин,B
No,Raw,1,Oleg Solonenko,Pro Open,1970,Russia,74.90,,,,,130.0,135.0,-140.0,135.0,,,,,,,135.0,75,M,Олег Солоненко,B
No,Raw,1,Oleg Solonenko,Pro Masters 45-49,1970,Russia,74.90,,,,,130.0,135.0,-140.0,135.0,,,,,,,135.0,75,M,Олег Солоненко,B
No,Raw,1,Nail Faizov,Pro Masters 75-79,1941,Russia,68.80,,,,,-50.0,55.0,62.5,62.5,,,,,,,62.5,75,M,Наиль Фаизов,B
No,Raw,1,Aleksandr Raevskiy,Pro Open,1983,Russia,78.55,,,,,160.0,170.0,175.0,175.0,,,,,,,175.0,82.5,M,Александр Раевский,B
No,Raw,2,Sergey Fedorov #1,Pro Open,1962,Russia,79.35,,,,,160.0,-165.0,-165.0,160.0,,,,,,,160.0,82.5,M,Сергей Федоров,B
No,Raw,3,Yuriy Ukhanov,Pro Open,1983,Russia,81.90,,,,,140.0,150.0,-155.0,150.0,,,,,,,150.0,82.5,M,Юрий Уханов,B
No,Raw,4,Aleksandr Tsmyg,Pro Open,1963,Russia,80.95,,,,,135.0,140.0,142.5,142.5,,,,,,,142.5,82.5,M,Александр Цмыг,B
No,Raw,1,Andrey Schur,Pro Masters 40-44,1973,Russia,78.60,,,,,160.0,-170.0,-170.0,160.0,,,,,,,160.0,82.5,M,Андрей Щур,B
No,Raw,1,Sergey Fedorov #1,Pro Masters 50-54,1962,Russia,79.35,,,,,160.0,-165.0,-165.0,160.0,,,,,,,160.0,82.5,M,Сергей Федоров,B
No,Raw,2,Aleksandr Tsmyg,Pro Masters 50-54,1963,Russia,80.95,,,,,135.0,140.0,142.5,142.5,,,,,,,142.5,82.5,M,Александр Цмыг,B
No,Raw,1,Sergey Kultashov,Pro Open,1979,Russia,89.70,,,,,220.0,-240.0,-240.0,220.0,,,,,,,220.0,90,M,Сергей Култашов,B
No,Raw,2,Ivan Pavlov,Pro Open,1991,Russia,87.15,,,,,170.0,180.0,-182.5,180.0,,,,,,,180.0,90,M,Иван Павлов,B
No,Raw,3,Igor Shamro,Pro Open,1984,Russia,88.60,,,,,170.0,177.5,180.0,180.0,,,,,,,180.0,90,M,Игорь Шамро,B
No,Raw,4,Albert Arkhvava,Pro Open,1989,Russia,89.00,,,,,175.0,180.0,-185.0,180.0,,,,,,,180.0,90,M,Альберт Архвава,B
No,Raw,5,Aleksandr Shabanov,Pro Open,1992,Russia,89.40,,,,,170.0,-177.5,-182.5,170.0,,,,,,,170.0,90,M,Александр Шабанов,B
No,Raw,6,Aleksandr Vereschagin,Pro Open,1987,Russia,89.20,,,,,160.0,-165.0,-165.0,160.0,,,,,,,160.0,90,M,Александр Верещагин,B
No,Raw,7,Pavel Ivanichev,Pro Open,1984,Russia,88.10,,,,,147.5,152.5,-157.5,152.5,,,,,,,152.5,90,M,Павел Иваничев,B
No,Raw,1,Ilya Surkov,Pro Juniors 20-23,1994,Russia,99.65,,,,,180.0,190.0,197.5,197.5,,,,,,,197.5,100,M,Илья Сурков,B
No,Raw,1,Vasiliy Fedyaev,Pro Open,1982,Russia,99.55,,,,,240.0,-250.0,,240.0,,,,,,,240.0,100,M,Василий Федяев,B
No,Raw,2,Grigor Avetisyan,Pro Open,1989,Russia,97.20,,,,,190.0,197.5,-205.0,197.5,,,,,,,197.5,100,M,Григор Аветисян,B
No,Raw,3,Ilya Orlov,Pro Open,1998,Russia,99.70,,,,,170.0,-180.0,-180.0,170.0,,,,,,,170.0,100,M,Илья Орлов,B
No,Raw,4,Dmitriy Gritsaenko,Pro Open,1979,Russia,96.30,,,,,162.5,167.5,-170.0,167.5,,,,,,,167.5,100,M,Дмитрий Грицаенко,B
No,Raw,5,Maksim Govorkov,Pro Open,1987,Russia,98.90,,,,,150.0,-160.0,-165.0,150.0,,,,,,,150.0,100,M,Максим Говорков,B
No,Raw,1,Pavel Zverev,Pro Masters 40-44,1975,Russia,97.90,,,,,200.0,210.0,-215.0,210.0,,,,,,,210.0,100,M,Павел Зверев,B
No,Raw,1,Eduard Buslenko,Pro Masters 45-49,1971,Russia,98.40,,,,,165.0,170.0,-175.0,170.0,,,,,,,170.0,100,M,Эдуард Бусленко,B
No,Raw,1,Artem Ivanov,Pro Juniors 20-23,1993,Russia,107.50,,,,,157.5,165.0,170.0,170.0,,,,,,,170.0,110,M,Артем Иванов,B
No,Raw,1,Aleksey Pavlikov,Pro Open,1982,Russia,104.40,,,,,205.0,210.0,-215.0,210.0,,,,,,,210.0,110,M,Алексей Павликов,B
No,Raw,2,Mikhail Grechukha,Pro Open,1968,Russia,106.20,,,,,207.5,-217.5,-217.5,207.5,,,,,,,207.5,110,M,Михаил Гречуха,B
No,Raw,3,German Veledeev,Pro Open,1969,Russia,108.95,,,,,205.0,-210.0,-210.0,205.0,,,,,,,205.0,110,M,Герман Веледеев,B
No,Raw,1,Mikhail Grechukha,Pro Masters 45-49,1968,Russia,106.20,,,,,207.5,-217.5,-217.5,207.5,,,,,,,207.5,110,M,Михаил Гречуха,B
No,Raw,2,German Veledeev,Pro Masters 45-49,1969,Russia,108.95,,,,,205.0,-210.0,-210.0,205.0,,,,,,,205.0,110,M,Герман Веледеев,B
No,Raw,1,Evgeniy Smirnov,Pro Juniors 20-23,1994,Russia,113.70,,,,,165.0,-180.0,-180.0,165.0,,,,,,,165.0,125,M,Евгений Смирнов,B
No,Raw,1,Grigoriy Primak,Pro Open,1978,Russia,122.70,,,,,220.0,232.5,-235.0,232.5,,,,,,,232.5,125,M,Григорий Примак,B
No,Raw,2,Andrey Vorontsov,Pro Open,1969,Russia,111.80,,,,,210.0,-215.0,-215.0,210.0,,,,,,,210.0,125,M,Андрей Воронцов,B
No,Raw,3,Mikhail Chernyuk,Pro Open,1972,Russia,120.20,,,,,200.0,-205.0,,200.0,,,,,,,200.0,125,M,Михаил Чернюк,B
No,Raw,1,Mikhail Chernyuk,Pro Masters 40-44,1972,Russia,120.20,,,,,200.0,-205.0,,200.0,,,,,,,200.0,125,M,Михаил Чернюк,B
No,Raw,1,Andrey Vorontsov,Pro Masters 45-49,1969,Russia,111.80,,,,,210.0,-215.0,-215.0,210.0,,,,,,,210.0,125,M,Андрей Воронцов,B
No,Raw,2,Andrey Kaekhtin,Pro Masters 45-49,1968,Russia,116.40,,,,,185.0,-190.0,,185.0,,,,,,,185.0,125,M,Андрей Каехтин,B
No,Raw,1,Alexander Kovalevsky,Pro Open,1963,Russia,139.70,,,,,220.0,-230.0,-230.0,220.0,,,,,,,220.0,140,M,Александр Ковалевский,B
No,Raw,1,Alexander Kovalevsky,Pro Masters 50-54,1963,Russia,139.70,,,,,220.0,-230.0,-230.0,220.0,,,,,,,220.0,140,M,Александр Ковалевский,B
No,Single-ply,1,Oleg Solonenko,Pro Open,1970,Russia,74.90,,,,,165.0,170.0,175.0,175.0,,,,,,,175.0,75,M,Олег Солоненко,B
No,Single-ply,1,Oleg Solonenko,Pro Masters 45-49,1970,Russia,74.90,,,,,165.0,170.0,175.0,175.0,,,,,,,175.0,75,M,Олег Солоненко,B
No,Single-ply,1,Konstantin Semenov,Pro Masters 50-54,1964,Russia,74.50,,,,,150.0,155.0,-160.0,155.0,,,,,,,155.0,75,M,Константин Семенов,B
No,Single-ply,1,Andrey Schur,Pro Open,1973,Russia,78.60,,,,,180.0,-185.0,,180.0,,,,,,,180.0,82.5,M,Андрей Щур,B
No,Single-ply,1,Andrey Schur,Pro Masters 40-44,1973,Russia,78.60,,,,,180.0,-185.0,,180.0,,,,,,,180.0,82.5,M,Андрей Щур,B
No,Single-ply,1,Mikhail Shirokov,Pro Teen 16-17,1999,Russia,95.55,,,,,-135.0,135.0,140.0,140.0,,,,,,,140.0,100,M,Михаил Широков,B
No,Single-ply,1,Aleksey Goryan,Pro Open,1982,Russia,100.00,,,,,265.0,-275.0,-275.0,265.0,,,,,,,265.0,100,M,Алексей Горян,B
No,Single-ply,2,Pavel Strepetilov,Pro Open,1982,Russia,98.30,,,,,175.0,182.5,190.0,190.0,,,,,,,190.0,100,M,Павел Стрепетилов,B
No,Single-ply,3,Mikhail Rostovtsev,Pro Open,1957,Russia,93.85,,,,,-180.0,180.0,-190.0,180.0,,,,,,,180.0,100,M,Михаил Ростовцев,B
No,Single-ply,1,Artem Fedorov,Pro Masters 40-44,1972,Russia,100.00,,,,,212.5,220.0,-225.0,220.0,,,,,,,220.0,100,M,Артем Федоров,B
No,Single-ply,2,Sergey Kazakov,Pro Masters 40-44,1973,Russia,100.00,,,,,165.0,175.0,-185.0,175.0,,,,,,,175.0,100,M,Сергей Казаков,B
No,Single-ply,1,Mikhail Rostovtsev,Pro Masters 55-59,1957,Russia,93.85,,,,,-180.0,180.0,-190.0,180.0,,,,,,,180.0,100,M,Михаил Ростовцев,B
No,Single-ply,1,Ramig Nuruev,Pro Open,1984,Russia,125.00,,,,,280.0,290.0,-300.0,290.0,,,,,,,290.0,125,M,Рамиг Нуруев,B
No,Multi-ply,1,Artem Shudrenko,Pro Open,1983,Russia,117.90,,,,,190.0,-200.0,-200.0,190.0,,,,,,,190.0,125,M,Артём Шудренко,B
Yes,Raw,1,Tatyana Dedyulya,Amateur Open,1986,Russia,47.90,,,,,,,,,,67.5,75.0,-80.0,75.0,,75.0,48,F,Татьяна Дедюля,D
Yes,Raw,1,Kristina Orekhova,Amateur Open,1989,Russia,50.65,,,,,,,,,,105.0,-115.0,115.0,115.0,,115.0,52,F,Кристина Орехова,D
Yes,Raw,2,Evgeniya Karagioz,Amateur Open,1990,Russia,50.45,,,,,,,,,,65.0,75.0,87.5,87.5,,87.5,52,F,Евгения Карагиоз,D
Yes,Raw,1,Lyubov Kuzmina #1,Amateur Teen 18-19,1996,Russia,52.65,,,,,,,,,,85.0,90.0,95.0,95.0,,95.0,56,F,Любовь Кузмина,D
Yes,Raw,1,Tatyana Kashtanova,Amateur Open,1985,Russia,55.60,,,,,,,,,,122.5,132.5,140.0,140.0,,140.0,56,F,Татьяна Каштанова,D
Yes,Raw,2,Olga Blinova,Amateur Open,1990,Russia,54.20,,,,,,,,,,70.0,80.0,-92.5,80.0,,80.0,56,F,Ольга Блинова,D
Yes,Raw,1,Anastasiya Makarova #3,Amateur Juniors 20-23,1994,Russia,57.70,,,,,,,,,,60.0,70.0,-80.0,70.0,,70.0,60,F,Анастасия Макарова,D
Yes,Raw,1,Ekaterina Galochka,Amateur Open,1987,Russia,59.80,,,,,,,,,,162.5,170.0,-175.0,170.0,,170.0,60,F,Екатерина Галочка,D
Yes,Raw,1,Anastasiya Kondratyuk,Amateur Open,1989,Russia,66.45,,,,,,,,,,120.0,135.0,-140.0,135.0,,135.0,67.5,F,Анастасия Кондратюк,D
Yes,Raw,2,Polina Boyarova,Amateur Open,1991,Russia,65.50,,,,,,,,,,110.0,117.5,120.0,120.0,,120.0,67.5,F,Полина Боярова,D
Yes,Raw,1,Evgeniya Chekanova,Amateur Masters 40-44,1972,Russia,64.00,,,,,,,,,,110.0,120.0,127.5,127.5,,127.5,67.5,F,Евгения Чеканова,D
Yes,Raw,1,Natalya Kistkina,Amateur Masters 40-44,1975,Russia,71.50,,,,,,,,,,90.0,-95.0,,90.0,,90.0,75,F,Наталья Кисткина,D
Yes,Raw,1,Andrey Petukhov,Amateur Teen 13-15,2001,Russia,48.20,,,,,,,,,,110.0,117.5,125.0,125.0,,125.0,52,M,Андрей Петухов,D
Yes,Raw,1,Aleksey Veshkurtsev,Amateur Open,1981,Russia,51.65,,,,,,,,,,160.0,175.0,180.0,180.0,,180.0,52,M,Алексей Вешкурцев,D
Yes,Raw,1,Aleksey Yakushev,Amateur Teen 18-19,1998,Russia,57.70,,,,,,,,,,145.0,155.0,-165.0,155.0,,155.0,60,M,Алексей Якушев,D
Yes,Raw,1,Aleksey Kotov,Amateur Open,1987,Russia,72.90,,,,,,,,,,-195.0,202.5,207.5,207.5,,207.5,75,M,Алексей Котов,D
Yes,Raw,1,Sergey Glebov,Amateur Open,1983,Russia,74.15,,,,,,,,,,-180.0,185.0,-202.5,185.0,,185.0,75,M,Сергей Глебов,D
Yes,Raw,1,Artem Vanty,Amateur Teen 13-15,2003,Russia,80.95,,,,,,,,,,120.0,127.5,130.0,130.0,,130.0,82.5,M,Артем Ванты,D
Yes,Raw,1,Denis Pazenko,Amateur Teen 16-17,2000,Russia,80.65,,,,,,,,,,165.0,175.0,-185.0,175.0,,175.0,82.5,M,Денис Пазенко,D
Yes,Raw,2,Vladislav Sokolov,Amateur Teen 16-17,2000,Russia,78.40,,,,,,,,,,150.0,-170.0,-170.0,150.0,,150.0,82.5,M,Владислав Соколов,D
Yes,Raw,1,Vladimir Kurdyukov,Amateur Juniors 20-23,1996,Russia,82.25,,,,,,,,,,190.0,205.0,-215.0,205.0,,205.0,82.5,M,Владимир Курдюков,D
Yes,Raw,1,Eduard Dolgopolov,Amateur Open,1977,Russia,80.45,,,,,,,,,,-235.0,235.0,-245.0,235.0,,235.0,82.5,M,Эдуард Долгополов,D
Yes,Raw,1,Maksim Stavitskiy,Amateur Teen 16-17,1999,Russia,86.10,,,,,,,,,,150.0,167.5,-180.0,167.5,,167.5,90,M,Максим Ставицкий,D
Yes,Raw,1,Konstantin Komelin,Amateur Open,1989,Russia,86.10,,,,,,,,,,245.0,260.0,275.0,275.0,,275.0,90,M,Константин Комелин,D
Yes,Raw,1,Artur Sargsyan,Amateur Teen 16-17,1998,Russia,96.60,,,,,,,,,,235.0,245.0,-255.0,245.0,,245.0,100,M,Артур Саргсян,D
Yes,Raw,1,Vyacheslav Ten,Amateur Open,1987,Russia,99.30,,,,,,,,,,255.0,267.5,-275.0,267.5,,267.5,100,M,Вячеслав Тен,D
Yes,Raw,2,Artur Sargsyan,Amateur Open,1998,Russia,96.60,,,,,,,,,,235.0,245.0,-255.0,245.0,,245.0,100,M,Артур Саргсян,D
Yes,Raw,3,Aleksandr Khromov,Amateur Open,1982,Russia,99.80,,,,,,,,,,200.0,210.0,215.0,215.0,,215.0,100,M,Александр Хромов,D
Yes,Raw,DQ,Viktor Skorokhod,Amateur Open,1987,Russia,97.75,,,,,,,,,,-222.5,-232.5,-232.5,,,,100,M,Виктор Скороход,D
Yes,Raw,1,Aleksandr Zhugan,Amateur Juniors 20-23,1992,Russia,107.00,,,,,,,,,,200.0,207.5,-215.0,207.5,,207.5,110,M,Александр Жуган,D
Yes,Raw,1,Aleksandr Krupnov,Amateur Open,1991,Russia,108.60,,,,,,,,,,190.0,200.0,-207.5,200.0,,200.0,110,M,Александр Крупнов,D
Yes,Raw,DQ,Vasiliy Ostanin,Amateur Masters 40-44,1974,Russia,109.20,,,,,,,,,,-200.0,,,,,,110,M,Василий Останин,D
Yes,Raw,1,Arbi Israilov,Amateur Masters 45-49,1968,Russia,109.80,,,,,,,,,,180.0,200.0,,200.0,,200.0,110,M,Арби Исраилов,D
Yes,Raw,1,Dmitriy Makarov,Amateur Open,1981,Russia,124.50,,,,,,,,,,-225.0,225.0,232.5,232.5,,232.5,125,M,Дмитрий Макаров,D
Yes,Single-ply,1,Yuliya Vakhterova,Amateur Open,1980,Russia,47.70,,,,,,,,,,140.0,145.0,150.0,150.0,-155.0,150.0,48,F,Юлия Вахтерова,D
Yes,Single-ply,1,Darya Toropova,Amateur Open,1991,Russia,53.45,,,,,,,,,,120.0,127.5,132.5,132.5,,132.5,56,F,Дарья Торопова,D
Yes,Single-ply,1,Aleksey Yakushev,Amateur Teen 18-19,1998,Russia,57.70,,,,,,,,,,155.0,165.0,-185.0,165.0,,165.0,60,M,Алексей Якушев,D
Yes,Single-ply,1,Aleksey Yakushev,Amateur Open,1998,Russia,57.70,,,,,,,,,,155.0,165.0,-185.0,165.0,,165.0,60,M,Алексей Якушев,D
Yes,Single-ply,1,Kostas Telidis,Amateur Open,1989,Russia,74.65,,,,,,,,,,245.0,255.0,-260.0,255.0,,255.0,75,M,Костас Телидис,D
Yes,Single-ply,1,Mikhail Modlin,Amateur Open,1982,Russia,95.10,,,,,,,,,,220.0,-232.5,-232.5,220.0,,220.0,100,M,Михаил Модлин,D
Yes,Multi-ply,1,Igor Umerenkov,Amateur Open,1980,Russia,95.00,,,,,,,,,,280.0,300.0,,300.0,,300.0,100,M,Игорь Умеренков,D
No,Raw,1,Viktoriya Voytenko,Pro Open,1991,Russia,63.30,,,,,,,,,,140.0,150.0,160.0,160.0,,160.0,67.5,F,Виктория Войтенко,D
No,Raw,1,Mariya Fedorenko,Pro Open,1978,Russia,69.10,,,,,,,,,,160.0,-170.0,170.0,170.0,,170.0,75,F,Мария Федоренко,D
No,Raw,1,Uulu Kozhokul,Pro Juniors 20-23,1994,Russia,55.50,,,,,,,,,,-130.0,140.0,150.0,150.0,,150.0,56,M,Уулу Кожокул,D
No,Raw,1,Oleg Solonenko,Pro Open,1970,Russia,74.90,,,,,,,,,,200.0,210.0,-220.0,210.0,,210.0,75,M,Олег Солоненко,D
No,Raw,1,Oleg Solonenko,Pro Masters 45-49,1970,Russia,74.90,,,,,,,,,,200.0,210.0,-220.0,210.0,,210.0,75,M,Олег Солоненко,D
No,Raw,1,Aleksandr Raevskiy,Pro Open,1983,Russia,78.55,,,,,,,,,,240.0,-250.0,-250.0,240.0,,240.0,82.5,M,Александр Раевский,D
No,Raw,2,Evgeniy Arest,Pro Open,1979,Russia,76.60,,,,,,,,,,195.0,205.0,210.0,210.0,,210.0,82.5,M,Евгений Арест,D
No,Raw,DQ,Vladislav Ignatyev,Pro Teen 18-19,1997,Russia,85.90,,,,,,,,,,-190.0,-195.0,-200.0,,,,90,M,Владислав Игнатьев,D
No,Raw,1,Mikhail Shirokov,Pro Teen 16-17,1999,Russia,95.55,,,,,,,,,,230.0,-240.0,240.0,240.0,,240.0,100,M,Михаил Широков,D
No,Raw,1,Ilya Surkov,Pro Juniors 20-23,1994,Russia,99.65,,,,,,,,,,280.0,290.0,-300.0,290.0,,290.0,100,M,Илья Сурков,D
No,Raw,1,Artem Ivanov,Pro Juniors 20-23,1993,Russia,107.50,,,,,,,,,,245.0,255.0,-260.0,255.0,,255.0,110,M,Артем Иванов,D
No,Raw,1,Ivan Bodyagin,Pro Open,1987,Russia,115.40,,,,,,,,,,350.0,380.0,-400.0,380.0,,380.0,125,M,Иван Бодягин,D
No,Raw,DQ,Mikhail Chernyuk,Pro Open,1972,Russia,120.20,,,,,,,,,,-270.0,,,,,,125,M,Михаил Чернюк,D
No,Raw,DQ,Mikhail Chernyuk,Pro Masters 40-44,1972,Russia,120.20,,,,,,,,,,-270.0,,,,,,125,M,Михаил Чернюк,D
No,Raw,1,Evgeniy Ivanov,Pro Open,1973,Russia,130.10,,,,,,,,,,315.0,-325.0,,315.0,,315.0,140,M,Евгений Иванов,D
No,Raw,1,Evgeniy Ivanov,Pro Masters 40-44,1973,Russia,130.10,,,,,,,,,,315.0,-325.0,,315.0,,315.0,140,M,Евгений Иванов,D
No,Single-ply,1,Viktoriya Voytenko,Pro Open,1991,Russia,63.30,,,,,,,,,,160.0,-170.0,-170.0,160.0,,160.0,67.5,F,Виктория Войтенко,D
No,Single-ply,2,Evgeniya Tanasiychuk,Pro Open,1992,Russia,64.40,,,,,,,,,,100.0,-110.0,-110.0,100.0,,100.0,67.5,F,Евгения Танасийчук,D
No,Single-ply,1,Denis Urmanov,Pro Open,1980,Russia,73.25,,,,,,,,,,260.0,275.0,-282.5,275.0,,275.0,75,M,Денис Урманов,D
No,Single-ply,2,Konstantin Semenov,Pro Open,1964,Russia,74.50,,,,,,,,,,-215.0,222.5,227.5,227.5,,227.5,75,M,Константин Семенов,D
No,Single-ply,1,Konstantin Semenov,Pro Masters 50-54,1964,Russia,74.50,,,,,,,,,,-215.0,222.5,227.5,227.5,,227.5,75,M,Константин Семенов,D
No,Single-ply,1,Igor Gavrilyan,Pro Open,1979,Russia,89.80,,,,,,,,,,250.0,260.0,270.0,270.0,,270.0,90,M,Игорь Гаврильян,D
No,Single-ply,2,Oleg Reshetnev,Pro Open,1988,Russia,87.90,,,,,,,,,,220.0,230.0,240.0,240.0,,240.0,90,M,Олег Решетнев,D
No,Single-ply,1,Yuriy Katanov,Pro Open,1981,Russia,98.95,,,,,,,,,,300.0,315.0,-325.0,315.0,,315.0,100,M,Юрий Катанов,D
No,Single-ply,2,Pavel Strepetilov,Pro Open,1982,Russia,98.30,,,,,,,,,,260.0,270.0,-285.0,270.0,,270.0,100,M,Павел Стрепетилов,D
No,Single-ply,3,Roman Fedorov,Pro Open,1980,Russia,95.65,,,,,,,,,,250.0,260.0,,260.0,,260.0,100,M,Роман Федоров,D
No,Single-ply,DQ,Vasiliy Tanaseychuk,Pro Open,1991,Russia,120.40,,,,,,,,,,-290.0,-305.0,-305.0,,,,125,M,Василий Танасийчук,D
No,Multi-ply,1,Andrey Schur,Pro Masters 40-44,1973,Russia,78.60,,,,,,,,,,180.0,195.0,205.0,205.0,,205.0,82.5,M,Андрей Щур,D
No,Multi-ply,1,Vitaliy Dolgov,Pro Open,1984,Russia,89.60,,,,,,,,,,200.0,210.0,225.0,225.0,,225.0,90,M,Виталий Долгов,D
No,Multi-ply,1,Elisey Belets,Pro Open,1986,Russia,98.15,,,,,,,,,,250.0,260.0,,260.0,,260.0,100,M,Елисей Белец,D
